<?xml version="1.0" encoding="UTF-8" ?>
<!DOCTYPE svg PUBLIC "-//W3C//DTD SVG 1.1//EN" "http://www.w3.org/Graphics/SVG/1.1/DTD/svg11.dtd">
<svg width="910pt" height="185pt" viewBox="0 0 910 185" version="1.1" xmlns="http://www.w3.org/2000/svg">
<g id="#266a2eff">
<path fill="#266a2e" opacity="1.00" d=" M 0.00 0.00 L 910.00 0.00 L 910.00 185.00 L 0.00 185.00 L 0.00 0.00 M 83.58 2.86 C 64.47 5.23 46.18 13.94 32.37 27.36 C 18.42 40.44 8.98 58.12 5.51 76.89 C 4.58 82.56 5.15 88.31 5.01 94.02 C 5.15 99.67 4.53 105.41 5.68 110.99 C 8.11 123.33 13.06 135.19 20.24 145.53 C 34.39 166.01 57.16 180.55 81.91 183.88 C 90.94 184.08 99.99 184.07 109.02 183.88 C 128.50 181.24 146.98 171.72 160.67 157.63 C 177.13 141.23 186.68 118.21 186.97 95.00 C 187.35 76.23 181.68 57.42 171.08 41.94 C 158.62 23.67 139.40 10.11 117.90 4.78 C 106.62 2.62 95.03 0.91 83.58 2.86 M 503.79 43.86 C 493.17 58.91 491.15 78.21 492.85 96.10 C 494.23 110.08 499.07 124.62 509.85 134.17 C 519.21 142.56 533.03 144.10 544.82 140.80 C 552.35 138.69 558.83 133.85 563.81 127.90 C 561.19 123.59 558.54 119.30 555.88 115.02 C 555.11 115.01 553.56 115.00 552.79 115.00 C 550.80 117.58 548.67 120.15 545.82 121.82 C 541.00 124.86 534.97 125.22 529.49 124.23 C 521.06 122.13 515.53 114.32 512.66 106.58 C 508.37 94.43 508.57 81.00 511.32 68.53 C 513.79 59.06 518.94 48.47 529.08 45.51 C 536.87 43.89 545.65 44.96 552.29 49.58 C 553.15 49.31 554.01 49.05 554.89 48.78 C 556.70 43.97 558.25 39.06 559.89 34.18 C 551.54 28.26 540.89 26.82 530.90 27.34 C 519.81 27.97 509.84 34.76 503.79 43.86 M 702.33 43.39 C 691.33 58.78 689.08 78.70 691.16 97.06 C 692.64 110.68 697.53 124.74 707.96 134.09 C 717.75 142.87 732.37 144.29 744.54 140.32 C 751.51 138.09 757.29 133.30 762.00 127.82 C 759.35 123.53 756.71 119.25 754.03 114.99 C 753.26 115.00 751.73 115.01 750.96 115.02 C 748.23 118.66 744.89 122.10 740.45 123.51 C 733.62 125.75 725.38 125.14 719.86 120.18 C 711.87 113.12 708.56 102.24 707.79 91.92 C 707.05 80.04 708.16 67.52 714.05 56.96 C 717.47 50.66 723.54 45.25 730.99 44.87 C 737.69 44.63 744.93 45.45 750.45 49.61 C 751.41 49.23 752.37 48.84 753.35 48.46 C 754.85 43.70 756.45 38.98 758.05 34.26 C 749.75 28.16 738.97 26.82 728.95 27.36 C 718.13 28.04 708.34 34.55 702.33 43.39 M 620.95 29.03 C 619.24 28.77 618.11 29.93 617.09 31.08 C 617.27 66.98 617.21 102.90 617.13 138.81 C 618.08 139.39 618.81 140.62 620.06 140.56 C 623.92 140.72 627.78 140.54 631.65 140.60 C 632.29 139.93 632.93 139.25 633.58 138.58 C 633.62 123.71 633.58 108.84 633.60 93.97 C 636.99 94.32 640.39 94.57 643.81 94.62 C 652.06 109.92 660.22 125.27 668.43 140.59 C 673.61 140.61 678.79 140.58 683.97 140.62 C 684.54 139.50 685.11 138.39 685.70 137.27 C 677.20 121.72 668.84 106.09 660.30 90.56 C 665.09 88.16 669.16 84.46 671.87 79.83 C 677.77 70.83 678.29 59.28 675.71 49.09 C 673.59 40.54 666.95 33.42 658.63 30.58 C 646.51 26.29 633.46 28.47 620.95 29.03 M 202.93 30.89 C 203.12 66.30 202.91 101.72 203.03 137.13 C 202.91 138.46 203.92 139.49 204.47 140.61 C 222.72 140.56 240.97 140.64 259.23 140.57 C 259.66 140.13 260.52 139.23 260.95 138.79 C 261.05 134.12 260.94 129.45 261.07 124.78 C 260.13 124.16 259.44 122.87 258.15 123.04 C 245.22 122.93 232.28 123.05 219.34 122.99 C 219.35 93.00 219.35 63.00 219.34 33.00 C 219.51 31.54 218.67 30.34 217.99 29.15 C 213.94 29.26 209.89 29.07 205.85 29.22 C 204.59 29.07 203.87 30.30 202.93 30.89 M 273.92 30.79 C 274.12 66.74 273.94 102.69 274.01 138.63 C 274.40 139.12 275.18 140.11 275.58 140.60 C 279.99 140.60 284.40 140.60 288.81 140.59 C 289.69 139.19 290.59 137.74 290.36 136.01 C 290.34 101.09 290.34 66.16 290.35 31.24 C 289.91 30.72 289.03 29.69 288.59 29.17 C 284.70 29.23 280.80 29.09 276.91 29.22 C 275.61 28.99 274.82 30.14 273.92 30.79 M 310.93 30.95 C 311.12 66.31 310.92 101.67 311.02 137.03 C 310.80 138.71 312.02 140.77 313.90 140.56 C 317.82 140.71 321.74 140.55 325.66 140.60 C 326.23 139.89 326.79 139.17 327.37 138.45 C 327.33 121.90 327.34 105.35 327.36 88.80 C 337.55 88.84 347.74 88.79 357.92 88.83 C 358.55 88.14 359.17 87.45 359.80 86.76 C 359.81 82.56 359.81 78.37 359.81 74.17 C 359.23 73.45 358.65 72.72 358.07 72.00 C 347.82 72.00 337.58 72.01 327.34 71.99 C 327.35 63.52 327.34 55.05 327.35 46.58 C 341.49 46.63 355.63 46.56 369.77 46.62 C 370.44 45.98 371.11 45.34 371.78 44.70 C 371.83 40.15 371.83 35.59 371.78 31.04 C 371.15 30.42 370.52 29.80 369.90 29.18 C 351.23 29.22 332.56 29.13 313.89 29.22 C 312.56 29.01 311.81 30.25 310.93 30.95 M 381.93 30.84 C 382.11 66.24 381.92 101.64 382.02 137.04 C 381.91 138.42 382.93 139.47 383.51 140.61 C 401.84 140.57 420.16 140.63 438.48 140.58 C 439.10 139.81 439.72 139.04 440.35 138.27 C 440.34 133.94 440.34 129.61 440.36 125.28 C 439.90 124.71 438.98 123.58 438.52 123.01 C 425.21 122.99 411.90 123.01 398.60 123.00 C 398.60 111.60 398.60 100.20 398.60 88.81 C 407.74 88.77 416.88 88.89 426.02 88.77 C 427.28 88.92 427.95 87.65 428.88 87.03 C 428.71 83.00 428.94 78.96 428.76 74.93 C 428.84 73.70 427.78 72.90 427.24 71.93 C 417.69 72.08 408.14 71.96 398.60 72.00 C 398.59 63.53 398.60 55.06 398.59 46.59 C 412.17 46.58 425.74 46.64 439.32 46.56 C 439.69 46.09 440.43 45.16 440.80 44.69 C 440.83 40.08 440.74 35.48 440.89 30.87 C 439.97 30.28 439.26 29.03 438.02 29.22 C 420.69 29.14 403.37 29.22 386.04 29.18 C 384.39 28.87 383.13 29.89 381.93 30.84 M 579.38 31.29 C 579.42 67.06 579.40 102.82 579.39 138.59 C 580.04 139.27 580.69 139.95 581.35 140.63 C 585.21 140.53 589.08 140.71 592.95 140.56 C 594.18 140.62 594.90 139.39 595.87 138.81 C 595.74 102.98 595.85 67.14 595.82 31.30 C 595.48 30.79 594.82 29.78 594.49 29.27 C 589.98 29.13 585.48 29.20 580.98 29.19 C 580.44 29.89 579.91 30.59 579.38 31.29 M 775.39 31.28 C 775.42 67.05 775.40 102.82 775.40 138.60 C 776.04 139.27 776.69 139.95 777.35 140.63 C 795.43 140.57 813.51 140.60 831.60 140.61 C 832.24 139.90 832.89 139.19 833.56 138.49 C 833.62 134.09 833.58 129.70 833.62 125.30 C 832.98 124.54 832.36 123.77 831.75 123.00 C 818.43 122.99 805.12 123.00 791.81 123.00 C 791.87 92.35 791.70 61.70 791.89 31.05 C 791.29 30.44 790.67 29.86 790.03 29.31 C 785.68 28.98 781.33 29.28 776.98 29.19 C 776.44 29.88 775.91 30.58 775.39 31.28 M 844.18 32.97 C 844.20 68.17 844.19 103.36 844.18 138.56 C 844.58 139.07 845.36 140.08 845.76 140.59 C 864.02 140.59 882.29 140.63 900.56 140.57 C 901.15 139.81 901.74 139.04 902.36 138.28 C 902.33 133.95 902.34 129.62 902.35 125.29 C 901.93 124.73 901.09 123.60 900.66 123.04 C 887.31 122.94 873.95 123.03 860.60 123.00 C 860.60 111.60 860.60 100.20 860.60 88.81 C 869.74 88.77 878.88 88.89 888.02 88.77 C 891.10 89.01 890.92 85.08 890.84 82.99 C 890.46 79.33 891.90 75.04 889.35 71.94 C 879.77 72.08 870.18 71.96 860.60 72.00 C 860.59 63.53 860.60 55.06 860.59 46.59 C 872.07 46.62 883.55 46.57 895.03 46.62 C 897.68 46.53 900.70 47.19 902.84 45.19 C 902.68 40.49 903.03 35.77 902.69 31.07 C 902.20 28.93 899.77 29.17 898.08 29.16 C 881.04 29.25 864.00 29.11 846.96 29.23 C 844.86 28.89 843.91 31.24 844.18 32.97 Z" />
<path fill="#266a2e" opacity="1.00" d=" M 84.44 6.65 C 102.26 4.43 120.80 7.79 136.57 16.47 C 155.28 26.52 170.01 43.70 177.18 63.69 C 183.94 82.91 183.84 104.57 176.75 123.69 C 169.52 142.92 155.32 159.46 137.29 169.34 C 124.46 176.54 109.71 180.41 94.98 180.03 C 72.33 180.55 49.87 171.00 33.89 155.07 C 19.13 140.63 9.75 120.74 8.29 100.12 C 6.84 82.92 10.61 65.27 19.22 50.29 C 32.44 26.55 57.40 9.67 84.44 6.65 M 99.50 15.18 C 99.15 21.52 98.68 27.85 98.31 34.18 C 99.12 34.24 100.74 34.37 101.55 34.44 C 101.69 28.06 102.44 21.72 102.65 15.35 C 101.60 15.29 100.55 15.24 99.50 15.18 M 82.97 17.03 C 77.71 20.44 78.39 28.59 82.05 32.93 C 85.35 36.46 90.48 35.25 94.37 33.50 C 94.33 32.90 94.24 31.69 94.20 31.09 C 91.01 31.73 86.81 33.85 84.36 30.57 C 82.07 27.32 81.44 21.70 84.99 19.08 C 86.95 17.71 89.47 18.48 91.66 18.57 C 91.87 17.87 92.30 16.48 92.51 15.79 C 89.31 15.46 85.79 15.17 82.97 17.03 M 106.13 34.70 C 106.87 34.97 108.37 35.50 109.12 35.77 C 109.89 33.25 110.71 30.74 111.64 28.28 C 112.33 28.61 113.71 29.28 114.40 29.61 C 115.05 32.49 115.72 35.37 116.54 38.21 C 117.64 38.43 118.74 38.65 119.84 38.87 C 118.99 35.84 118.16 32.80 117.19 29.81 C 120.69 28.98 123.59 25.73 122.35 21.97 C 120.19 18.33 115.50 17.96 111.90 16.57 C 109.98 22.62 108.04 28.65 106.13 34.70 M 52.49 28.19 C 55.67 33.69 58.87 39.19 61.96 44.74 C 64.45 43.30 66.99 41.93 69.45 40.45 C 71.18 39.95 71.30 38.31 70.14 37.08 C 67.85 38.16 65.72 39.52 63.56 40.83 C 62.47 39.17 61.41 37.50 60.34 35.82 C 62.49 34.52 64.67 33.25 66.86 32.01 C 66.43 31.49 65.56 30.43 65.13 29.91 C 63.12 31.10 61.11 32.29 59.08 33.46 C 58.24 31.95 57.40 30.45 56.54 28.95 C 58.77 27.69 61.00 26.43 63.21 25.14 C 62.88 24.57 62.23 23.44 61.90 22.87 C 58.75 24.63 55.66 26.47 52.49 28.19 M 123.78 37.92 C 123.67 42.41 127.78 46.13 131.96 46.99 C 132.66 46.48 133.35 45.94 134.00 45.37 C 131.50 44.01 128.00 43.06 127.30 39.88 C 126.74 36.00 129.62 32.31 132.92 30.61 C 136.49 29.31 139.00 32.55 140.96 34.97 C 141.69 34.33 142.41 33.71 143.14 33.08 C 140.59 30.10 137.28 26.81 132.97 27.48 C 128.02 28.39 124.69 33.22 123.78 37.92 M 38.32 40.93 C 42.96 45.24 47.50 49.65 52.01 54.09 C 52.78 53.38 53.54 52.67 54.30 51.95 C 52.62 50.04 49.86 48.62 49.07 46.18 C 50.46 44.40 52.13 42.87 53.68 41.23 C 53.16 40.80 52.11 39.93 51.59 39.50 C 49.98 41.20 48.37 42.91 46.79 44.64 C 45.34 43.29 43.89 41.93 42.45 40.57 C 44.24 38.71 46.04 36.86 47.88 35.04 C 47.39 34.56 46.41 33.61 45.93 33.13 C 43.38 35.72 40.86 38.34 38.32 40.93 M 134.34 50.49 C 136.63 53.40 138.92 56.30 141.13 59.28 C 141.70 58.91 142.85 58.16 143.43 57.79 C 141.76 55.59 140.07 53.41 138.39 51.22 C 142.79 47.94 147.10 44.55 151.40 41.15 C 150.65 40.40 149.91 39.64 149.17 38.89 C 144.27 42.81 139.28 46.62 134.34 50.49 M 82.58 46.03 C 71.81 48.80 62.13 55.52 55.64 64.53 C 47.82 75.15 44.72 89.12 47.25 102.06 C 49.37 114.43 56.74 125.75 67.02 132.93 C 78.10 140.87 92.66 143.68 105.92 140.59 C 118.09 137.98 129.00 130.28 135.82 119.91 C 143.16 108.90 145.58 94.80 142.52 81.95 C 139.87 70.09 132.43 59.42 122.33 52.69 C 110.88 44.85 95.97 42.42 82.58 46.03 M 33.09 48.15 C 32.58 49.04 32.07 49.94 31.55 50.83 C 37.07 54.08 42.35 57.72 48.00 60.75 C 48.34 60.08 49.02 58.74 49.36 58.07 C 43.86 54.89 38.61 51.30 33.09 48.15 M 142.49 62.01 C 144.02 65.27 145.43 68.58 146.90 71.86 C 147.48 71.63 148.64 71.16 149.23 70.92 C 148.33 68.48 147.32 66.09 146.25 63.73 C 148.08 62.95 149.91 62.18 151.75 61.43 C 152.65 63.60 153.59 65.75 154.52 67.90 C 155.35 67.56 156.19 67.23 157.02 66.89 C 156.06 64.70 155.05 62.53 154.07 60.36 C 155.66 59.63 157.27 58.93 158.89 58.25 C 159.82 60.53 160.78 62.78 161.73 65.05 C 162.63 64.78 163.53 64.52 164.43 64.25 C 162.88 60.97 161.38 57.67 160.01 54.32 C 154.15 56.83 148.30 59.39 142.49 62.01 M 40.58 69.80 C 35.31 68.41 30.42 65.90 25.21 64.30 C 24.85 65.25 24.49 66.20 24.13 67.16 C 30.10 69.35 36.00 71.73 41.98 73.91 C 43.15 70.47 44.76 67.19 45.78 63.71 C 45.25 63.31 44.20 62.52 43.68 62.13 C 42.55 64.65 41.70 67.28 40.58 69.80 M 21.11 90.88 C 18.91 95.78 24.63 101.46 29.57 99.43 C 32.49 98.57 33.57 95.58 34.45 92.99 C 33.51 90.95 32.87 88.41 30.67 87.33 C 27.32 85.05 22.30 87.11 21.11 90.88 M 162.47 86.57 C 157.32 87.70 155.44 95.11 159.85 98.25 C 163.51 101.73 170.22 98.91 170.60 93.97 C 171.44 89.57 166.73 85.39 162.47 86.57 M 152.20 121.91 C 152.30 123.36 153.83 124.00 154.95 124.57 C 158.30 125.38 160.14 120.49 163.37 121.56 C 164.63 123.53 162.74 125.29 161.76 126.87 C 160.20 127.68 162.35 129.62 163.08 128.31 C 165.32 126.25 167.28 121.91 164.22 119.68 C 160.96 117.86 158.22 121.27 155.73 122.85 C 152.85 121.08 155.05 118.43 156.65 116.69 C 156.27 116.33 155.50 115.60 155.12 115.24 C 153.74 117.22 151.63 119.24 152.20 121.91 M 32.27 118.17 C 29.47 119.99 31.08 123.62 30.54 126.33 C 27.47 129.19 26.18 123.23 25.19 121.26 C 22.92 123.71 25.18 127.12 27.37 128.72 C 29.35 130.41 32.93 128.57 32.71 125.98 C 32.79 123.62 32.39 121.09 33.93 119.07 C 35.92 120.40 36.80 122.63 37.94 124.62 C 40.80 121.93 35.72 115.40 32.27 118.17 M 145.61 130.78 C 149.45 133.13 152.92 136.07 156.96 138.07 C 158.89 136.16 160.15 133.71 161.62 131.46 C 158.80 130.39 158.07 133.79 156.70 135.46 C 155.53 134.67 154.36 133.88 153.19 133.10 C 154.18 131.57 155.28 130.10 155.97 128.41 C 153.55 127.28 152.79 130.71 151.33 131.95 C 150.62 131.45 149.19 130.46 148.48 129.96 C 149.32 128.05 152.68 125.99 150.20 123.99 C 148.65 126.24 147.14 128.52 145.61 130.78 M 30.05 133.93 C 31.96 135.87 32.87 139.67 35.92 139.89 C 35.90 137.73 34.06 136.28 32.97 134.60 C 34.08 133.77 35.18 132.94 36.29 132.11 C 37.71 133.60 38.60 136.37 41.17 135.79 C 40.15 134.07 39.05 132.40 38.02 130.69 C 38.98 130.06 39.94 129.44 40.91 128.82 C 42.38 130.32 43.25 133.92 45.95 132.38 C 44.35 130.17 42.71 128.00 41.07 125.82 C 37.40 128.53 33.73 131.24 30.05 133.93 M 139.74 140.11 C 140.56 143.78 143.76 146.19 147.09 147.48 C 150.49 146.77 153.28 144.35 154.12 140.94 C 151.79 141.24 150.78 143.57 148.93 144.70 C 145.70 145.37 142.16 142.26 142.13 139.02 C 141.94 136.71 144.44 135.78 145.85 134.47 C 145.62 134.03 145.17 133.14 144.95 132.69 C 142.37 134.33 139.49 136.72 139.74 140.11 M 37.71 145.13 C 41.81 144.22 43.72 139.86 46.71 137.32 C 45.74 141.50 44.83 145.68 43.98 149.89 C 44.48 150.39 45.47 151.39 45.97 151.89 C 49.08 148.53 52.24 145.21 55.44 141.94 C 55.08 141.54 54.35 140.75 53.98 140.36 C 51.51 143.01 49.04 145.67 46.55 148.31 C 47.28 144.21 48.61 140.19 48.85 136.01 C 48.35 135.27 47.82 134.55 47.25 133.85 C 44.17 137.68 39.69 140.53 37.71 145.13 M 133.59 142.84 C 136.41 146.46 139.26 150.06 142.02 153.73 C 142.48 153.36 143.39 152.61 143.85 152.24 C 141.01 148.75 138.28 145.18 135.59 141.58 C 135.09 141.89 134.09 142.52 133.59 142.84 M 50.33 155.35 C 50.86 155.44 51.92 155.63 52.45 155.72 C 55.14 152.26 57.40 148.48 59.96 144.92 C 59.50 144.58 58.56 143.90 58.09 143.56 C 55.61 147.56 52.47 151.15 50.33 155.35 M 130.85 145.76 C 131.32 149.37 132.13 152.93 132.68 156.53 C 129.86 153.89 127.31 150.93 124.20 148.62 C 123.68 148.83 122.64 149.26 122.12 149.47 C 125.74 152.83 129.38 156.16 133.02 159.49 C 133.54 159.15 134.58 158.47 135.10 158.13 C 134.14 153.26 133.70 148.29 132.33 143.50 C 131.96 144.07 131.22 145.20 130.85 145.76 M 62.45 148.69 C 59.01 150.73 57.14 155.40 58.73 159.16 C 60.61 161.89 64.68 163.69 67.70 161.72 C 70.45 159.82 71.99 156.21 71.43 152.91 C 70.40 149.28 65.89 147.36 62.45 148.69 M 112.94 152.31 C 114.03 156.90 115.50 161.38 116.88 165.89 C 120.32 164.72 117.61 161.54 117.29 159.23 C 121.25 158.40 122.65 164.21 126.76 162.86 C 125.11 161.15 123.29 159.60 121.45 158.09 C 122.54 156.33 123.47 153.89 122.00 152.07 C 119.54 149.30 115.82 151.69 112.94 152.31 M 75.69 152.12 C 74.74 156.65 73.83 161.18 73.01 165.74 C 73.55 165.75 74.64 165.77 75.19 165.79 C 75.64 163.91 76.12 162.05 76.68 160.21 C 80.16 161.78 78.72 167.88 83.15 167.68 C 82.31 165.55 81.42 163.44 80.56 161.32 C 82.82 160.20 84.78 157.94 83.57 155.29 C 81.75 152.85 78.38 152.86 75.69 152.12 M 102.58 153.87 C 103.36 158.43 103.82 163.03 104.52 167.60 C 107.33 166.81 111.20 167.62 112.90 164.73 C 110.74 164.74 108.60 164.98 106.46 165.27 C 106.34 163.88 106.22 162.49 106.10 161.11 C 107.97 160.50 110.97 161.17 111.34 158.52 C 109.43 158.67 107.54 158.91 105.65 159.19 C 105.49 158.01 105.33 156.83 105.17 155.65 C 107.23 155.27 109.28 154.83 111.31 154.29 C 109.04 151.81 105.45 153.90 102.58 153.87 M 92.71 160.33 C 94.59 161.74 96.79 162.64 98.78 163.89 C 97.53 167.29 94.03 166.11 91.33 165.63 C 92.46 170.78 102.16 168.09 100.42 162.96 C 98.91 160.36 95.44 160.10 93.44 157.97 C 94.56 155.03 98.09 156.61 100.42 156.24 C 99.53 153.62 96.18 153.85 94.03 154.47 C 91.57 155.16 90.85 158.61 92.71 160.33 Z" />
<path fill="#266a2e" opacity="1.00" d=" M 113.93 20.06 C 115.60 20.63 117.62 20.84 118.79 22.30 C 120.09 23.48 119.02 25.21 118.32 26.38 C 116.42 27.41 114.22 26.43 112.22 26.27 C 112.78 24.19 113.37 22.13 113.93 20.06 Z" />
<path fill="#266a2e" opacity="1.00" d=" M 633.57 46.41 C 640.46 45.52 647.88 45.68 654.22 48.80 C 659.35 51.39 660.63 57.75 660.11 62.99 C 659.70 67.29 658.68 72.31 654.65 74.69 C 648.32 78.40 640.63 77.79 633.60 77.35 C 633.58 67.03 633.63 56.72 633.57 46.41 Z" />
<path fill="#266a2e" opacity="1.00" d=" M 64.35 150.35 C 66.37 149.87 68.38 151.20 69.20 153.01 C 69.53 155.43 68.41 158.01 66.62 159.63 C 64.27 161.88 59.59 159.20 60.43 155.99 C 60.89 153.76 62.02 151.12 64.35 150.35 Z" />
<path fill="#266a2e" opacity="1.00" d=" M 115.39 153.44 C 117.00 153.37 119.13 151.98 120.22 153.82 C 120.42 154.60 120.59 155.39 120.73 156.19 C 119.44 156.76 118.15 157.34 116.85 157.91 C 116.36 156.41 115.88 154.93 115.39 153.44 Z" />
<path fill="#266a2e" opacity="1.00" d=" M 77.65 154.35 C 78.87 154.80 80.10 155.23 81.25 155.84 C 82.01 157.14 80.90 158.37 80.47 159.56 C 79.13 159.28 77.79 159.00 76.45 158.69 C 76.85 157.24 77.25 155.79 77.65 154.35 Z" />
</g>
<g id="#ffffffff">
<path fill="#ffffff" opacity="1.00" d=" M 83.58 2.86 C 95.03 0.91 106.62 2.62 117.90 4.78 C 139.40 10.11 158.62 23.67 171.08 41.94 C 181.68 57.42 187.35 76.23 186.97 95.00 C 186.68 118.21 177.13 141.23 160.67 157.63 C 146.98 171.72 128.50 181.24 109.02 183.88 C 99.99 184.07 90.94 184.08 81.91 183.88 C 57.16 180.55 34.39 166.01 20.24 145.53 C 13.06 135.19 8.11 123.33 5.68 110.99 C 4.53 105.41 5.15 99.67 5.01 94.02 C 5.15 88.31 4.58 82.56 5.51 76.89 C 8.98 58.12 18.42 40.44 32.37 27.36 C 46.18 13.94 64.47 5.23 83.58 2.86 M 84.44 6.65 C 57.40 9.67 32.44 26.55 19.22 50.29 C 10.61 65.27 6.84 82.92 8.29 100.12 C 9.75 120.74 19.13 140.63 33.89 155.07 C 49.87 171.00 72.33 180.55 94.98 180.03 C 109.71 180.41 124.46 176.54 137.29 169.34 C 155.32 159.46 169.52 142.92 176.75 123.69 C 183.84 104.57 183.94 82.91 177.18 63.69 C 170.01 43.70 155.28 26.52 136.57 16.47 C 120.80 7.79 102.26 4.43 84.44 6.65 Z" />
<path fill="#ffffff" opacity="1.00" d=" M 99.50 15.18 C 100.55 15.24 101.60 15.29 102.65 15.35 C 102.44 21.72 101.69 28.06 101.55 34.44 C 100.74 34.37 99.12 34.24 98.31 34.18 C 98.68 27.85 99.15 21.52 99.50 15.18 Z" />
<path fill="#ffffff" opacity="1.00" d=" M 82.97 17.03 C 85.79 15.17 89.31 15.46 92.51 15.79 C 92.30 16.48 91.87 17.87 91.66 18.57 C 89.47 18.48 86.95 17.71 84.99 19.08 C 81.44 21.70 82.07 27.32 84.36 30.57 C 86.81 33.85 91.01 31.73 94.20 31.09 C 94.24 31.69 94.33 32.90 94.37 33.50 C 90.48 35.25 85.35 36.46 82.05 32.93 C 78.39 28.59 77.71 20.44 82.97 17.03 Z" />
<path fill="#ffffff" opacity="1.00" d=" M 106.13 34.70 C 108.04 28.65 109.98 22.62 111.90 16.57 C 115.50 17.96 120.19 18.33 122.35 21.97 C 123.59 25.73 120.69 28.98 117.19 29.81 C 118.16 32.80 118.99 35.84 119.84 38.87 C 118.74 38.65 117.64 38.43 116.54 38.21 C 115.72 35.37 115.05 32.49 114.40 29.61 C 113.71 29.28 112.33 28.61 111.64 28.28 C 110.71 30.74 109.89 33.25 109.12 35.77 C 108.37 35.50 106.87 34.97 106.13 34.70 M 113.93 20.06 C 113.37 22.13 112.78 24.19 112.22 26.27 C 114.22 26.43 116.42 27.41 118.32 26.38 C 119.02 25.21 120.09 23.48 118.79 22.30 C 117.62 20.84 115.60 20.63 113.93 20.06 Z" />
<path fill="#ffffff" opacity="1.00" d=" M 52.49 28.19 C 55.66 26.47 58.75 24.63 61.90 22.87 C 62.23 23.44 62.88 24.57 63.21 25.14 C 61.00 26.43 58.77 27.69 56.54 28.95 C 57.40 30.45 58.24 31.95 59.08 33.46 C 61.11 32.29 63.12 31.10 65.13 29.91 C 65.56 30.43 66.43 31.49 66.86 32.01 C 64.67 33.25 62.49 34.52 60.34 35.82 C 61.41 37.50 62.47 39.17 63.56 40.83 C 65.72 39.52 67.85 38.16 70.14 37.08 C 71.30 38.31 71.18 39.95 69.45 40.45 C 66.99 41.93 64.45 43.30 61.96 44.74 C 58.87 39.19 55.67 33.69 52.49 28.19 Z" />
<path fill="#ffffff" opacity="1.00" d=" M 503.79 43.86 C 509.84 34.76 519.81 27.97 530.90 27.34 C 540.89 26.82 551.54 28.26 559.89 34.18 C 558.25 39.06 556.70 43.97 554.89 48.78 C 554.01 49.05 553.15 49.31 552.29 49.58 C 545.65 44.96 536.87 43.89 529.08 45.51 C 518.94 48.47 513.79 59.06 511.32 68.53 C 508.57 81.00 508.37 94.43 512.66 106.58 C 515.53 114.32 521.06 122.13 529.49 124.23 C 534.97 125.22 541.00 124.86 545.82 121.82 C 548.67 120.15 550.80 117.58 552.79 115.00 C 553.56 115.00 555.11 115.01 555.88 115.02 C 558.54 119.30 561.19 123.59 563.81 127.90 C 558.83 133.85 552.35 138.69 544.82 140.80 C 533.03 144.10 519.21 142.56 509.85 134.17 C 499.07 124.62 494.23 110.08 492.85 96.10 C 491.15 78.21 493.17 58.91 503.79 43.86 Z" />
<path fill="#ffffff" opacity="1.00" d=" M 702.33 43.39 C 708.34 34.55 718.13 28.04 728.95 27.36 C 738.97 26.82 749.75 28.16 758.05 34.26 C 756.45 38.98 754.85 43.70 753.35 48.46 C 752.37 48.84 751.41 49.23 750.45 49.61 C 744.93 45.45 737.69 44.63 730.99 44.87 C 723.54 45.25 717.47 50.66 714.05 56.96 C 708.16 67.52 707.05 80.04 707.79 91.92 C 708.56 102.24 711.87 113.12 719.86 120.18 C 725.38 125.14 733.62 125.75 740.45 123.51 C 744.89 122.10 748.23 118.66 750.96 115.02 C 751.73 115.01 753.26 115.00 754.03 114.99 C 756.71 119.25 759.35 123.53 762.00 127.82 C 757.29 133.30 751.51 138.09 744.54 140.32 C 732.37 144.29 717.75 142.87 707.96 134.09 C 697.53 124.74 692.64 110.68 691.16 97.06 C 689.08 78.70 691.33 58.78 702.33 43.39 Z" />
<path fill="#ffffff" opacity="1.00" d=" M 123.78 37.92 C 124.69 33.22 128.02 28.39 132.97 27.48 C 137.28 26.81 140.59 30.10 143.14 33.08 C 142.41 33.71 141.69 34.33 140.96 34.97 C 139.00 32.55 136.49 29.31 132.92 30.61 C 129.62 32.31 126.74 36.00 127.30 39.88 C 128.00 43.06 131.50 44.01 134.00 45.37 C 133.35 45.94 132.66 46.48 131.96 46.99 C 127.78 46.13 123.67 42.41 123.78 37.92 Z" />
<path fill="#ffffff" opacity="1.00" d=" M 620.95 29.03 C 633.46 28.47 646.51 26.29 658.63 30.58 C 666.95 33.42 673.59 40.54 675.71 49.09 C 678.29 59.28 677.77 70.83 671.87 79.83 C 669.16 84.46 665.09 88.16 660.30 90.56 C 668.84 106.09 677.20 121.72 685.70 137.27 C 685.11 138.39 684.54 139.50 683.97 140.62 C 678.79 140.58 673.61 140.61 668.43 140.59 C 660.22 125.27 652.06 109.92 643.81 94.62 C 640.39 94.57 636.99 94.32 633.60 93.97 C 633.58 108.84 633.62 123.71 633.58 138.58 C 632.93 139.25 632.29 139.93 631.65 140.60 C 627.78 140.54 623.92 140.72 620.06 140.56 C 618.81 140.62 618.08 139.39 617.13 138.81 C 617.21 102.90 617.27 66.98 617.09 31.08 C 618.11 29.93 619.24 28.77 620.95 29.03 M 633.57 46.41 C 633.63 56.72 633.58 67.03 633.60 77.35 C 640.63 77.79 648.32 78.40 654.65 74.69 C 658.68 72.31 659.70 67.29 660.11 62.99 C 660.63 57.75 659.35 51.39 654.22 48.80 C 647.88 45.68 640.46 45.52 633.57 46.41 Z" />
<path fill="#ffffff" opacity="1.00" d=" M 202.93 30.89 C 203.87 30.30 204.59 29.07 205.85 29.22 C 209.89 29.07 213.94 29.26 217.99 29.15 C 218.67 30.34 219.51 31.54 219.34 33.00 C 219.35 63.00 219.35 93.00 219.34 122.99 C 232.28 123.05 245.22 122.93 258.15 123.04 C 259.44 122.87 260.13 124.16 261.07 124.78 C 260.94 129.45 261.05 134.12 260.95 138.79 C 260.52 139.23 259.66 140.13 259.23 140.57 C 240.97 140.64 222.72 140.56 204.47 140.61 C 203.92 139.49 202.91 138.46 203.03 137.13 C 202.91 101.72 203.12 66.30 202.93 30.89 Z" />
<path fill="#ffffff" opacity="1.00" d=" M 273.92 30.79 C 274.82 30.14 275.61 28.99 276.91 29.22 C 280.80 29.09 284.70 29.23 288.59 29.17 C 289.03 29.69 289.91 30.72 290.35 31.24 C 290.34 66.16 290.34 101.09 290.36 136.01 C 290.59 137.74 289.69 139.19 288.81 140.59 C 284.40 140.60 279.99 140.60 275.58 140.60 C 275.18 140.11 274.40 139.12 274.01 138.63 C 273.94 102.69 274.12 66.74 273.92 30.79 Z" />
<path fill="#ffffff" opacity="1.00" d=" M 310.93 30.95 C 311.81 30.25 312.56 29.01 313.89 29.22 C 332.56 29.13 351.23 29.22 369.90 29.18 C 370.52 29.80 371.15 30.42 371.78 31.04 C 371.83 35.59 371.83 40.15 371.78 44.70 C 371.11 45.34 370.44 45.98 369.77 46.62 C 355.63 46.56 341.49 46.63 327.35 46.58 C 327.34 55.05 327.35 63.52 327.34 71.99 C 337.58 72.01 347.82 72.00 358.07 72.00 C 358.65 72.72 359.23 73.45 359.81 74.17 C 359.81 78.37 359.81 82.56 359.80 86.76 C 359.17 87.45 358.55 88.14 357.92 88.83 C 347.74 88.79 337.55 88.84 327.36 88.80 C 327.34 105.35 327.33 121.90 327.37 138.45 C 326.79 139.17 326.23 139.89 325.66 140.60 C 321.74 140.55 317.82 140.71 313.90 140.56 C 312.02 140.77 310.80 138.71 311.02 137.03 C 310.92 101.67 311.12 66.31 310.93 30.95 Z" />
<path fill="#ffffff" opacity="1.00" d=" M 381.93 30.84 C 383.13 29.89 384.39 28.87 386.04 29.18 C 403.37 29.22 420.69 29.14 438.02 29.22 C 439.26 29.03 439.97 30.28 440.89 30.87 C 440.74 35.48 440.83 40.08 440.80 44.69 C 440.43 45.16 439.69 46.09 439.32 46.56 C 425.74 46.64 412.17 46.58 398.59 46.59 C 398.60 55.06 398.59 63.53 398.60 72.00 C 408.14 71.96 417.69 72.08 427.24 71.93 C 427.78 72.90 428.84 73.70 428.76 74.93 C 428.94 78.96 428.71 83.00 428.88 87.03 C 427.95 87.65 427.28 88.92 426.02 88.77 C 416.88 88.89 407.74 88.77 398.60 88.81 C 398.60 100.20 398.60 111.60 398.60 123.00 C 411.90 123.01 425.21 122.99 438.52 123.01 C 438.98 123.58 439.90 124.71 440.36 125.28 C 440.34 129.61 440.34 133.94 440.35 138.27 C 439.72 139.04 439.10 139.81 438.48 140.58 C 420.16 140.63 401.84 140.57 383.51 140.61 C 382.93 139.47 381.91 138.42 382.02 137.04 C 381.92 101.64 382.11 66.24 381.93 30.84 Z" />
<path fill="#ffffff" opacity="1.00" d=" M 579.38 31.29 C 579.91 30.59 580.44 29.89 580.98 29.19 C 585.48 29.20 589.98 29.13 594.49 29.27 C 594.82 29.78 595.48 30.79 595.82 31.30 C 595.85 67.14 595.74 102.98 595.87 138.81 C 594.90 139.39 594.18 140.62 592.95 140.56 C 589.08 140.71 585.21 140.53 581.35 140.63 C 580.69 139.95 580.04 139.27 579.39 138.59 C 579.40 102.82 579.42 67.06 579.38 31.29 Z" />
<path fill="#ffffff" opacity="1.00" d=" M 775.39 31.28 C 775.91 30.58 776.44 29.88 776.98 29.19 C 781.33 29.28 785.68 28.98 790.03 29.31 C 790.67 29.86 791.29 30.44 791.89 31.05 C 791.70 61.70 791.87 92.35 791.81 123.00 C 805.12 123.00 818.43 122.99 831.75 123.00 C 832.36 123.77 832.98 124.54 833.62 125.30 C 833.58 129.70 833.62 134.09 833.56 138.49 C 832.89 139.19 832.24 139.90 831.60 140.61 C 813.51 140.60 795.43 140.57 777.35 140.63 C 776.69 139.95 776.04 139.27 775.40 138.60 C 775.40 102.82 775.42 67.05 775.39 31.28 Z" />
<path fill="#ffffff" opacity="1.00" d=" M 844.18 32.97 C 843.91 31.24 844.86 28.89 846.96 29.23 C 864.00 29.11 881.04 29.25 898.08 29.16 C 899.77 29.17 902.20 28.93 902.69 31.07 C 903.03 35.77 902.68 40.49 902.84 45.19 C 900.70 47.19 897.68 46.53 895.03 46.62 C 883.55 46.57 872.07 46.62 860.59 46.59 C 860.60 55.06 860.59 63.53 860.60 72.00 C 870.18 71.96 879.77 72.08 889.35 71.94 C 891.90 75.04 890.46 79.33 890.84 82.99 C 890.92 85.08 891.10 89.01 888.02 88.77 C 878.88 88.89 869.74 88.77 860.60 88.81 C 860.60 100.20 860.60 111.60 860.60 123.00 C 873.95 123.03 887.31 122.94 900.66 123.04 C 901.09 123.60 901.93 124.73 902.35 125.29 C 902.34 129.62 902.33 133.95 902.36 138.28 C 901.74 139.04 901.15 139.81 900.56 140.57 C 882.29 140.63 864.02 140.59 845.76 140.59 C 845.36 140.08 844.58 139.07 844.18 138.56 C 844.19 103.36 844.20 68.17 844.18 32.97 Z" />
<path fill="#ffffff" opacity="1.00" d=" M 38.32 40.93 C 40.86 38.34 43.38 35.72 45.93 33.13 C 46.41 33.61 47.39 34.56 47.88 35.04 C 46.04 36.86 44.24 38.71 42.45 40.57 C 43.89 41.93 45.34 43.29 46.79 44.64 C 48.37 42.91 49.98 41.20 51.59 39.50 C 52.11 39.93 53.16 40.80 53.68 41.23 C 52.13 42.87 50.46 44.40 49.07 46.18 C 49.86 48.62 52.62 50.04 54.30 51.95 C 53.54 52.67 52.78 53.38 52.01 54.09 C 47.50 49.65 42.96 45.24 38.32 40.93 Z" />
<path fill="#ffffff" opacity="1.00" d=" M 134.34 50.49 C 139.28 46.62 144.27 42.81 149.17 38.89 C 149.91 39.64 150.65 40.40 151.40 41.15 C 147.10 44.55 142.79 47.94 138.39 51.22 C 140.07 53.41 141.76 55.59 143.43 57.79 C 142.85 58.16 141.70 58.91 141.13 59.28 C 138.92 56.30 136.63 53.40 134.34 50.49 Z" />
<path fill="#ffffff" opacity="1.00" d=" M 82.58 46.03 C 95.97 42.42 110.88 44.85 122.33 52.69 C 132.43 59.42 139.87 70.09 142.52 81.95 C 145.58 94.80 143.16 108.90 135.82 119.91 C 129.00 130.28 118.09 137.98 105.92 140.59 C 92.66 143.68 78.10 140.87 67.02 132.93 C 56.74 125.75 49.37 114.43 47.25 102.06 C 44.72 89.12 47.82 75.15 55.64 64.53 C 62.13 55.52 71.81 48.80 82.58 46.03 M 65.02 62.93 C 66.76 68.64 70.04 73.64 72.95 78.78 C 72.29 80.13 71.13 81.35 71.02 82.91 C 71.18 94.02 71.65 105.48 68.20 116.19 C 67.40 119.18 65.24 121.51 62.47 122.81 C 65.15 125.58 68.02 128.67 72.07 129.15 C 76.77 129.36 80.48 125.94 83.59 122.84 C 81.34 120.63 78.95 118.44 77.44 115.62 C 74.21 110.13 74.00 103.55 74.76 97.39 C 85.19 99.12 95.35 94.32 103.88 88.79 C 106.68 93.99 111.81 97.13 116.22 100.79 C 115.85 108.81 113.78 117.37 107.37 122.75 C 109.57 124.77 111.84 127.18 115.01 127.47 C 120.29 128.08 125.18 125.03 128.79 121.45 C 127.76 121.73 126.74 122.03 125.72 122.33 C 124.16 121.65 122.33 121.09 121.54 119.42 C 119.19 115.03 119.65 109.81 120.21 105.03 C 120.80 98.43 121.22 91.74 120.41 85.14 C 120.22 83.09 118.76 81.53 117.66 79.92 C 120.61 74.45 123.88 69.07 125.80 63.13 C 120.14 58.48 114.19 53.82 106.99 51.85 C 92.33 47.07 76.01 52.78 65.02 62.93 Z" />
<path fill="#ffffff" opacity="1.00" d=" M 33.09 48.15 C 38.61 51.30 43.86 54.89 49.36 58.07 C 49.02 58.74 48.34 60.08 48.00 60.75 C 42.35 57.72 37.07 54.08 31.55 50.83 C 32.07 49.94 32.58 49.04 33.09 48.15 Z" />
<path fill="#ffffff" opacity="1.00" d=" M 69.36 64.03 C 76.45 58.54 84.97 54.70 93.96 53.94 C 104.07 53.39 113.92 57.86 121.34 64.53 C 118.58 70.00 116.13 75.69 112.32 80.56 C 101.44 77.74 89.87 77.72 78.95 80.38 C 75.26 75.24 71.87 69.86 69.36 64.03 M 92.52 58.11 C 92.55 59.91 92.57 61.71 92.61 63.52 C 90.84 63.51 89.08 63.51 87.31 63.52 C 87.30 65.48 87.30 67.44 87.30 69.41 C 89.06 69.39 90.82 69.37 92.58 69.35 C 92.56 71.12 92.55 72.90 92.54 74.68 C 94.49 74.69 96.45 74.69 98.40 74.67 C 98.38 72.90 98.35 71.12 98.32 69.35 C 100.08 69.37 101.85 69.39 103.62 69.41 C 103.62 67.45 103.62 65.48 103.62 63.52 C 101.84 63.51 100.07 63.51 98.30 63.52 C 98.34 61.70 98.36 59.88 98.38 58.06 C 96.43 58.06 94.47 58.08 92.52 58.11 Z" />
<path fill="#ffffff" opacity="1.00" d=" M 142.49 62.01 C 148.30 59.39 154.15 56.83 160.01 54.32 C 161.38 57.67 162.88 60.97 164.43 64.25 C 163.53 64.52 162.63 64.78 161.73 65.05 C 160.78 62.78 159.82 60.53 158.89 58.25 C 157.27 58.93 155.66 59.63 154.07 60.36 C 155.05 62.53 156.06 64.70 157.02 66.89 C 156.19 67.23 155.35 67.56 154.52 67.90 C 153.59 65.75 152.65 63.60 151.75 61.43 C 149.91 62.18 148.08 62.95 146.25 63.73 C 147.32 66.09 148.33 68.48 149.23 70.92 C 148.64 71.16 147.48 71.63 146.90 71.86 C 145.43 68.58 144.02 65.27 142.49 62.01 Z" />
<path fill="#ffffff" opacity="1.00" d=" M 40.58 69.80 C 41.70 67.28 42.55 64.65 43.68 62.13 C 44.20 62.52 45.25 63.31 45.78 63.71 C 44.76 67.19 43.15 70.47 41.98 73.91 C 36.00 71.73 30.10 69.35 24.13 67.16 C 24.49 66.20 24.85 65.25 25.21 64.30 C 30.42 65.90 35.31 68.41 40.58 69.80 Z" />
<path fill="#ffffff" opacity="1.00" d=" M 21.11 90.88 C 22.30 87.11 27.32 85.05 30.67 87.33 C 32.87 88.41 33.51 90.95 34.45 92.99 C 33.57 95.58 32.49 98.57 29.57 99.43 C 24.63 101.46 18.91 95.78 21.11 90.88 Z" />
<path fill="#ffffff" opacity="1.00" d=" M 162.47 86.57 C 166.73 85.39 171.44 89.57 170.60 93.97 C 170.22 98.91 163.51 101.73 159.85 98.25 C 155.44 95.11 157.32 87.70 162.47 86.57 Z" />
<path fill="#ffffff" opacity="1.00" d=" M 152.20 121.91 C 151.63 119.24 153.74 117.22 155.12 115.24 C 155.50 115.60 156.27 116.33 156.65 116.69 C 155.05 118.43 152.85 121.08 155.73 122.85 C 158.22 121.27 160.96 117.86 164.22 119.68 C 167.28 121.91 165.32 126.25 163.08 128.31 C 162.35 129.62 160.20 127.68 161.76 126.87 C 162.74 125.29 164.63 123.53 163.37 121.56 C 160.14 120.49 158.30 125.38 154.95 124.57 C 153.83 124.00 152.30 123.36 152.20 121.91 Z" />
<path fill="#ffffff" opacity="1.00" d=" M 32.27 118.17 C 35.72 115.40 40.80 121.93 37.94 124.62 C 36.80 122.63 35.92 120.40 33.93 119.07 C 32.39 121.09 32.79 123.62 32.71 125.98 C 32.93 128.57 29.35 130.41 27.37 128.72 C 25.18 127.12 22.92 123.71 25.19 121.26 C 26.18 123.23 27.47 129.19 30.54 126.33 C 31.08 123.62 29.47 119.99 32.27 118.17 Z" />
<path fill="#ffffff" opacity="1.00" d=" M 145.61 130.78 C 147.14 128.52 148.65 126.24 150.20 123.99 C 152.68 125.99 149.32 128.05 148.48 129.96 C 149.19 130.46 150.62 131.45 151.33 131.95 C 152.79 130.71 153.55 127.28 155.97 128.41 C 155.28 130.10 154.18 131.57 153.19 133.10 C 154.36 133.88 155.53 134.67 156.70 135.46 C 158.07 133.79 158.80 130.39 161.62 131.46 C 160.15 133.71 158.89 136.16 156.96 138.07 C 152.92 136.07 149.45 133.13 145.61 130.78 Z" />
<path fill="#ffffff" opacity="1.00" d=" M 30.05 133.93 C 33.73 131.24 37.40 128.53 41.07 125.82 C 42.71 128.00 44.35 130.17 45.95 132.38 C 43.25 133.92 42.38 130.32 40.91 128.82 C 39.94 129.44 38.98 130.06 38.02 130.69 C 39.05 132.40 40.15 134.07 41.17 135.79 C 38.60 136.37 37.71 133.60 36.29 132.11 C 35.18 132.94 34.08 133.77 32.97 134.60 C 34.06 136.28 35.90 137.73 35.92 139.89 C 32.87 139.67 31.96 135.87 30.05 133.93 Z" />
<path fill="#ffffff" opacity="1.00" d=" M 139.74 140.11 C 139.49 136.72 142.37 134.33 144.95 132.69 C 145.17 133.14 145.62 134.03 145.85 134.47 C 144.44 135.78 141.94 136.71 142.13 139.02 C 142.16 142.26 145.70 145.37 148.93 144.70 C 150.78 143.57 151.79 141.24 154.12 140.94 C 153.28 144.35 150.49 146.77 147.09 147.48 C 143.76 146.19 140.56 143.78 139.74 140.11 Z" />
<path fill="#ffffff" opacity="1.00" d=" M 37.71 145.13 C 39.69 140.53 44.17 137.68 47.25 133.85 C 47.82 134.55 48.35 135.27 48.85 136.01 C 48.61 140.19 47.28 144.21 46.55 148.31 C 49.04 145.67 51.51 143.01 53.98 140.36 C 54.35 140.75 55.08 141.54 55.44 141.94 C 52.24 145.21 49.08 148.53 45.97 151.89 C 45.47 151.39 44.48 150.39 43.98 149.89 C 44.83 145.68 45.74 141.50 46.71 137.32 C 43.72 139.86 41.81 144.22 37.71 145.13 Z" />
<path fill="#ffffff" opacity="1.00" d=" M 133.59 142.84 C 134.09 142.52 135.09 141.89 135.59 141.58 C 138.28 145.18 141.01 148.75 143.85 152.24 C 143.39 152.61 142.48 153.36 142.02 153.73 C 139.26 150.06 136.41 146.46 133.59 142.84 Z" />
<path fill="#ffffff" opacity="1.00" d=" M 50.33 155.35 C 52.47 151.15 55.61 147.56 58.09 143.56 C 58.56 143.90 59.50 144.58 59.96 144.92 C 57.40 148.48 55.14 152.26 52.45 155.72 C 51.92 155.63 50.86 155.44 50.33 155.35 Z" />
<path fill="#ffffff" opacity="1.00" d=" M 130.85 145.76 C 131.22 145.20 131.96 144.07 132.33 143.50 C 133.70 148.29 134.14 153.26 135.10 158.13 C 134.58 158.47 133.54 159.15 133.02 159.49 C 129.38 156.16 125.74 152.83 122.12 149.47 C 122.64 149.26 123.68 148.83 124.20 148.62 C 127.31 150.93 129.86 153.89 132.68 156.53 C 132.13 152.93 131.32 149.37 130.85 145.76 Z" />
<path fill="#ffffff" opacity="1.00" d=" M 62.45 148.69 C 65.89 147.36 70.40 149.28 71.43 152.91 C 71.99 156.21 70.45 159.82 67.70 161.72 C 64.68 163.69 60.61 161.89 58.73 159.16 C 57.14 155.40 59.01 150.73 62.45 148.69 M 64.35 150.35 C 62.02 151.12 60.89 153.76 60.43 155.99 C 59.59 159.20 64.27 161.88 66.62 159.63 C 68.41 158.01 69.53 155.43 69.20 153.01 C 68.38 151.20 66.37 149.87 64.35 150.35 Z" />
<path fill="#ffffff" opacity="1.00" d=" M 112.94 152.31 C 115.82 151.69 119.54 149.30 122.00 152.07 C 123.47 153.89 122.54 156.33 121.45 158.09 C 123.29 159.60 125.11 161.15 126.76 162.86 C 122.65 164.21 121.25 158.40 117.29 159.23 C 117.61 161.54 120.32 164.72 116.88 165.89 C 115.50 161.38 114.03 156.90 112.94 152.31 M 115.39 153.44 C 115.88 154.93 116.36 156.41 116.85 157.91 C 118.15 157.34 119.44 156.76 120.73 156.19 C 120.59 155.39 120.42 154.60 120.22 153.82 C 119.13 151.98 117.00 153.37 115.39 153.44 Z" />
<path fill="#ffffff" opacity="1.00" d=" M 75.69 152.12 C 78.38 152.86 81.75 152.85 83.57 155.29 C 84.78 157.94 82.82 160.20 80.56 161.32 C 81.42 163.44 82.31 165.55 83.15 167.68 C 78.72 167.88 80.16 161.78 76.68 160.21 C 76.12 162.05 75.64 163.91 75.19 165.79 C 74.64 165.77 73.55 165.75 73.01 165.74 C 73.83 161.18 74.74 156.65 75.69 152.12 M 77.65 154.35 C 77.25 155.79 76.85 157.24 76.45 158.69 C 77.79 159.00 79.13 159.28 80.47 159.56 C 80.90 158.37 82.01 157.14 81.25 155.84 C 80.10 155.23 78.87 154.80 77.65 154.35 Z" />
<path fill="#ffffff" opacity="1.00" d=" M 102.58 153.87 C 105.45 153.90 109.04 151.81 111.31 154.29 C 109.28 154.83 107.23 155.27 105.17 155.65 C 105.33 156.83 105.49 158.01 105.65 159.19 C 107.54 158.91 109.43 158.67 111.34 158.52 C 110.97 161.17 107.97 160.50 106.10 161.11 C 106.22 162.49 106.34 163.88 106.46 165.27 C 108.60 164.98 110.74 164.74 112.90 164.73 C 111.20 167.62 107.33 166.81 104.52 167.60 C 103.82 163.03 103.36 158.43 102.58 153.87 Z" />
<path fill="#ffffff" opacity="1.00" d=" M 92.71 160.33 C 90.85 158.61 91.57 155.16 94.03 154.47 C 96.18 153.85 99.53 153.62 100.42 156.24 C 98.09 156.61 94.56 155.03 93.44 157.97 C 95.44 160.10 98.91 160.36 100.42 162.96 C 102.16 168.09 92.46 170.78 91.33 165.63 C 94.03 166.11 97.53 167.29 98.78 163.89 C 96.79 162.64 94.59 161.74 92.71 160.33 Z" />
</g>
<g id="#e00f1eff">
<path fill="#e00f1e" opacity="1.00" d=" M 65.02 62.93 C 76.01 52.78 92.33 47.07 106.99 51.85 C 114.19 53.82 120.14 58.48 125.80 63.13 C 123.88 69.07 120.61 74.45 117.66 79.92 C 116.69 81.58 115.69 83.21 114.69 84.84 C 102.43 82.37 89.60 81.25 77.44 84.93 C 75.81 82.99 74.23 80.98 72.95 78.78 C 70.04 73.64 66.76 68.64 65.02 62.93 M 69.36 64.03 C 71.87 69.86 75.26 75.24 78.95 80.38 C 89.87 77.72 101.44 77.74 112.32 80.56 C 116.13 75.69 118.58 70.00 121.34 64.53 C 113.92 57.86 104.07 53.39 93.96 53.94 C 84.97 54.70 76.45 58.54 69.36 64.03 Z" />
<path fill="#e00f1e" opacity="1.00" d=" M 92.52 58.11 C 94.47 58.08 96.43 58.06 98.38 58.06 C 98.36 59.88 98.34 61.70 98.30 63.52 C 100.07 63.51 101.84 63.51 103.62 63.52 C 103.62 65.48 103.62 67.45 103.62 69.41 C 101.85 69.39 100.08 69.37 98.32 69.35 C 98.35 71.12 98.38 72.90 98.40 74.67 C 96.45 74.69 94.49 74.69 92.54 74.68 C 92.55 72.90 92.56 71.12 92.58 69.35 C 90.82 69.37 89.06 69.39 87.30 69.41 C 87.30 67.44 87.30 65.48 87.31 63.52 C 89.08 63.51 90.84 63.51 92.61 63.52 C 92.57 61.71 92.55 59.91 92.52 58.11 Z" />
</g>
<g id="#231f20ff">
<path fill="#231f20" opacity="1.00" d=" M 71.02 82.91 C 71.13 81.35 72.29 80.13 72.95 78.78 C 74.23 80.98 75.81 82.99 77.44 84.93 C 89.60 81.25 102.43 82.37 114.69 84.84 C 115.69 83.21 116.69 81.58 117.66 79.92 C 118.76 81.53 120.22 83.09 120.41 85.14 C 121.22 91.74 120.80 98.43 120.21 105.03 C 119.65 109.81 119.19 115.03 121.54 119.42 C 122.33 121.09 124.16 121.65 125.72 122.33 C 126.74 122.03 127.76 121.73 128.79 121.45 C 125.18 125.03 120.29 128.08 115.01 127.47 C 111.84 127.18 109.57 124.77 107.37 122.75 C 113.78 117.37 115.85 108.81 116.22 100.79 C 111.81 97.13 106.68 93.99 103.88 88.79 C 95.35 94.32 85.19 99.12 74.76 97.39 C 74.00 103.55 74.21 110.13 77.44 115.62 C 78.95 118.44 81.34 120.63 83.59 122.84 C 80.48 125.94 76.77 129.36 72.07 129.15 C 68.02 128.67 65.15 125.58 62.47 122.81 C 65.24 121.51 67.40 119.18 68.20 116.19 C 71.65 105.48 71.18 94.02 71.02 82.91 Z" />
</g>
</svg>
