<?xml version="1.0" encoding="UTF-8" ?>
<!DOCTYPE svg PUBLIC "-//W3C//DTD SVG 1.1//EN" "http://www.w3.org/Graphics/SVG/1.1/DTD/svg11.dtd">
<svg width="900pt" height="180pt" viewBox="0 0 900 180" version="1.1" xmlns="http://www.w3.org/2000/svg">
<path fill="#ffffff" d=" M 0.00 0.00 L 900.00 0.00 L 900.00 180.00 L 0.00 180.00 L 0.00 0.00 Z" />
<path fill="#266a2e" d=" M 79.45 2.72 C 97.73 0.50 116.76 4.07 132.78 13.23 C 150.62 23.17 164.68 39.67 171.77 58.82 C 178.89 78.32 178.82 100.39 171.61 119.85 C 164.65 138.27 151.25 154.19 134.25 164.15 C 107.07 180.46 70.76 180.00 44.01 162.97 C 25.58 151.51 11.64 132.93 6.10 111.93 C 0.38 90.84 2.82 67.54 13.22 48.28 C 26.13 23.51 51.68 5.87 79.45 2.72 Z" />
<path fill="#ffffff" d=" M 94.51 11.18 C 95.56 11.23 96.61 11.29 97.66 11.35 C 97.43 17.72 96.70 24.06 96.54 30.44 C 95.73 30.37 94.11 30.24 93.30 30.17 C 93.69 23.84 94.14 17.51 94.51 11.18 Z" />
<path fill="#ffffff" d=" M 74.82 16.83 C 76.77 11.68 83.04 10.91 87.78 11.83 C 87.21 16.57 81.87 12.76 79.49 15.48 C 76.51 18.30 77.17 23.46 79.37 26.57 C 81.79 29.83 85.98 27.79 89.14 27.04 C 89.20 27.66 89.33 28.91 89.39 29.53 C 86.22 30.62 82.64 32.22 79.38 30.53 C 74.45 28.21 73.39 21.57 74.82 16.83 Z" />
<path fill="#ffffff" d=" M 101.14 30.80 C 102.97 24.69 104.99 18.64 106.90 12.56 C 110.50 13.96 115.16 14.33 117.34 17.94 C 118.61 21.71 115.68 24.93 112.20 25.85 C 113.16 28.84 113.99 31.87 114.84 34.90 C 113.72 34.65 112.60 34.40 111.48 34.15 C 110.72 31.31 110.06 28.45 109.39 25.60 C 108.70 25.27 107.31 24.61 106.62 24.28 C 105.71 26.74 104.91 29.24 104.12 31.74 C 103.38 31.50 101.89 31.03 101.14 30.80 Z" />
<path fill="#266a2e" d=" M 108.97 15.98 C 110.61 16.64 112.60 16.91 113.81 18.31 C 115.13 19.54 113.93 21.28 113.27 22.50 C 111.30 23.21 109.20 22.50 107.20 22.30 C 107.78 20.19 108.38 18.09 108.97 15.98 Z" />
<path fill="#ffffff" d=" M 47.49 24.21 C 50.65 22.47 53.75 20.63 56.90 18.86 C 57.33 19.64 57.77 20.42 58.20 21.20 C 55.98 22.45 53.75 23.69 51.53 24.94 C 52.39 26.44 53.24 27.95 54.09 29.46 C 56.12 28.29 58.14 27.08 60.17 25.89 C 60.59 26.42 61.42 27.49 61.84 28.02 C 59.66 29.26 57.50 30.51 55.35 31.81 C 56.41 33.48 57.45 35.15 58.51 36.82 C 61.18 35.88 64.40 31.42 66.76 34.99 C 63.54 36.99 60.26 38.87 56.97 40.74 C 53.87 35.20 50.69 29.70 47.49 24.21 Z" />
<path fill="#ffffff" d=" M 120.74 39.23 C 116.22 34.15 120.81 26.45 126.09 24.00 C 130.89 21.89 135.43 25.58 138.18 29.20 C 137.62 29.63 136.50 30.47 135.94 30.90 C 133.95 28.60 131.57 25.35 128.06 26.59 C 124.68 28.17 121.79 31.93 122.29 35.81 C 122.95 39.03 126.56 39.98 128.98 41.50 C 126.43 44.51 122.75 41.36 120.74 39.23 Z" />
<path fill="#ffffff" d=" M 33.32 36.93 C 35.86 34.34 38.38 31.72 40.92 29.13 C 41.41 29.61 42.39 30.56 42.88 31.04 C 41.05 32.86 39.25 34.70 37.45 36.54 C 38.89 37.91 40.32 39.28 41.77 40.64 C 43.36 38.91 44.98 37.20 46.60 35.49 C 47.12 35.93 48.15 36.81 48.66 37.26 C 47.10 38.90 45.43 40.45 44.01 42.23 C 45.05 44.63 47.54 46.08 49.29 47.96 C 48.53 48.67 47.78 49.38 47.02 50.10 C 42.50 45.65 37.96 41.24 33.32 36.93 Z" />
<path fill="#266a2e" d=" M 184.29 33.10 C 185.66 31.64 188.26 32.05 189.28 33.73 C 190.67 35.84 190.70 38.51 190.77 40.96 C 190.73 57.06 190.76 73.15 190.75 89.25 C 196.71 89.39 202.69 88.95 208.63 89.44 C 212.39 91.34 212.45 98.22 208.87 100.33 C 202.26 100.77 195.60 100.37 188.97 100.53 C 187.04 100.45 184.34 100.80 183.45 98.58 C 182.21 95.93 182.30 92.91 182.23 90.06 C 182.27 73.67 182.23 57.29 182.26 40.91 C 182.39 38.23 182.44 35.24 184.29 33.10 Z" />
<path fill="#266a2e" d=" M 234.28 36.24 C 236.51 32.08 242.16 31.43 246.23 32.90 C 249.82 34.41 249.73 39.57 247.22 42.06 C 245.28 42.05 243.01 40.87 241.31 42.28 C 239.74 45.17 240.40 48.62 240.16 51.77 C 242.19 52.12 245.07 51.67 245.94 54.09 C 246.51 56.11 246.54 58.50 245.32 60.30 C 243.72 61.08 241.92 61.18 240.21 61.52 C 240.29 72.02 240.23 82.52 240.25 93.02 C 240.12 95.56 240.20 98.39 238.62 100.54 C 237.72 102.01 235.31 102.30 234.23 100.88 C 232.54 99.05 232.49 96.40 232.48 94.05 C 232.53 83.23 232.46 72.40 232.53 61.58 C 229.95 61.28 226.69 60.50 226.88 57.23 C 225.89 53.44 229.21 51.42 232.53 51.75 C 232.52 46.57 232.02 41.07 234.28 36.24 Z" />
<path fill="#266a2e" d=" M 311.45 32.70 C 315.17 31.68 319.33 32.30 322.53 34.50 C 327.91 38.23 331.01 44.61 331.70 51.02 C 331.87 53.44 331.79 56.37 329.79 58.09 C 328.81 59.33 326.29 58.77 325.74 57.34 C 323.36 52.83 322.86 46.76 318.04 43.98 C 314.26 41.91 309.85 44.53 308.05 48.00 C 304.03 55.30 304.09 63.99 304.33 72.10 C 304.79 77.77 305.47 84.09 309.54 88.43 C 312.14 91.34 317.02 91.53 319.76 88.72 C 323.49 85.24 323.80 79.88 325.48 75.37 C 325.92 73.91 327.32 72.99 328.84 73.30 C 330.96 74.23 331.86 76.69 331.79 78.88 C 331.90 85.93 329.42 93.28 324.34 98.28 C 318.19 104.13 307.12 102.41 302.64 95.34 C 296.54 86.18 295.48 74.71 295.75 63.98 C 296.07 55.49 297.53 46.59 302.49 39.48 C 304.71 36.43 307.71 33.68 311.45 32.70 Z" />
<path fill="#266a2e" d=" M 411.47 32.44 C 412.63 32.02 414.00 32.14 414.87 33.11 C 416.72 35.27 416.66 38.30 416.76 40.97 C 416.75 58.34 416.75 75.71 416.76 93.08 C 416.66 95.74 416.72 98.75 414.87 100.89 C 413.71 102.20 411.31 102.11 410.44 100.54 C 409.03 98.70 409.02 96.26 408.98 94.06 C 409.02 75.66 408.98 57.26 409.00 38.87 C 409.04 36.56 409.35 33.82 411.47 32.44 Z" />
<path fill="#266a2e" d=" M 479.22 34.18 C 484.65 31.03 492.35 31.58 496.70 36.35 C 501.15 41.40 503.84 50.67 498.08 55.73 C 492.80 53.43 494.13 46.32 489.88 43.11 C 487.28 41.51 483.39 41.89 481.44 44.37 C 478.35 47.72 478.83 53.70 482.68 56.30 C 487.17 59.38 492.84 60.37 497.04 63.98 C 501.45 67.54 503.06 73.45 503.03 78.92 C 503.26 85.19 502.20 91.98 497.98 96.89 C 493.08 102.85 483.15 103.48 477.43 98.40 C 472.77 93.98 470.66 87.25 470.83 80.94 C 470.75 78.52 472.48 76.76 474.17 75.29 C 479.90 78.07 477.90 85.75 482.15 89.76 C 485.25 92.89 490.98 91.67 493.09 87.97 C 495.92 83.48 495.44 76.36 490.52 73.50 C 486.04 70.95 480.68 69.87 476.87 66.20 C 472.10 61.56 471.10 54.40 471.72 48.07 C 472.18 42.73 474.43 37.05 479.22 34.18 Z" />
<path fill="#266a2e" d=" M 668.95 36.94 C 674.44 30.34 686.34 30.61 691.02 38.03 C 694.32 43.02 696.34 51.00 691.30 55.55 C 690.22 55.00 689.16 54.45 688.11 53.89 C 686.23 49.70 685.72 42.60 679.93 42.21 C 673.73 41.38 670.25 49.73 673.74 54.30 C 676.97 58.59 682.78 59.20 687.11 61.96 C 692.29 64.59 695.30 70.20 695.83 75.86 C 696.54 83.32 695.79 91.78 690.41 97.50 C 684.40 104.01 672.20 103.06 667.72 95.23 C 664.50 89.70 662.02 82.37 665.41 76.37 C 666.04 76.18 667.29 75.79 667.92 75.60 C 672.49 78.79 671.16 85.31 674.66 89.28 C 677.58 92.92 683.88 91.93 686.06 87.98 C 688.92 83.50 688.40 76.29 683.46 73.47 C 679.55 71.30 675.06 70.23 671.44 67.52 C 667.08 64.44 664.97 59.10 664.64 53.91 C 664.18 48.05 665.05 41.58 668.95 36.94 Z" />
<path fill="#266a2e" d=" M 218.35 33.24 C 220.05 32.03 222.33 33.25 223.00 35.04 C 224.14 37.72 224.09 40.99 222.71 43.57 C 221.67 45.75 218.33 45.86 217.16 43.75 C 215.29 40.60 215.33 35.65 218.35 33.24 Z" />
<path fill="#266a2e" d=" M 340.45 33.42 C 342.30 31.88 344.91 33.23 345.57 35.31 C 346.60 38.25 346.59 42.02 344.44 44.46 C 342.37 46.47 339.17 44.47 338.75 41.99 C 338.18 39.12 338.13 35.57 340.45 33.42 Z" />
<path fill="#266a2e" d=" M 579.24 33.14 C 581.32 31.81 583.75 34.00 584.14 36.07 C 584.77 38.88 584.78 42.45 582.55 44.57 C 580.44 46.45 577.37 44.33 577.01 41.93 C 576.44 39.00 576.36 34.89 579.24 33.14 Z" />
<path fill="#266a2e" d=" M 792.41 33.28 C 794.53 31.62 797.20 33.98 797.55 36.20 C 798.15 39.47 798.14 44.53 794.03 45.42 C 788.89 44.27 788.88 36.23 792.41 33.28 Z" />
<path fill="#ffffff" d=" M 129.34 46.47 C 134.33 42.61 139.32 38.76 144.26 34.84 C 144.94 35.63 145.64 36.43 146.33 37.23 C 142.03 40.59 137.75 43.96 133.39 47.23 C 135.08 49.41 136.75 51.59 138.43 53.78 C 137.85 54.15 136.71 54.91 136.14 55.29 C 133.93 52.31 131.63 49.40 129.34 46.47 Z" />
<path fill="#ffffff" d=" M 77.56 42.03 C 90.94 38.42 105.85 40.85 117.31 48.68 C 127.46 55.43 134.93 66.17 137.55 78.09 C 140.56 90.89 138.14 104.92 130.84 115.88 C 124.19 126.01 113.66 133.59 101.84 136.37 C 88.54 139.74 73.82 137.14 62.55 129.30 C 52.02 122.16 44.44 110.69 42.26 98.13 C 39.58 84.51 43.15 69.76 51.85 58.93 C 58.29 50.72 67.45 44.64 77.56 42.03 Z" />
<path fill="#ffffff" d=" M 28.10 44.14 C 33.60 47.32 38.88 50.88 44.37 54.08 C 44.01 54.76 43.28 56.11 42.92 56.79 C 37.37 53.62 32.03 50.11 26.55 46.83 C 27.07 45.94 27.58 45.04 28.10 44.14 Z" />
<path fill="#bd141a" d=" M 60.33 58.86 C 69.28 51.11 80.95 45.85 92.96 46.44 C 103.49 47.02 113.20 52.40 120.64 59.66 C 117.93 65.01 115.63 70.60 112.36 75.65 C 111.21 77.07 110.09 78.61 108.51 79.60 C 104.52 79.75 100.66 78.47 96.72 78.07 C 88.60 76.92 80.46 78.40 72.51 79.96 C 71.06 78.05 69.62 76.15 68.22 74.21 C 64.86 69.51 62.18 64.34 60.33 58.86 Z" />
<path fill="#ffffff" d=" M 64.02 59.96 C 71.71 53.97 81.10 49.76 90.96 49.65 C 100.58 49.70 109.70 54.12 116.73 60.50 C 113.88 66.07 111.29 71.84 107.48 76.85 C 96.49 74.03 84.81 73.89 73.81 76.72 C 70.10 71.41 66.58 65.93 64.02 59.96 Z" />
<path fill="#ffffff" d=" M 137.49 58.01 C 143.30 55.38 149.15 52.84 155.00 50.31 C 156.38 53.66 157.88 56.97 159.42 60.25 C 158.53 60.52 157.64 60.80 156.76 61.07 C 155.80 58.81 154.82 56.55 153.87 54.29 C 152.28 54.90 150.70 55.54 149.12 56.18 C 150.04 58.45 151.05 60.70 152.00 62.97 C 151.18 63.27 150.35 63.58 149.53 63.88 C 148.59 61.73 147.64 59.57 146.71 57.42 C 144.89 58.17 143.07 58.95 141.26 59.73 C 142.31 62.11 143.32 64.51 144.29 66.92 C 143.69 67.15 142.49 67.62 141.89 67.85 C 140.43 64.57 139.02 61.26 137.49 58.01 Z" />
<path fill="#266a2e" d=" M 218.33 51.16 C 220.06 49.91 222.24 51.43 222.92 53.14 C 223.91 55.60 223.75 58.31 223.77 60.92 C 223.70 72.28 223.81 83.64 223.73 95.00 C 223.59 97.54 223.16 101.34 220.06 101.78 C 217.14 102.04 216.26 98.43 216.08 96.16 C 215.87 83.76 216.08 71.35 215.98 58.95 C 216.07 56.29 215.89 52.91 218.33 51.16 Z" />
<path fill="#266a2e" d=" M 250.72 59.67 C 252.71 54.71 257.41 50.28 263.08 50.72 C 267.56 50.66 271.27 53.89 273.29 57.66 C 276.25 63.18 277.17 69.76 276.18 75.92 C 275.83 78.37 273.20 79.40 271.02 79.44 C 265.87 79.65 260.71 79.42 255.56 79.53 C 256.12 83.85 256.40 88.88 259.88 91.99 C 261.96 94.08 265.40 93.22 267.21 91.23 C 269.36 88.97 270.94 86.23 273.06 83.94 C 278.14 86.04 276.02 92.25 273.80 95.79 C 270.63 101.31 263.08 103.44 257.46 100.50 C 252.25 97.82 249.94 91.89 248.76 86.48 C 247.16 77.61 247.32 68.12 250.72 59.67 Z" />
<path fill="#266a2e" d=" M 340.42 51.46 C 341.52 50.35 343.36 50.50 344.35 51.69 C 346.21 53.59 346.12 56.48 346.26 58.96 C 346.25 70.30 346.24 81.64 346.26 92.98 C 346.16 95.55 346.23 98.41 344.60 100.56 C 343.68 102.04 341.26 102.29 340.19 100.85 C 338.55 98.99 338.52 96.34 338.48 94.00 C 338.51 81.98 338.50 69.95 338.48 57.93 C 338.53 55.69 338.64 53.07 340.42 51.46 Z" />
<path fill="#266a2e" d=" M 353.72 56.95 C 353.84 54.39 354.53 50.53 357.88 50.68 C 361.03 51.61 360.77 55.49 361.28 58.08 C 362.21 54.86 363.91 50.33 368.05 50.78 C 374.24 51.14 377.04 60.16 371.70 63.65 C 369.09 62.30 364.61 60.27 363.36 64.38 C 359.57 75.48 362.96 87.49 360.78 98.83 C 360.31 101.66 356.31 103.05 354.86 100.17 C 352.64 95.14 353.78 89.37 353.50 84.02 C 353.63 75.00 353.22 65.96 353.72 56.95 Z" />
<path fill="#266a2e" d=" M 377.87 61.04 C 379.71 55.86 384.07 50.73 389.99 50.73 C 398.07 50.25 403.93 58.72 403.66 66.18 C 403.65 68.59 401.50 72.22 398.80 70.33 C 396.35 67.54 395.97 63.15 392.68 61.07 C 389.21 59.15 385.84 62.53 384.86 65.68 C 382.59 72.34 382.65 79.82 384.64 86.53 C 385.58 89.83 388.97 93.51 392.66 91.69 C 397.25 89.18 396.35 82.45 401.13 80.13 C 405.31 83.37 404.30 89.33 402.34 93.53 C 399.89 99.12 393.55 103.06 387.43 101.37 C 380.84 99.92 377.68 93.02 376.38 87.03 C 374.88 78.45 374.92 69.32 377.87 61.04 Z" />
<path fill="#266a2e" d=" M 427.05 57.04 C 429.26 53.17 433.52 50.39 438.07 50.72 C 443.09 50.66 446.98 54.75 448.91 59.04 C 451.24 64.28 452.15 70.26 451.15 75.92 C 450.76 78.35 448.21 79.41 446.02 79.44 C 440.87 79.64 435.72 79.42 430.57 79.53 C 431.01 83.90 431.39 88.94 434.92 92.06 C 437.23 94.26 440.96 92.97 442.69 90.68 C 444.69 88.70 445.66 85.75 448.16 84.30 C 449.38 84.84 451.06 85.31 450.95 86.98 C 451.61 91.54 449.31 96.07 445.89 98.97 C 441.04 103.39 432.62 102.49 428.56 97.42 C 424.10 92.08 423.09 84.83 422.76 78.11 C 422.67 70.93 423.32 63.35 427.05 57.04 Z" />
<path fill="#266a2e" d=" M 514.81 53.75 C 519.06 49.56 526.76 49.67 530.76 54.17 C 535.78 59.74 537.06 67.74 536.39 74.99 C 536.35 77.53 534.08 79.29 531.69 79.40 C 526.33 79.70 520.95 79.39 515.59 79.52 C 516.11 83.86 516.42 88.87 519.90 92.01 C 521.78 93.92 524.90 93.34 526.73 91.68 C 528.76 89.91 530.01 87.47 531.73 85.43 C 532.87 83.32 536.02 85.06 536.08 87.06 C 536.89 94.39 530.60 102.24 522.92 101.78 C 517.74 101.95 513.29 98.24 511.20 93.72 C 507.72 86.46 507.40 78.09 508.14 70.19 C 508.85 64.31 510.30 57.94 514.81 53.75 Z" />
<path fill="#266a2e" d=" M 542.48 58.01 C 542.50 55.33 542.67 51.30 545.95 50.63 C 549.56 51.38 549.66 55.49 549.86 58.44 C 551.41 55.61 553.15 52.41 556.43 51.32 C 559.76 49.91 563.76 51.22 565.87 54.08 C 569.05 58.29 569.39 63.81 569.50 68.89 C 569.45 77.78 569.60 86.68 569.44 95.56 C 569.28 97.96 568.71 101.35 565.85 101.81 C 562.85 101.81 561.96 98.37 561.83 95.97 C 561.50 86.93 562.05 77.87 561.59 68.83 C 561.26 65.79 560.94 61.22 557.12 60.67 C 552.86 60.88 551.05 65.67 550.62 69.28 C 549.74 78.14 550.60 87.07 550.15 95.95 C 549.94 98.13 549.44 101.21 546.86 101.72 C 543.77 102.35 542.68 98.42 542.57 96.06 C 542.38 83.38 542.57 70.70 542.48 58.01 Z" />
<path fill="#266a2e" d=" M 579.26 51.09 C 582.45 49.53 584.40 53.85 584.40 56.46 C 584.67 68.31 584.39 80.17 584.53 92.03 C 584.45 94.96 584.66 98.28 582.76 100.73 C 581.71 102.11 579.29 102.24 578.32 100.71 C 576.82 98.82 576.74 96.29 576.73 94.00 C 576.77 82.00 576.75 70.00 576.74 58.01 C 576.83 55.60 576.86 52.42 579.26 51.09 Z" />
<path fill="#266a2e" d=" M 602.25 51.13 C 606.26 50.04 610.77 51.35 613.60 54.40 C 618.36 59.27 619.75 66.37 620.21 72.93 C 620.54 81.11 619.84 90.03 614.83 96.85 C 611.66 101.27 605.34 103.17 600.38 100.75 C 594.87 98.05 592.26 91.86 591.09 86.17 C 589.72 78.49 589.74 70.38 591.98 62.87 C 593.52 57.79 596.79 52.52 602.25 51.13 Z" />
<path fill="#266a2e" d=" M 626.03 56.91 C 626.05 54.40 626.77 50.80 629.91 50.65 C 633.27 51.24 632.98 55.27 633.39 57.86 C 634.54 55.38 635.36 52.22 638.11 51.05 C 641.21 49.96 644.68 52.06 646.10 54.84 C 647.22 57.02 646.57 59.52 646.23 61.80 C 645.58 62.23 644.29 63.10 643.65 63.53 C 641.85 62.86 640.12 61.74 638.15 61.80 C 635.81 62.58 635.20 65.27 634.69 67.38 C 632.87 76.82 634.29 86.48 633.57 96.00 C 633.37 97.71 633.09 99.59 631.83 100.87 C 630.72 102.25 628.34 102.05 627.42 100.58 C 625.93 98.77 626.04 96.26 625.98 94.05 C 626.05 81.67 625.94 69.29 626.03 56.91 Z" />
<path fill="#266a2e" d=" M 703.40 60.40 C 705.30 55.15 710.06 50.29 716.02 50.72 C 721.05 50.63 725.00 54.63 726.93 58.95 C 729.27 64.20 730.14 70.21 729.17 75.88 C 728.86 78.36 726.21 79.40 724.02 79.44 C 718.87 79.64 713.71 79.42 708.57 79.53 C 709.13 83.88 709.38 88.97 712.94 92.08 C 715.03 94.09 718.45 93.18 720.24 91.20 C 722.37 88.95 723.95 86.22 726.07 83.94 C 731.12 86.03 728.99 92.29 726.78 95.82 C 723.48 101.54 715.48 103.54 709.83 100.17 C 704.84 97.15 702.66 91.22 701.58 85.77 C 700.22 77.35 700.41 68.46 703.40 60.40 Z" />
<path fill="#266a2e" d=" M 736.61 52.74 C 736.97 51.24 738.49 50.78 739.86 50.67 C 742.97 51.55 742.73 55.33 743.28 57.87 C 744.32 54.77 745.93 50.38 749.97 50.77 C 756.17 51.12 759.03 60.07 753.73 63.65 C 751.45 63.09 748.88 60.69 746.61 62.48 C 744.42 64.94 744.21 68.43 743.78 71.54 C 743.19 79.74 743.30 87.96 743.21 96.17 C 743.32 98.79 741.63 102.61 738.44 101.68 C 735.77 100.10 735.73 96.68 735.53 93.95 C 735.43 83.29 735.54 72.63 735.49 61.97 C 735.59 58.88 735.43 55.65 736.61 52.74 Z" />
<path fill="#266a2e" d=" M 757.49 58.88 C 756.73 55.83 757.50 51.56 761.00 50.68 C 763.69 50.75 763.88 53.91 764.55 55.87 C 766.78 66.00 768.87 76.17 771.10 86.30 C 773.50 75.64 775.68 64.92 778.27 54.30 C 778.59 52.28 780.47 49.64 782.73 51.14 C 785.47 53.12 785.18 56.91 784.46 59.82 C 781.62 71.80 778.65 83.73 775.79 95.70 C 775.10 97.93 774.43 101.02 771.77 101.58 C 770.58 102.08 769.30 101.68 768.56 100.66 C 766.44 97.54 765.91 93.71 764.96 90.14 C 762.54 79.70 759.77 69.35 757.49 58.88 Z" />
<path fill="#266a2e" d=" M 792.41 51.18 C 795.48 49.39 797.80 53.35 797.70 56.04 C 797.81 69.35 797.76 82.68 797.72 95.99 C 797.71 98.48 796.40 102.36 793.26 101.74 C 790.26 100.61 790.24 96.77 790.03 94.10 C 789.94 82.72 790.03 71.33 789.99 59.95 C 790.15 56.97 789.83 53.29 792.41 51.18 Z" />
<path fill="#266a2e" d=" M 815.32 51.25 C 825.18 47.83 834.34 59.45 831.54 68.60 C 830.92 70.54 828.45 71.74 826.94 70.00 C 824.97 67.25 824.36 63.54 821.62 61.37 C 819.44 59.69 816.28 60.69 814.87 62.85 C 812.02 66.94 811.69 72.17 811.71 77.00 C 811.76 81.49 812.26 86.33 815.00 90.07 C 816.72 92.44 820.63 92.93 822.59 90.58 C 825.32 87.97 825.24 83.41 828.19 81.10 C 830.84 79.50 832.18 83.06 832.45 85.13 C 832.99 92.51 827.92 101.01 820.03 101.66 C 814.79 102.38 809.83 99.04 807.51 94.49 C 803.43 86.68 803.58 77.50 804.38 68.96 C 805.39 62.05 808.05 53.75 815.32 51.25 Z" />
<path fill="#266a2e" d=" M 844.06 54.03 C 848.34 49.52 856.47 49.55 860.51 54.38 C 865.24 60.00 866.78 67.85 865.96 75.02 C 865.85 77.40 863.86 79.18 861.55 79.34 C 856.08 79.77 850.58 79.35 845.10 79.53 C 845.72 83.97 846.03 89.20 849.75 92.28 C 851.75 94.00 854.80 93.16 856.53 91.46 C 858.87 89.12 860.44 86.12 862.95 83.93 C 864.12 85.02 865.89 86.06 865.78 87.93 C 865.79 92.75 863.12 97.52 859.04 100.07 C 853.69 103.37 845.90 101.81 842.43 96.50 C 837.30 89.15 837.15 79.72 837.60 71.10 C 838.19 65.03 839.61 58.51 844.06 54.03 Z" />
<path fill="#266a2e" d=" M 874.52 54.46 C 879.71 48.13 891.23 50.28 894.17 57.80 C 895.94 61.23 895.78 66.05 891.94 67.97 C 888.10 65.99 887.87 60.49 883.79 59.03 C 879.19 57.96 876.29 64.36 879.55 67.43 C 883.30 70.68 888.79 71.08 892.34 74.67 C 895.80 77.69 897.00 82.52 896.65 86.96 C 896.35 90.82 895.61 94.96 892.94 97.94 C 889.50 101.80 883.62 102.63 878.89 101.06 C 873.00 98.94 869.81 92.11 870.90 86.14 C 871.34 84.55 873.02 83.78 874.09 82.65 C 877.74 85.43 877.45 91.51 882.10 93.17 C 885.88 94.72 889.80 90.84 889.03 87.03 C 888.72 81.55 882.16 80.90 878.45 78.48 C 869.64 74.27 868.88 61.53 874.52 54.46 Z" />
<path fill="#bd141a" d=" M 87.81 54.31 C 89.59 54.31 91.36 54.31 93.14 54.33 C 93.12 56.15 93.10 57.96 93.08 59.78 C 94.82 59.79 96.57 59.80 98.31 59.81 C 98.31 61.58 98.31 63.36 98.30 65.13 C 96.57 65.13 94.84 65.13 93.11 65.13 C 93.11 66.87 93.12 68.61 93.13 70.36 C 91.36 70.36 89.59 70.37 87.82 70.37 C 87.82 68.62 87.83 66.87 87.83 65.12 C 86.09 65.12 84.36 65.13 82.63 65.14 C 82.62 63.36 82.62 61.58 82.62 59.80 C 84.36 59.80 86.11 59.79 87.86 59.79 C 87.84 57.96 87.82 56.13 87.81 54.31 Z" />
<path fill="#ffffff" d=" M 35.27 65.87 C 36.86 63.48 37.50 60.61 38.74 58.04 C 39.24 58.48 40.24 59.36 40.74 59.80 C 39.75 63.26 38.14 66.51 36.97 69.91 C 30.97 67.71 25.02 65.34 19.03 63.11 C 19.51 62.15 19.99 61.20 20.47 60.25 C 25.41 62.11 30.28 64.16 35.27 65.87 Z" />
<path fill="#ffffff" d=" M 259.14 61.20 C 260.74 59.10 264.14 59.26 265.83 61.16 C 268.56 64.15 268.70 68.44 269.18 72.24 C 264.65 72.25 260.13 72.26 255.61 72.24 C 256.26 68.46 256.46 64.21 259.14 61.20 Z" />
<path fill="#ffffff" d=" M 434.71 60.66 C 436.61 58.86 439.89 59.69 441.28 61.75 C 443.50 64.76 443.65 68.68 444.18 72.24 C 439.64 72.25 435.11 72.26 430.58 72.23 C 431.21 68.23 431.39 63.51 434.71 60.66 Z" />
<path fill="#ffffff" d=" M 519.14 61.19 C 520.75 59.10 524.15 59.26 525.83 61.17 C 528.55 64.16 528.72 68.44 529.18 72.24 C 524.66 72.25 520.15 72.25 515.63 72.24 C 516.26 68.46 516.45 64.20 519.14 61.19 Z" />
<path fill="#ffffff" d=" M 603.48 60.61 C 606.20 59.34 609.09 61.52 610.20 63.95 C 612.60 68.83 612.69 74.50 612.38 79.83 C 611.92 83.99 611.25 88.96 607.55 91.57 C 604.91 93.40 601.58 91.38 600.38 88.82 C 597.62 83.29 597.70 76.83 598.28 70.82 C 598.87 67.07 599.80 62.51 603.48 60.61 Z" />
<path fill="#ffffff" d=" M 712.17 61.15 C 713.80 59.11 717.15 59.27 718.83 61.17 C 721.56 64.16 721.70 68.44 722.18 72.24 C 717.65 72.25 713.13 72.25 708.62 72.24 C 709.24 68.44 709.39 64.13 712.17 61.15 Z" />
<path fill="#ffffff" d=" M 848.54 61.37 C 850.05 59.32 853.41 59.11 855.15 60.97 C 858.15 63.90 858.21 68.37 858.74 72.25 C 854.23 72.25 849.72 72.25 845.21 72.24 C 845.80 68.52 845.96 64.37 848.54 61.37 Z" />
<path fill="#231f20" d=" M 68.22 74.21 C 69.62 76.15 71.06 78.05 72.51 79.96 C 80.46 78.40 88.60 76.92 96.72 78.07 C 100.66 78.47 104.52 79.75 108.51 79.60 C 110.09 78.61 111.21 77.07 112.36 75.65 C 113.58 77.32 115.17 78.93 115.40 81.09 C 116.38 89.03 115.61 97.04 114.83 104.96 C 114.67 108.86 114.75 113.27 117.31 116.47 C 118.85 118.49 121.62 117.73 123.81 117.75 C 119.89 120.92 115.22 124.22 109.88 123.45 C 106.78 123.11 104.56 120.74 102.36 118.79 C 108.60 113.30 111.39 104.66 110.80 96.52 C 106.59 92.88 101.62 89.86 98.85 84.84 C 90.29 90.32 80.18 95.12 69.75 93.40 C 69.13 99.07 69.09 105.07 71.75 110.28 C 73.25 113.69 75.97 116.31 78.60 118.86 C 75.45 121.96 71.73 125.36 67.01 125.17 C 63.02 124.63 60.17 121.61 57.52 118.87 C 59.90 117.50 62.14 115.65 62.93 112.91 C 66.74 102.01 66.13 90.23 66.04 78.87 C 66.27 77.13 67.47 75.74 68.22 74.21 Z" />
<path fill="#ffffff" d=" M 16.07 86.97 C 17.22 83.15 22.27 81.04 25.66 83.32 C 27.84 84.43 28.49 86.97 29.48 88.99 C 28.52 91.55 27.48 94.61 24.53 95.44 C 19.64 97.42 13.98 91.84 16.07 86.97 Z" />
<path fill="#ffffff" d=" M 157.44 82.58 C 161.74 81.36 166.49 85.62 165.59 90.05 C 165.15 94.97 158.46 97.71 154.82 94.23 C 150.46 91.09 152.31 83.72 157.44 82.58 Z" />
<path fill="#ffffff" d=" M 147.13 117.08 C 147.06 114.75 148.94 113.06 150.08 111.22 C 150.46 111.57 151.22 112.26 151.60 112.60 C 150.16 114.43 147.89 117.00 150.64 118.86 C 153.19 117.35 155.88 113.91 159.16 115.64 C 162.51 118.06 160.04 122.59 157.71 124.79 C 157.08 124.36 154.99 124.14 156.71 123.02 C 158.06 121.28 159.07 119.30 158.57 117.03 C 156.09 117.54 154.13 119.20 151.93 120.34 C 149.87 121.34 146.89 119.43 147.13 117.08 Z" />
<path fill="#ffffff" d=" M 27.27 114.17 C 31.16 111.63 35.15 117.53 33.33 121.08 C 31.99 118.93 30.91 116.56 28.89 114.93 C 27.27 117.56 28.04 120.64 27.46 123.50 C 26.53 124.81 24.90 125.75 23.26 125.25 C 20.74 124.16 19.81 121.40 18.66 119.14 C 19.09 118.74 19.96 117.95 20.39 117.55 C 21.21 119.56 22.08 121.55 23.05 123.50 C 28.20 122.73 23.42 116.30 27.27 114.17 Z" />
<path fill="#231f20" d=" M 209.70 120.33 C 210.36 120.00 211.69 119.35 212.36 119.02 C 213.27 119.92 214.79 120.58 214.68 122.10 C 214.84 131.08 214.76 140.07 214.72 149.05 C 214.97 150.87 213.02 151.60 211.98 152.66 C 211.17 151.68 209.54 151.13 209.41 149.73 C 209.02 145.75 209.33 141.74 209.25 137.75 C 205.58 137.75 201.91 137.75 198.24 137.75 C 198.09 142.10 198.67 146.52 197.85 150.81 C 196.54 152.57 194.59 151.88 192.93 151.17 C 192.56 141.79 192.81 132.40 192.76 123.01 C 192.37 121.06 193.96 119.86 195.29 118.77 C 196.22 119.47 197.11 120.22 197.96 121.03 C 198.59 124.72 198.12 128.51 198.24 132.24 C 201.91 132.25 205.58 132.25 209.25 132.24 C 209.28 128.27 208.98 124.26 209.70 120.33 Z" />
<path fill="#231f20" d=" M 384.43 126.02 C 381.49 124.51 381.30 120.82 384.18 119.23 C 384.79 119.53 386.02 120.15 386.64 120.46 C 387.29 122.77 386.41 124.74 384.43 126.02 Z" />
<path fill="#231f20" d=" M 449.04 123.03 C 451.70 117.13 462.12 118.31 462.76 125.00 C 463.74 129.02 460.73 132.17 457.91 134.49 C 459.24 136.37 460.57 138.25 461.93 140.12 C 462.51 138.57 463.11 137.02 463.71 135.47 C 464.37 135.31 465.69 134.97 466.35 134.80 C 468.30 137.78 466.72 141.06 465.53 144.00 C 467.01 145.60 468.44 147.24 469.74 148.99 C 469.17 150.18 468.59 151.37 468.00 152.56 C 465.78 151.79 464.00 150.27 462.36 148.65 C 459.53 151.05 455.87 153.07 452.05 152.02 C 446.14 151.16 443.13 143.80 445.73 138.71 C 446.78 136.47 448.81 134.97 450.68 133.45 C 448.96 130.33 447.13 126.51 449.04 123.03 Z" />
<path fill="#231f20" d=" M 543.94 119.91 C 546.49 118.98 550.19 118.50 552.06 120.94 C 552.80 124.47 548.91 123.86 546.63 124.48 C 546.59 125.39 546.49 127.22 546.45 128.13 C 547.78 128.53 549.12 128.95 550.45 129.40 C 550.28 130.19 549.95 131.77 549.78 132.56 C 548.67 132.76 547.56 132.97 546.46 133.17 C 546.44 139.10 546.76 145.05 546.20 150.96 C 545.46 151.33 543.99 152.08 543.26 152.45 C 542.52 151.37 541.27 150.42 541.32 148.99 C 541.11 143.81 541.29 138.63 541.27 133.45 C 539.68 132.95 537.20 132.27 537.81 130.05 C 537.93 128.44 540.03 128.77 541.09 128.15 C 541.56 125.37 540.97 121.47 543.94 119.91 Z" />
<path fill="#231f20" d=" M 615.39 119.46 C 615.78 119.63 616.57 119.98 616.97 120.15 C 617.28 120.75 617.90 121.93 618.21 122.53 C 617.49 123.60 616.76 124.66 616.03 125.71 C 615.31 125.41 613.87 124.80 613.15 124.50 C 613.14 123.18 613.15 121.86 613.18 120.55 C 613.73 120.28 614.83 119.73 615.39 119.46 Z" />
<path fill="#231f20" d=" M 810.06 119.32 C 810.97 119.67 811.90 120.02 812.83 120.39 C 812.63 121.89 813.61 124.46 811.68 125.13 C 809.83 126.52 808.58 123.72 807.62 122.59 C 808.41 121.49 809.22 120.39 810.06 119.32 Z" />
<path fill="#231f20" d=" M 837.97 119.81 C 839.33 119.95 841.92 119.12 842.22 121.15 C 843.23 123.06 841.61 126.33 839.26 125.24 C 836.89 124.70 837.86 121.50 837.97 119.81 Z" />
<path fill="#231f20" d=" M 687.84 122.05 C 687.42 119.10 692.17 118.32 692.63 121.19 C 692.90 130.48 692.72 139.80 692.72 149.10 C 693.03 150.85 691.23 151.61 690.23 152.65 C 689.17 151.59 687.54 150.67 687.78 148.93 C 687.75 139.97 687.64 131.00 687.84 122.05 Z" />
<path fill="#ffffff" d=" M 140.62 126.77 C 142.17 124.46 143.71 122.14 145.35 119.89 C 147.29 122.12 144.43 124.06 143.50 125.99 C 144.22 126.48 145.67 127.47 146.40 127.96 C 147.49 126.52 148.57 125.07 149.66 123.62 C 149.99 123.95 150.66 124.60 150.99 124.93 C 150.04 126.30 149.09 127.68 148.14 129.05 C 149.32 129.86 150.51 130.67 151.70 131.47 C 152.73 129.91 153.76 128.36 154.81 126.82 C 155.22 127.09 156.04 127.63 156.45 127.90 C 154.98 130.02 153.54 132.15 152.13 134.30 C 148.18 131.96 144.44 129.30 140.62 126.77 Z" />
<path fill="#ffffff" d=" M 25.04 129.94 C 28.73 127.24 32.41 124.53 36.07 121.81 C 37.75 124.03 39.43 126.26 41.00 128.56 C 38.23 129.66 37.36 126.36 35.87 124.82 C 34.90 125.48 33.93 126.15 32.96 126.82 C 33.99 128.33 35.04 129.83 36.09 131.32 C 35.63 131.50 34.70 131.85 34.24 132.03 C 33.29 130.69 32.32 129.37 31.33 128.05 C 30.20 128.93 29.07 129.82 27.95 130.70 C 29.21 132.31 30.44 133.95 31.57 135.66 C 28.04 136.32 27.04 131.94 25.04 129.94 Z" />
<path fill="#ffffff" d=" M 453.62 124.73 C 454.64 123.18 456.55 123.83 458.06 123.84 C 458.86 126.76 457.49 129.26 455.20 131.00 C 454.36 129.04 452.35 126.96 453.62 124.73 Z" />
<path fill="#231f20" d=" M 224.52 128.72 C 228.26 127.16 233.16 127.98 235.60 131.40 C 238.33 134.94 238.36 139.75 237.74 143.97 C 237.03 148.26 233.45 152.17 228.93 152.25 C 224.08 152.68 219.84 148.69 219.07 144.07 C 217.99 138.61 218.91 131.36 224.52 128.72 Z" />
<path fill="#231f20" d=" M 241.51 130.89 C 241.21 129.22 243.11 128.48 243.96 127.39 C 244.84 128.50 245.68 129.63 246.48 130.80 C 249.24 127.20 254.74 127.10 257.33 130.92 C 259.28 128.99 261.98 127.18 264.85 128.26 C 267.84 128.92 269.22 132.12 269.19 134.94 C 269.30 139.69 269.34 144.45 269.17 149.20 C 269.41 151.07 267.44 151.65 266.28 152.58 C 265.45 151.49 263.88 150.64 264.03 149.07 C 263.74 143.79 264.57 138.43 263.30 133.23 C 261.41 132.96 259.18 133.25 258.55 135.39 C 257.26 140.12 258.54 145.12 257.80 149.94 C 257.43 151.18 256.07 151.74 255.25 152.64 C 254.16 151.60 252.52 150.72 252.78 148.95 C 252.41 143.68 253.50 138.24 251.88 133.11 C 250.33 133.12 248.31 132.75 247.48 134.47 C 245.75 139.65 246.98 145.21 246.31 150.53 C 245.59 151.30 244.83 152.01 244.01 152.68 C 242.95 151.67 241.22 150.87 241.53 149.11 C 241.45 143.04 241.49 136.96 241.51 130.89 Z" />
<path fill="#231f20" d=" M 274.46 132.42 C 277.00 127.36 284.68 126.39 288.55 130.42 C 291.01 133.14 291.89 137.16 290.89 140.68 C 286.82 142.73 282.01 141.36 277.64 141.78 C 278.41 143.97 278.73 147.13 281.51 147.67 C 284.80 148.94 286.74 144.97 289.29 143.66 C 291.01 144.12 291.44 146.21 290.59 147.62 C 287.80 153.69 278.08 153.75 274.76 148.15 C 272.01 143.45 272.08 137.26 274.46 132.42 Z" />
<path fill="#231f20" d=" M 304.07 130.88 C 303.73 128.91 305.86 128.37 307.13 127.48 C 307.75 128.63 308.38 129.80 308.98 130.97 C 311.02 128.91 313.87 127.15 316.87 128.26 C 320.26 129.06 321.35 132.89 321.46 135.94 C 321.49 140.62 321.70 145.32 321.33 149.99 C 321.25 152.47 317.38 152.71 316.69 150.50 C 315.97 145.15 317.28 139.60 315.77 134.36 C 314.55 131.46 310.55 133.26 309.73 135.53 C 308.39 140.49 309.43 145.71 308.80 150.75 C 307.93 151.42 307.02 152.04 306.09 152.62 C 305.37 151.50 303.97 150.60 304.06 149.13 C 303.95 143.05 303.93 136.96 304.07 130.88 Z" />
<path fill="#231f20" d=" M 326.54 128.56 C 327.45 127.44 329.03 128.44 329.96 129.02 C 331.57 134.41 329.28 140.36 331.30 145.66 C 331.90 147.53 334.10 146.81 335.55 146.95 C 339.31 142.42 337.15 136.27 337.81 130.95 C 337.61 129.14 339.56 128.50 340.67 127.53 C 341.41 128.58 342.88 129.41 342.72 130.89 C 342.80 136.94 342.78 143.00 342.73 149.05 C 342.89 150.42 341.84 151.40 341.18 152.46 C 340.51 152.17 339.18 151.59 338.51 151.30 C 338.37 150.70 338.10 149.50 337.96 148.90 C 336.33 150.33 334.66 152.06 332.34 152.11 C 329.17 152.70 326.07 150.11 325.71 146.99 C 325.24 142.34 325.60 137.65 325.48 132.98 C 325.66 131.53 325.06 129.50 326.54 128.56 Z" />
<path fill="#231f20" d=" M 347.30 131.68 C 347.23 129.96 348.37 126.94 350.55 128.24 C 351.06 128.77 352.07 129.84 352.58 130.37 C 354.16 126.58 361.32 127.57 360.70 131.91 C 360.56 135.90 355.03 131.82 353.73 134.76 C 351.38 139.82 353.14 145.61 352.18 150.97 C 351.55 151.31 350.27 151.98 349.64 152.32 C 348.92 151.79 348.21 151.26 347.50 150.73 C 347.06 144.39 347.23 138.03 347.30 131.68 Z" />
<path fill="#231f20" d=" M 362.51 138.47 C 359.93 134.75 362.35 128.96 366.82 128.20 C 371.40 126.89 378.29 129.75 376.88 135.43 C 376.21 135.56 374.88 135.82 374.22 135.95 C 372.41 133.50 368.46 129.92 366.20 133.98 C 367.57 138.07 373.33 136.92 375.96 139.89 C 379.70 143.01 378.33 150.17 373.60 151.57 C 369.97 152.81 365.26 152.52 362.62 149.44 C 361.53 147.51 360.39 144.55 362.91 143.20 C 364.83 143.16 365.37 145.45 366.61 146.55 C 368.20 149.49 374.07 147.84 372.91 144.26 C 370.01 141.40 364.89 142.02 362.51 138.47 Z" />
<path fill="#231f20" d=" M 382.03 130.91 C 381.76 129.19 383.53 128.50 384.55 127.53 C 388.78 130.28 386.40 135.83 387.00 139.99 C 386.48 144.20 388.55 149.45 384.88 152.63 C 383.65 151.67 381.61 151.02 382.03 149.06 C 381.96 143.01 381.96 136.96 382.03 130.91 Z" />
<path fill="#231f20" d=" M 391.86 129.15 C 393.73 126.78 396.15 128.64 396.62 131.06 C 398.58 128.47 402.19 126.99 405.24 128.59 C 408.07 129.78 408.86 133.17 408.98 135.94 C 409.03 140.29 409.06 144.65 408.97 149.00 C 409.18 150.68 407.56 151.54 406.61 152.62 C 405.77 151.99 404.98 151.32 404.22 150.61 C 403.45 145.26 404.76 139.72 403.34 134.44 C 402.03 131.30 397.48 133.44 397.05 136.15 C 396.19 140.88 397.36 145.77 396.36 150.49 C 395.61 151.29 394.80 152.03 393.94 152.72 C 392.72 151.40 391.19 150.04 391.52 148.05 C 391.65 141.76 391.08 135.40 391.86 129.15 Z" />
<path fill="#231f20" d=" M 416.45 129.45 C 419.43 126.78 424.05 128.02 426.41 130.90 C 426.92 128.78 429.35 126.93 431.09 129.15 C 432.04 135.70 431.24 142.42 431.52 149.04 C 431.67 153.24 430.95 158.83 426.27 160.31 C 421.82 161.80 414.75 161.17 413.31 155.83 C 412.60 154.30 413.75 152.84 415.15 152.29 C 417.76 153.77 419.52 157.44 423.01 156.47 C 426.65 155.73 426.29 151.24 426.74 148.40 C 424.90 149.95 423.00 151.95 420.36 151.72 C 415.80 151.64 413.11 146.96 412.67 142.91 C 412.11 138.24 412.31 132.52 416.45 129.45 Z" />
<path fill="#231f20" d=" M 481.48 133.93 C 481.66 131.95 480.99 129.08 483.29 128.11 C 485.17 127.68 486.02 129.61 486.63 131.00 C 488.37 129.45 490.35 127.63 492.90 128.02 C 496.30 128.24 498.89 131.08 499.83 134.20 C 501.19 138.70 501.08 143.81 498.89 148.04 C 497.44 150.88 494.19 152.87 490.97 152.11 C 489.06 151.79 487.81 150.20 486.42 149.03 C 486.40 152.93 487.08 157.07 485.46 160.74 C 484.23 160.83 483.02 160.51 481.83 160.31 C 481.13 151.54 481.68 142.72 481.48 133.93 Z" />
<path fill="#231f20" d=" M 505.31 128.17 C 507.22 127.33 508.51 129.24 509.50 130.56 C 511.20 126.78 515.99 127.64 518.02 130.65 C 517.77 131.46 517.27 133.06 517.02 133.86 C 515.03 133.97 512.84 133.02 511.03 134.06 C 507.99 139.13 509.97 145.41 508.99 150.96 C 507.58 152.87 504.49 152.22 504.36 149.74 C 504.05 144.84 504.35 139.92 504.22 135.01 C 504.30 132.71 503.87 130.16 505.31 128.17 Z" />
<path fill="#231f20" d=" M 525.23 128.17 C 529.60 127.09 534.38 129.61 535.90 133.84 C 537.70 138.56 537.56 144.37 534.64 148.61 C 531.67 152.90 524.87 153.49 521.15 149.88 C 517.44 146.40 517.00 140.70 518.02 135.99 C 518.73 132.32 521.41 128.86 525.23 128.17 Z" />
<path fill="#231f20" d=" M 553.97 130.95 C 556.38 127.81 561.00 127.26 564.52 128.64 C 568.57 130.60 570.44 135.52 569.63 139.81 C 569.21 141.37 567.39 141.58 566.05 141.70 C 562.74 141.86 559.44 141.71 556.14 141.80 C 556.72 143.62 557.39 145.42 558.13 147.20 C 559.13 147.45 560.14 147.68 561.16 147.88 C 564.54 148.45 566.49 141.54 569.52 144.91 C 569.78 149.84 564.38 152.92 559.96 152.18 C 555.52 151.95 552.20 148.00 551.53 143.82 C 550.82 139.47 551.10 134.53 553.97 130.95 Z" />
<path fill="#231f20" d=" M 574.49 139.36 C 571.00 135.88 573.15 129.19 577.93 128.26 C 581.81 127.29 587.49 128.55 588.36 133.09 C 588.86 134.75 587.13 136.54 585.45 135.78 C 584.12 134.77 583.12 133.42 582.03 132.19 C 580.08 132.19 577.74 132.10 577.60 134.65 C 579.72 137.86 584.50 137.13 587.18 139.75 C 591.52 143.09 589.23 151.20 583.80 151.92 C 579.41 153.15 572.99 151.40 572.70 146.03 C 571.99 144.28 574.68 142.26 575.88 143.95 C 577.41 145.40 578.27 148.33 580.82 148.03 C 582.83 148.31 583.94 146.41 584.98 145.06 C 582.21 141.89 577.58 142.00 574.49 139.36 Z" />
<path fill="#231f20" d=" M 593.42 138.51 C 591.12 135.02 592.86 129.56 597.01 128.43 C 600.92 127.11 606.94 128.46 607.95 133.00 C 608.61 134.85 606.54 135.56 605.35 136.32 C 603.73 134.82 602.56 132.30 600.14 132.06 C 598.31 131.94 597.62 133.78 596.68 134.94 C 600.33 137.59 605.69 137.55 608.33 141.59 C 610.26 145.36 608.21 150.84 603.88 151.77 C 599.72 153.07 593.49 151.92 592.49 146.97 C 591.74 145.23 592.82 143.22 594.79 143.17 C 596.69 144.90 597.80 148.67 600.99 147.98 C 603.08 148.12 605.02 145.36 603.37 143.73 C 600.22 141.69 595.82 141.69 593.42 138.51 Z" />
<path fill="#231f20" d=" M 612.96 128.74 C 614.42 128.45 615.92 128.29 617.43 128.43 C 618.44 135.85 618.08 143.43 617.68 150.90 C 616.76 151.44 615.85 151.97 614.94 152.51 C 614.09 151.43 612.70 150.51 612.83 148.96 C 612.68 142.23 612.63 135.48 612.96 128.74 Z" />
<path fill="#231f20" d=" M 627.48 128.63 C 631.97 126.75 637.77 128.79 639.61 133.43 C 641.76 138.61 641.51 145.32 637.66 149.66 C 633.47 153.97 625.40 152.67 622.93 147.14 C 620.20 141.08 620.81 131.86 627.48 128.63 Z" />
<path fill="#231f20" d=" M 644.56 128.52 C 645.59 128.34 646.63 128.22 647.69 128.15 C 648.33 129.08 648.93 130.05 649.50 131.05 C 651.28 128.51 654.65 127.14 657.62 128.41 C 660.64 129.51 661.58 132.97 661.72 135.86 C 661.79 140.23 661.81 144.60 661.72 148.97 C 661.91 150.64 660.35 151.57 659.39 152.64 C 658.18 151.66 656.43 150.84 656.78 148.98 C 656.39 144.06 657.49 138.92 655.94 134.15 C 654.29 131.30 649.95 133.76 649.72 136.45 C 649.05 141.26 649.33 146.13 649.18 150.96 C 648.45 151.34 646.97 152.08 646.24 152.45 C 645.23 151.16 643.94 149.86 644.25 148.07 C 644.32 141.55 643.97 135.02 644.56 128.52 Z" />
<path fill="#231f20" d=" M 666.29 133.09 C 667.12 129.18 671.62 127.66 675.19 127.96 C 678.12 127.84 681.70 128.98 682.53 132.16 C 683.67 137.32 682.34 142.72 683.67 147.88 C 684.32 149.66 683.66 151.87 681.66 152.35 C 680.37 151.59 679.40 150.43 678.38 149.37 C 675.99 151.11 673.12 152.88 670.03 152.07 C 664.44 151.00 663.40 142.01 668.44 139.54 C 671.58 138.22 675.00 137.68 678.24 136.61 C 677.89 135.23 677.52 133.87 677.14 132.51 C 675.63 132.50 674.03 132.09 672.60 132.70 C 671.15 133.87 670.15 135.47 668.79 136.73 C 666.83 137.32 665.46 134.70 666.29 133.09 Z" />
<path fill="#231f20" d=" M 713.22 128.17 C 717.28 127.14 722.00 129.16 723.51 133.20 C 724.35 135.09 723.48 137.93 721.01 137.60 C 719.10 135.42 716.91 131.36 713.41 133.26 C 710.44 135.76 710.20 140.33 711.33 143.80 C 711.96 146.11 714.52 148.39 716.96 147.02 C 719.59 146.31 720.02 140.76 723.24 142.64 C 725.96 147.11 720.61 152.30 716.08 152.18 C 710.28 153.02 705.70 147.58 705.76 142.11 C 705.12 136.65 706.99 129.37 713.22 128.17 Z" />
<path fill="#231f20" d=" M 729.08 130.88 C 732.00 127.42 737.36 127.34 741.34 128.77 C 744.91 130.22 744.88 134.70 745.00 137.94 C 744.82 142.38 745.26 146.78 745.68 151.19 C 745.00 151.49 743.62 152.09 742.94 152.39 C 742.05 151.38 741.21 150.36 740.38 149.31 C 737.69 151.14 734.41 153.16 731.05 151.85 C 725.99 150.06 725.50 141.70 730.40 139.43 C 733.62 138.21 737.03 137.60 740.29 136.48 C 739.61 134.78 739.35 132.27 737.00 132.30 C 732.98 131.39 732.42 137.20 728.56 136.91 C 728.09 134.89 727.55 132.61 729.08 130.88 Z" />
<path fill="#231f20" d=" M 750.92 127.46 C 752.38 128.19 753.77 129.07 754.66 130.50 C 756.13 127.79 759.57 127.14 761.95 129.17 C 763.67 130.24 762.58 132.36 762.39 133.90 C 760.29 133.79 758.22 133.63 756.14 133.65 C 753.88 139.03 754.84 144.95 754.34 150.59 C 753.37 152.76 749.84 152.54 749.67 149.96 C 749.26 144.31 749.59 138.63 749.49 132.97 C 749.31 131.01 750.17 129.22 750.92 127.46 Z" />
<path fill="#231f20" d=" M 765.71 131.76 C 768.54 127.24 775.77 126.57 779.39 130.49 C 781.38 132.48 782.11 135.38 782.27 138.11 C 782.23 139.54 781.63 141.30 779.99 141.45 C 776.18 142.08 772.30 141.63 768.46 141.78 C 769.29 143.83 769.51 146.90 772.07 147.60 C 775.89 149.19 777.96 144.33 781.24 143.34 C 781.43 144.91 782.26 146.72 781.18 148.16 C 777.89 153.91 768.19 153.54 765.29 147.62 C 762.81 142.75 762.94 136.49 765.71 131.76 Z" />
<path fill="#231f20" d=" M 788.48 129.38 C 791.50 126.81 796.13 128.02 798.37 131.04 C 799.02 129.80 799.47 128.21 801.10 127.98 C 802.47 128.45 803.59 129.39 803.41 131.00 C 803.64 137.36 803.44 143.73 803.50 150.10 C 803.41 153.54 802.93 157.75 799.65 159.67 C 795.56 161.70 790.10 161.53 786.57 158.45 C 785.63 157.03 784.62 155.16 785.48 153.47 C 787.39 150.85 789.22 154.30 790.88 155.41 C 792.08 156.84 794.09 156.65 795.75 156.33 C 798.65 154.82 798.15 151.07 798.76 148.36 C 796.75 150.20 794.36 152.37 791.39 151.59 C 787.22 151.00 785.15 146.63 784.65 142.89 C 784.13 138.20 784.27 132.42 788.48 129.38 Z" />
<path fill="#231f20" d=" M 808.43 128.61 C 809.96 128.27 811.51 128.35 813.03 128.74 C 813.38 135.49 813.31 142.25 813.17 149.00 C 813.31 150.62 811.77 151.48 810.87 152.53 C 809.99 151.94 809.12 151.35 808.26 150.76 C 807.90 143.40 807.69 135.96 808.43 128.61 Z" />
<path fill="#231f20" d=" M 816.60 131.87 C 816.00 130.32 816.88 127.52 818.90 128.11 C 820.74 128.09 820.98 130.08 821.50 131.41 C 822.82 135.82 824.03 140.26 825.36 144.66 C 827.17 138.96 828.39 133.03 830.98 127.59 C 832.38 128.25 834.46 128.79 834.27 130.80 C 832.94 136.63 830.55 142.18 828.88 147.93 C 828.20 149.65 827.56 152.58 825.11 152.16 C 822.74 151.94 822.36 149.31 821.62 147.54 C 819.96 142.31 818.03 137.17 816.60 131.87 Z" />
<path fill="#231f20" d=" M 838.61 128.67 C 840.12 127.11 842.83 128.85 842.46 130.88 C 842.50 137.26 842.63 143.65 842.39 150.03 C 842.23 152.71 837.70 152.79 837.62 149.89 C 837.54 142.98 837.10 135.98 837.89 129.12 L 838.61 128.67 Z" />
<path fill="#231f20" d=" M 847.29 129.17 C 848.27 128.66 849.27 128.15 850.28 127.64 C 850.89 128.74 851.51 129.85 852.12 130.97 C 853.74 129.47 855.57 127.77 857.98 127.97 C 861.77 127.73 864.53 131.44 864.46 134.99 C 864.40 140.23 864.85 145.54 864.20 150.73 C 863.64 151.23 862.50 152.21 861.93 152.70 C 861.11 151.96 860.37 151.14 859.73 150.27 C 858.86 144.98 860.37 139.44 858.85 134.26 C 857.55 131.48 853.43 133.34 852.79 135.72 C 851.65 140.06 852.58 144.61 852.19 149.03 C 852.41 150.76 850.80 151.62 849.75 152.65 C 848.73 151.61 846.96 150.83 847.28 149.08 C 847.19 142.45 847.24 135.81 847.29 129.17 Z" />
<path fill="#231f20" d=" M 872.87 128.86 C 875.96 126.83 879.71 128.49 882.07 130.85 C 882.68 129.79 883.31 128.74 883.96 127.69 C 884.94 128.21 885.94 128.73 886.94 129.26 C 887.04 136.55 887.00 143.84 887.00 151.13 C 887.06 154.62 885.89 158.74 882.33 160.14 C 878.47 161.52 873.55 161.43 870.39 158.55 C 868.65 156.88 867.69 152.86 870.94 152.35 C 873.30 153.73 874.81 157.15 878.00 156.53 C 881.97 156.35 882.00 151.53 882.22 148.61 C 880.18 150.56 877.44 152.49 874.47 151.50 C 870.32 150.51 868.59 145.96 868.17 142.15 C 867.59 137.40 868.30 131.49 872.87 128.86 Z" />
<path fill="#ffffff" d=" M 134.74 136.11 C 134.47 132.67 137.45 130.36 139.97 128.60 C 140.17 129.07 140.59 130.01 140.79 130.48 C 139.43 131.81 136.96 132.74 137.13 135.01 C 137.15 138.23 140.65 141.31 143.86 140.71 C 145.76 139.53 146.93 137.16 149.41 137.05 C 147.98 139.53 146.34 142.95 143.00 142.89 C 138.95 143.33 135.72 139.71 134.74 136.11 Z" />
<path fill="#ffffff" d=" M 32.52 141.26 C 34.78 136.72 38.94 133.58 42.35 129.96 C 42.77 130.46 43.61 131.46 44.03 131.96 C 43.35 136.11 42.41 140.21 41.54 144.32 C 44.04 141.68 46.51 139.01 48.99 136.35 C 49.35 136.74 50.08 137.54 50.45 137.93 C 47.24 141.20 44.09 144.52 40.97 147.89 C 40.47 147.39 39.47 146.39 38.97 145.89 C 39.83 141.69 40.74 137.49 41.71 133.31 C 38.74 136.01 36.67 140.21 32.52 141.26 Z" />
<path fill="#ffffff" d=" M 556.18 137.92 C 556.73 135.21 558.17 132.89 560.75 131.74 C 563.19 132.98 564.65 135.21 565.16 137.86 C 562.17 138.03 559.17 138.03 556.18 137.92 Z" />
<path fill="#ffffff" d=" M 225.53 133.47 C 227.40 133.04 229.73 132.00 231.21 133.86 C 233.68 137.34 233.80 142.72 231.23 146.19 C 229.38 148.72 225.26 147.19 224.52 144.47 C 223.04 140.86 223.80 136.83 225.53 133.47 Z" />
<path fill="#ffffff" d=" M 277.70 137.97 C 278.44 135.75 279.11 132.34 282.07 132.30 C 285.21 132.07 285.95 135.60 286.62 137.92 C 283.65 138.02 280.67 138.02 277.70 137.97 Z" />
<path fill="#ffffff" d=" M 420.19 133.13 C 423.00 131.52 425.95 134.27 426.25 137.05 C 426.92 140.47 426.82 145.66 422.71 146.77 C 420.29 147.77 418.27 144.95 417.84 142.87 C 417.20 139.62 417.25 135.25 420.19 133.13 Z" />
<path fill="#ffffff" d=" M 489.34 133.17 C 491.99 131.63 494.97 134.34 495.27 137.02 C 495.96 140.74 495.78 146.65 491.01 147.39 C 485.25 145.85 485.30 136.52 489.34 133.17 Z" />
<path fill="#ffffff" d=" M 523.21 143.88 C 522.29 140.12 522.05 133.60 527.05 132.78 C 528.65 132.17 530.18 133.73 530.89 135.03 C 532.82 139.25 532.47 145.27 528.13 147.88 C 526.10 147.12 523.58 146.38 523.21 143.88 Z" />
<path fill="#ffffff" d=" M 629.32 133.31 C 631.57 131.73 634.40 133.32 635.11 135.73 C 636.13 139.05 636.28 143.15 634.11 146.05 C 632.15 148.98 627.56 146.96 627.07 143.88 C 626.16 140.44 625.97 135.49 629.32 133.31 Z" />
<path fill="#ffffff" d=" M 768.58 137.95 C 769.32 135.71 769.92 132.31 772.96 132.31 C 776.00 132.09 776.85 135.67 777.52 137.95 C 774.54 138.01 771.56 138.02 768.58 137.95 Z" />
<path fill="#ffffff" d=" M 792.19 133.12 C 795.03 131.50 797.90 134.29 798.20 137.08 C 798.98 140.47 798.71 145.66 794.69 146.77 C 792.30 147.72 790.20 145.05 789.84 142.93 C 789.12 139.66 789.25 135.26 792.19 133.12 Z" />
<path fill="#ffffff" d=" M 875.42 133.41 C 878.01 131.29 881.54 134.03 881.82 136.95 C 882.60 140.30 882.42 145.53 878.47 146.74 C 875.97 147.82 873.78 145.07 873.44 142.84 C 873.04 139.67 872.76 135.72 875.42 133.41 Z" />
<path fill="#ffffff" d=" M 453.16 137.00 C 455.09 139.73 457.05 142.45 459.15 145.06 C 457.32 146.13 455.42 148.23 453.11 147.28 C 450.77 146.33 449.50 143.51 450.12 141.09 C 450.78 139.50 452.09 138.32 453.16 137.00 Z" />
<path fill="#ffffff" d=" M 128.63 138.89 C 129.08 138.53 129.96 137.83 130.41 137.48 C 133.24 141.05 135.98 144.70 138.85 148.25 C 138.39 148.62 137.48 149.36 137.02 149.72 C 134.27 146.08 131.43 142.49 128.63 138.89 Z" />
<path fill="#ffffff" d=" M 45.22 151.09 C 47.82 147.23 50.51 143.43 53.10 139.56 C 53.56 139.90 54.50 140.58 54.97 140.91 C 52.41 144.63 49.87 148.36 47.29 152.06 C 46.60 151.73 45.91 151.41 45.22 151.09 Z" />
<path fill="#ffffff" d=" M 127.71 152.57 C 127.48 148.20 124.54 143.31 127.23 139.31 C 128.67 144.15 129.17 149.19 130.08 154.15 C 129.57 154.48 128.54 155.16 128.02 155.49 C 124.36 152.10 120.58 148.81 117.06 145.26 C 117.62 145.14 118.73 144.88 119.28 144.75 C 122.41 146.98 124.91 149.95 127.71 152.57 Z" />
<path fill="#ffffff" d=" M 670.44 145.06 C 670.84 141.27 675.76 141.65 678.45 140.45 C 678.24 143.17 677.47 145.77 675.49 147.73 C 673.40 148.04 670.47 147.86 670.44 145.06 Z" />
<path fill="#ffffff" d=" M 732.38 143.90 C 734.11 141.37 737.59 141.46 740.22 140.44 C 739.97 143.14 739.60 146.67 736.55 147.65 C 734.16 148.82 731.52 146.41 732.38 143.90 Z" />
<path fill="#ffffff" d=" M 57.52 144.67 C 60.95 143.39 65.42 145.31 66.42 148.93 C 67.06 152.75 64.89 157.29 61.03 158.45 C 57.33 159.10 52.60 156.15 53.19 152.01 C 53.24 149.04 54.96 146.14 57.52 144.67 Z" />
<path fill="#266a2e" d=" M 59.29 146.36 C 61.92 145.66 65.03 148.28 64.18 151.04 C 63.61 153.77 61.31 157.59 58.02 156.16 C 53.36 154.58 55.70 147.75 59.29 146.36 Z" />
<path fill="#ffffff" d=" M 107.85 148.35 C 110.78 147.72 114.59 145.25 117.05 148.13 C 118.48 149.96 117.41 152.28 116.55 154.10 C 118.39 155.66 120.22 157.28 121.69 159.22 C 117.77 159.61 116.14 154.90 112.32 155.07 C 112.62 157.48 115.16 160.51 111.97 162.04 C 110.47 157.51 109.14 152.93 107.85 148.35 Z" />
<path fill="#ffffff" d=" M 70.70 148.10 C 73.42 148.89 76.91 148.85 78.66 151.45 C 79.72 154.10 77.65 156.14 75.59 157.42 C 76.49 159.58 77.37 161.75 78.18 163.94 C 73.99 163.48 74.81 158.14 71.79 156.07 C 71.16 157.97 70.63 159.91 70.14 161.86 C 69.59 161.80 68.50 161.68 67.95 161.62 C 68.90 157.12 69.74 152.60 70.70 148.10 Z" />
<path fill="#ffffff" d=" M 97.58 149.89 C 100.12 149.56 102.65 149.22 105.18 148.82 L 105.84 150.58 C 103.95 150.95 102.06 151.29 100.16 151.62 C 100.32 152.82 100.49 154.03 100.65 155.24 C 102.33 154.95 104.01 154.67 105.70 154.41 C 105.77 154.88 105.90 155.83 105.96 156.30 C 104.34 156.53 102.73 156.77 101.11 157.01 C 101.21 158.42 101.32 159.84 101.43 161.25 C 103.60 161.27 106.47 159.61 107.96 162.07 C 105.17 162.67 102.35 163.14 99.54 163.62 C 98.83 159.05 98.35 154.45 97.58 149.89 Z" />
<path fill="#266a2e" d=" M 110.39 149.38 C 111.64 149.17 112.89 148.99 114.15 148.85 C 115.25 149.56 115.42 150.94 115.90 152.05 C 114.56 152.69 113.21 153.32 111.86 153.94 C 111.37 152.41 110.88 150.90 110.39 149.38 Z" />
<path fill="#266a2e" d=" M 72.57 150.40 C 73.97 150.89 75.37 151.40 76.76 151.91 C 76.39 153.07 76.01 154.21 75.62 155.36 C 74.26 155.28 72.91 155.19 71.56 155.11 C 71.87 153.53 72.23 151.97 72.57 150.40 Z" />
<path fill="#ffffff" d=" M 87.98 151.02 C 90.07 149.52 92.78 150.38 95.13 150.53 C 94.98 151.02 94.69 151.98 94.54 152.46 C 92.40 152.35 89.40 151.29 88.38 153.99 C 90.51 155.94 93.81 156.46 95.42 158.95 C 97.02 164.14 87.79 166.63 86.11 161.73 C 88.90 162.06 92.35 163.23 93.86 159.99 C 92.03 158.84 90.07 157.91 88.26 156.72 C 86.27 155.53 86.09 152.39 87.98 151.02 Z" />
</svg>
