<?xml version="1.0" encoding="UTF-8" ?>
<!DOCTYPE svg PUBLIC "-//W3C//DTD SVG 1.1//EN" "http://www.w3.org/Graphics/SVG/1.1/DTD/svg11.dtd">
<svg width="925pt" height="185pt" viewBox="0 0 925 185" version="1.1" xmlns="http://www.w3.org/2000/svg">
<g id="#266a2eff">
<path fill="#266a2e" opacity="1.00" d=" M 0.00 0.00 L 925.00 0.00 L 925.00 185.00 L 0.00 185.00 L 0.00 0.00 M 83.62 2.85 C 64.72 5.18 46.62 13.72 32.86 26.88 C 18.08 40.61 8.09 59.44 5.15 79.40 C 4.86 88.56 4.97 97.75 5.09 106.92 C 9.24 138.58 31.81 166.78 61.45 178.43 C 69.92 181.64 78.83 184.44 87.99 184.01 C 95.71 183.79 103.46 184.43 111.15 183.64 C 129.57 180.49 147.02 171.52 160.14 158.18 C 176.42 142.20 186.13 119.82 186.92 97.05 C 187.70 78.57 182.64 59.92 172.68 44.35 C 160.31 24.89 140.39 10.36 117.98 4.80 C 106.70 2.62 95.09 0.90 83.62 2.85 M 318.22 43.26 C 313.18 47.46 310.36 53.80 309.21 60.15 C 307.84 68.17 308.03 76.62 310.75 84.35 C 312.66 89.58 316.28 94.76 321.85 96.44 C 326.83 97.84 332.57 96.87 336.58 93.50 C 336.91 91.36 336.81 89.19 336.92 87.04 C 333.99 89.14 330.69 91.10 326.97 91.04 C 322.56 91.11 318.60 88.23 316.58 84.43 C 312.75 77.49 312.72 69.14 313.81 61.48 C 314.85 55.52 317.81 48.99 323.83 46.70 C 328.23 44.89 332.95 46.71 336.82 48.91 C 336.80 46.61 336.80 44.32 336.82 42.02 C 331.02 39.11 323.40 39.01 318.22 43.26 M 398.24 43.25 C 393.20 47.44 390.38 53.78 389.21 60.12 C 387.84 68.13 388.03 76.57 390.73 84.30 C 392.56 89.28 395.87 94.21 401.03 96.17 C 406.19 97.98 412.35 97.04 416.58 93.50 C 416.91 91.36 416.81 89.19 416.92 87.04 C 414.62 88.62 412.25 90.25 409.46 90.77 C 404.84 91.89 399.81 89.61 397.33 85.61 C 392.82 78.76 392.72 70.04 393.70 62.18 C 394.63 55.98 397.58 49.09 403.83 46.70 C 408.23 44.89 412.95 46.72 416.82 48.91 C 416.80 46.61 416.80 44.31 416.82 42.02 C 411.02 39.11 403.42 39.01 398.24 43.25 M 496.09 42.07 C 489.76 46.39 488.69 55.68 491.78 62.27 C 494.88 69.00 502.81 71.24 506.89 77.14 C 509.64 81.36 508.94 88.85 503.52 90.53 C 498.59 92.21 493.56 89.37 490.03 86.08 C 490.09 88.66 490.10 91.24 490.10 93.82 C 495.53 97.68 503.69 98.48 508.94 93.89 C 513.62 89.32 514.02 81.79 512.08 75.87 C 509.68 69.32 503.14 66.10 498.21 61.76 C 494.19 58.35 493.50 51.22 497.70 47.68 C 501.92 44.54 507.60 46.23 511.64 48.82 C 511.57 46.34 511.55 43.86 511.56 41.38 C 506.61 39.63 500.69 39.06 496.09 42.07 M 614.46 40.54 C 606.17 43.04 602.36 52.04 601.12 59.91 C 599.57 70.70 599.99 82.99 607.11 91.86 C 612.02 98.25 622.43 98.81 628.13 93.19 C 634.61 87.00 636.00 77.51 636.33 68.98 C 636.33 60.31 635.07 50.75 628.83 44.19 C 625.27 40.29 619.43 39.05 614.46 40.54 M 695.07 42.08 C 688.75 46.42 687.69 55.72 690.79 62.30 C 693.91 69.02 701.85 71.26 705.91 77.17 C 708.65 81.42 707.91 88.92 702.45 90.55 C 697.54 92.18 692.54 89.35 689.03 86.08 C 689.09 88.66 689.10 91.24 689.10 93.82 C 694.53 97.67 702.67 98.48 707.92 93.91 C 712.64 89.32 713.03 81.73 711.05 75.79 C 708.62 69.29 702.11 66.08 697.20 61.75 C 693.20 58.33 692.51 51.22 696.69 47.69 C 700.91 44.54 706.60 46.23 710.65 48.82 C 710.57 46.34 710.55 43.86 710.56 41.38 C 705.60 39.63 699.66 39.06 695.07 42.08 M 834.28 43.22 C 829.19 47.43 826.36 53.81 825.20 60.20 C 823.84 68.17 824.04 76.57 826.71 84.26 C 828.55 89.27 831.88 94.24 837.08 96.18 C 842.22 97.97 848.35 97.03 852.57 93.51 C 852.91 91.38 852.80 89.20 852.92 87.04 C 849.31 89.75 844.70 92.01 840.11 90.65 C 835.78 89.57 832.83 85.72 831.28 81.75 C 828.76 75.13 828.79 67.79 829.92 60.88 C 831.06 54.90 834.31 48.33 840.57 46.45 C 844.80 45.04 849.14 46.88 852.82 48.91 C 852.79 46.61 852.79 44.32 852.82 42.02 C 847.04 39.12 839.45 39.01 834.28 43.22 M 892.09 42.07 C 885.74 46.41 884.68 55.75 887.81 62.34 C 890.95 69.04 898.86 71.27 902.92 77.18 C 905.64 81.42 904.91 88.91 899.47 90.55 C 894.55 92.19 889.55 89.36 886.03 86.08 C 886.09 88.66 886.10 91.24 886.10 93.82 C 891.51 97.66 899.61 98.48 904.88 93.95 C 909.64 89.37 910.04 81.74 908.05 75.78 C 905.61 69.27 899.08 66.07 894.18 61.73 C 890.18 58.30 889.51 51.16 893.74 47.66 C 897.97 44.54 903.61 46.25 907.64 48.82 C 907.57 46.34 907.55 43.86 907.56 41.38 C 902.60 39.63 896.68 39.06 892.09 42.07 M 203.00 41.00 C 203.00 59.33 203.00 77.67 203.00 96.00 C 209.56 96.00 216.12 96.00 222.69 96.00 C 222.68 94.00 222.68 92.00 222.69 90.00 C 217.63 90.00 212.56 90.00 207.50 90.00 C 207.51 73.67 207.49 57.34 207.51 41.01 C 206.00 41.00 204.50 41.00 203.00 41.00 M 228.00 41.00 C 228.00 59.33 228.00 77.67 228.00 96.00 C 229.50 96.00 231.00 95.99 232.51 95.99 C 232.50 77.66 232.50 59.34 232.51 41.01 C 231.00 41.00 229.50 41.00 228.00 41.00 M 243.00 41.00 C 243.00 59.33 243.00 77.67 243.00 96.00 C 244.50 96.00 246.00 95.99 247.51 95.99 C 247.50 87.99 247.50 80.00 247.50 72.00 C 252.00 72.00 256.50 72.00 261.00 72.00 C 261.00 70.00 261.00 68.00 261.00 66.00 C 256.50 66.00 252.00 66.00 247.50 66.00 C 247.50 59.67 247.50 53.33 247.50 47.00 C 252.40 47.00 257.30 47.00 262.20 47.00 C 262.20 45.00 262.20 43.00 262.20 41.00 C 255.80 41.00 249.40 41.00 243.00 41.00 M 269.00 41.00 C 269.00 59.33 269.00 77.67 269.00 96.00 C 275.67 96.00 282.33 96.00 289.00 96.00 C 289.00 94.00 289.00 92.00 289.00 90.00 C 283.83 90.00 278.67 90.00 273.50 90.00 C 273.50 83.67 273.50 77.33 273.50 71.00 C 278.00 71.00 282.50 71.00 287.00 71.00 C 287.00 69.00 287.00 67.00 287.00 65.00 C 282.50 65.00 278.00 65.00 273.50 65.00 C 273.50 59.00 273.50 53.00 273.50 47.00 C 278.40 47.00 283.30 47.00 288.20 47.00 C 288.20 45.00 288.20 43.00 288.20 41.00 C 281.80 41.00 275.40 41.00 269.00 41.00 M 345.00 40.99 C 345.00 59.33 345.00 77.67 345.00 96.00 C 346.50 96.00 348.00 96.00 349.51 95.99 C 349.50 77.67 349.50 59.34 349.51 41.01 C 348.00 41.00 346.50 41.00 345.00 40.99 M 358.80 41.00 C 358.80 59.34 358.80 77.68 358.80 96.02 C 360.36 96.00 361.94 95.98 363.52 95.97 C 363.49 88.28 363.50 80.58 363.51 72.89 C 365.85 73.15 368.71 72.52 370.55 74.39 C 372.39 76.14 373.35 78.55 374.38 80.82 C 376.46 85.89 378.62 90.92 380.66 96.00 C 382.48 96.00 384.31 96.00 386.14 96.00 C 383.45 89.91 380.84 83.79 378.18 77.70 C 377.10 75.20 375.61 72.91 373.79 70.90 C 379.70 68.03 382.23 61.20 381.80 54.96 C 381.81 49.44 379.35 42.81 373.43 41.37 C 368.61 40.55 363.67 41.19 358.80 41.00 M 424.00 41.00 C 424.00 59.33 424.00 77.67 424.00 96.00 C 430.56 96.00 437.12 96.00 443.69 96.00 C 443.68 94.00 443.68 92.00 443.69 90.00 C 438.62 90.00 433.56 90.00 428.50 90.00 C 428.50 73.67 428.50 57.34 428.51 41.01 C 427.00 41.00 425.49 41.00 424.00 41.00 M 450.00 41.00 C 450.00 59.33 450.00 77.67 450.00 96.00 C 456.67 96.00 463.33 96.00 470.00 96.00 C 469.99 94.00 469.99 92.00 470.00 90.00 C 464.83 90.00 459.67 90.00 454.50 90.00 C 454.50 83.67 454.50 77.33 454.50 71.00 C 459.00 71.00 463.50 71.00 468.00 71.00 C 467.99 69.00 467.99 67.00 468.00 65.00 C 463.50 65.00 459.00 65.00 454.50 65.00 C 454.50 59.00 454.50 53.00 454.50 47.00 C 459.40 47.00 464.30 47.00 469.20 47.00 C 469.20 45.00 469.20 43.00 469.20 41.00 C 462.80 41.00 456.40 41.00 450.00 41.00 M 520.00 41.00 C 520.00 59.33 520.00 77.67 520.00 96.00 C 526.67 96.00 533.33 96.00 540.00 96.00 C 539.99 94.00 539.99 92.00 540.00 90.00 C 534.83 90.00 529.67 90.00 524.50 90.00 C 524.50 83.67 524.50 77.33 524.50 71.00 C 529.00 71.00 533.50 71.00 538.00 71.00 C 537.99 69.00 537.99 67.00 538.00 65.00 C 533.50 65.00 529.00 65.00 524.50 65.00 C 524.50 59.00 524.50 53.00 524.50 47.00 C 529.40 47.00 534.30 47.00 539.20 47.00 C 539.20 45.00 539.20 43.00 539.20 41.00 C 532.80 41.00 526.40 41.00 520.00 41.00 M 548.00 41.00 C 548.00 59.33 548.00 77.67 548.00 96.00 C 549.49 96.00 550.99 96.00 552.50 96.00 C 552.37 80.14 552.77 64.26 552.29 48.41 C 553.43 52.66 555.47 56.58 557.21 60.60 C 562.42 72.40 567.69 84.18 572.88 96.00 C 574.75 96.00 576.63 96.00 578.51 95.99 C 578.50 77.67 578.50 59.34 578.51 41.01 C 577.00 41.00 575.49 41.00 574.00 41.00 C 573.91 56.40 574.19 71.80 573.84 87.20 C 567.50 71.66 560.41 56.42 553.78 41.00 C 551.85 41.00 549.92 41.00 548.00 41.00 M 588.00 41.00 C 588.00 59.33 588.00 77.67 588.00 96.00 C 589.49 96.00 591.00 95.99 592.51 95.99 C 592.50 77.66 592.50 59.34 592.51 41.01 C 591.00 41.00 589.49 41.00 588.00 41.00 M 642.80 41.00 C 642.80 59.34 642.80 77.67 642.80 96.00 C 644.35 96.00 645.93 96.00 647.51 96.00 C 647.50 88.29 647.50 80.59 647.51 72.89 C 649.27 72.99 651.07 72.91 652.82 73.30 C 655.64 74.47 656.85 77.54 658.07 80.11 C 660.26 85.39 662.52 90.65 664.62 95.97 C 666.45 95.99 668.29 96.00 670.15 96.01 C 667.46 89.94 664.86 83.83 662.20 77.75 C 661.12 75.23 659.61 72.93 657.79 70.90 C 663.69 68.02 666.24 61.21 665.80 54.95 C 665.81 49.45 663.36 42.83 657.46 41.37 C 652.63 40.54 647.67 41.19 642.80 41.00 M 719.00 41.00 C 719.00 59.33 719.00 77.67 719.00 96.00 C 725.66 96.00 732.33 96.00 739.00 96.00 C 738.99 94.00 738.99 92.00 739.00 90.00 C 733.83 90.00 728.67 90.00 723.50 90.00 C 723.50 83.67 723.50 77.33 723.50 71.00 C 728.00 71.00 732.50 71.00 737.00 71.00 C 736.99 69.00 736.99 67.00 737.00 65.00 C 732.50 65.00 728.00 65.00 723.50 65.00 C 723.50 59.00 723.50 53.00 723.50 47.00 C 728.40 47.00 733.30 47.00 738.20 47.00 C 738.19 45.00 738.19 43.00 738.20 41.00 C 731.80 41.00 725.40 41.00 719.00 41.00 M 746.80 41.00 C 746.80 59.34 746.80 77.67 746.80 96.01 C 748.35 96.00 749.93 95.99 751.51 95.99 C 751.49 88.29 751.50 80.59 751.51 72.89 C 753.85 73.15 756.72 72.51 758.57 74.40 C 760.38 76.14 761.34 78.52 762.36 80.77 C 764.45 85.86 766.60 90.92 768.68 96.02 C 770.49 96.01 772.31 96.00 774.14 95.98 C 771.44 89.91 768.85 83.80 766.18 77.71 C 765.10 75.21 763.61 72.92 761.80 70.90 C 767.68 68.02 770.24 61.21 769.80 54.97 C 769.85 49.25 767.10 42.35 760.85 41.23 C 756.19 40.70 751.47 41.12 746.80 41.00 M 774.33 40.99 C 778.98 59.31 783.48 77.68 788.12 96.00 C 789.79 96.00 791.47 96.00 793.16 96.00 C 797.71 77.64 802.54 59.36 807.10 41.01 C 805.48 41.00 803.87 41.01 802.26 41.01 C 799.27 52.47 796.66 64.03 793.73 75.51 C 792.59 80.11 791.23 84.69 790.78 89.43 C 787.60 73.17 783.12 57.19 779.52 41.02 C 777.78 41.01 776.04 41.00 774.33 40.99 M 813.00 41.00 C 813.00 59.33 813.00 77.67 813.00 96.00 C 814.49 96.00 816.00 96.00 817.51 95.99 C 817.50 77.66 817.50 59.34 817.51 41.01 C 816.00 41.00 814.49 41.00 813.00 41.00 M 860.00 41.00 C 860.00 59.33 860.00 77.67 860.00 96.00 C 866.66 96.00 873.33 96.00 880.00 96.00 C 879.99 94.00 879.99 92.00 880.00 90.00 C 874.83 90.00 869.66 90.00 864.50 90.00 C 864.50 83.67 864.50 77.33 864.50 71.00 C 869.00 71.00 873.50 71.00 878.00 71.00 C 877.99 69.00 877.99 67.00 878.00 65.00 C 873.50 65.00 869.00 65.00 864.50 65.00 C 864.50 59.00 864.50 53.00 864.50 47.00 C 869.40 47.00 874.30 47.00 879.20 47.00 C 879.19 45.00 879.19 43.00 879.20 41.00 C 872.80 41.00 866.40 41.00 860.00 41.00 M 205.35 120.02 C 205.36 128.34 205.36 136.66 205.35 144.98 C 206.45 144.98 207.55 144.98 208.65 144.99 C 208.64 140.99 208.64 137.00 208.65 133.01 C 213.57 133.01 218.50 133.00 223.42 132.95 C 223.51 136.96 223.53 140.99 223.52 145.01 C 224.34 145.00 225.99 144.99 226.81 144.99 C 226.81 136.66 226.82 128.34 226.81 120.01 C 225.99 120.00 224.34 120.00 223.52 119.99 C 223.50 123.31 223.50 126.64 223.52 129.96 C 218.56 130.01 213.61 130.01 208.65 129.99 C 208.64 126.67 208.64 123.34 208.65 120.02 C 207.55 120.02 206.45 120.01 205.35 120.02 M 320.01 119.97 C 319.99 128.31 319.99 136.66 320.01 145.00 C 320.85 145.00 322.52 145.00 323.36 145.00 C 323.41 138.50 323.30 132.00 323.45 125.50 C 328.61 131.83 333.31 138.51 338.26 145.00 C 339.50 145.00 340.74 145.00 341.99 145.01 C 342.01 136.67 342.00 128.34 342.00 120.00 C 341.13 120.00 339.39 120.00 338.52 119.99 C 338.46 126.50 338.59 133.00 338.41 139.51 C 333.30 133.19 328.57 126.57 323.71 120.07 C 322.47 120.03 321.24 120.00 320.01 119.97 M 402.69 120.00 C 402.69 120.75 402.69 122.25 402.69 123.00 C 403.52 123.00 405.18 123.00 406.00 122.99 C 406.00 122.25 406.00 120.75 406.00 120.01 C 405.17 120.00 403.52 120.00 402.69 120.00 M 468.48 123.99 C 467.80 126.52 469.79 128.56 470.96 130.58 C 468.78 132.13 465.89 133.37 465.06 136.15 C 463.79 139.92 466.94 143.71 470.51 144.59 C 474.41 145.99 478.33 144.09 481.66 142.16 C 482.97 143.11 484.28 144.06 485.60 145.02 C 486.15 144.49 487.24 143.42 487.79 142.89 C 486.41 141.77 485.03 140.65 483.66 139.52 C 484.64 137.62 485.60 135.71 486.52 133.77 C 483.90 132.88 482.37 134.79 481.00 136.65 C 479.43 134.86 477.84 133.10 476.25 131.34 C 478.65 129.51 482.45 127.64 481.45 123.96 C 479.56 118.52 470.58 118.78 468.48 123.99 M 503.18 120.03 C 503.19 128.35 503.19 136.66 503.18 144.98 C 504.01 144.99 505.66 145.00 506.48 145.01 C 506.49 141.68 506.49 138.36 506.48 135.03 C 511.20 134.87 516.23 135.68 520.66 133.65 C 525.69 131.14 525.33 122.68 519.93 120.83 C 514.51 119.24 508.74 120.24 503.18 120.03 M 566.14 121.00 C 564.20 122.26 564.74 124.88 564.29 126.83 C 563.58 126.92 562.16 127.09 561.46 127.18 C 561.47 127.85 561.49 129.18 561.50 129.85 C 562.26 129.93 563.78 130.10 564.55 130.19 C 564.49 135.13 564.49 140.07 564.52 145.01 C 565.35 145.00 566.99 144.99 567.82 144.99 C 567.81 140.01 567.81 135.04 567.82 130.07 C 568.74 130.03 570.58 129.96 571.51 129.93 C 571.51 129.22 571.51 127.79 571.51 127.08 C 570.55 127.04 568.63 126.95 567.68 126.91 C 567.85 125.71 568.02 124.50 568.21 123.30 C 569.76 123.11 571.33 122.93 572.90 122.75 C 572.90 122.04 572.90 120.61 572.89 119.90 C 570.65 120.15 568.12 119.71 566.14 121.00 M 634.69 120.00 C 634.69 120.75 634.70 122.25 634.70 123.01 C 635.52 123.00 637.18 122.99 638.01 122.99 C 638.00 122.24 638.00 120.75 638.00 120.00 C 637.17 120.00 635.52 120.00 634.69 120.00 M 708.64 119.99 C 708.61 128.33 708.61 136.67 708.64 145.01 C 709.43 145.00 711.02 144.99 711.81 144.99 C 711.81 136.66 711.81 128.34 711.82 120.01 C 711.02 120.01 709.44 120.00 708.64 119.99 M 731.44 123.52 C 727.26 127.52 726.99 134.37 729.72 139.26 C 732.71 144.90 740.42 146.17 746.00 144.11 C 749.33 143.05 751.19 139.92 752.76 137.03 C 751.65 136.72 750.56 136.41 749.47 136.10 C 747.75 140.68 742.81 143.19 738.09 141.74 C 731.66 140.43 730.21 132.08 732.93 127.00 C 735.18 122.99 740.55 122.16 744.61 123.53 C 747.12 125.06 748.61 128.45 752.17 127.55 C 749.42 118.91 737.46 117.80 731.44 123.52 M 834.69 120.01 C 834.69 120.76 834.69 122.25 834.70 123.00 C 835.52 123.00 837.18 122.99 838.00 122.99 C 838.00 122.24 838.00 120.75 838.00 120.00 C 837.17 120.00 835.51 120.01 834.69 120.01 M 862.69 120.00 C 862.69 120.75 862.69 122.25 862.70 123.00 C 863.52 123.00 865.17 123.00 866.00 122.99 C 866.00 122.25 866.00 120.75 866.00 120.00 C 865.17 120.00 863.52 120.00 862.69 120.00 M 238.27 127.27 C 231.60 128.14 229.41 136.86 233.12 141.79 C 237.11 146.40 245.52 146.07 248.97 140.98 C 250.83 137.57 250.75 132.85 248.06 129.88 C 245.59 127.32 241.68 126.44 238.27 127.27 M 254.65 126.98 C 254.61 132.99 254.62 138.99 254.64 145.00 C 255.48 145.00 257.16 145.00 258.00 145.00 C 258.03 141.06 257.71 137.08 258.33 133.18 C 258.85 129.49 265.69 128.42 266.42 132.42 C 266.94 136.59 266.54 140.81 266.62 145.00 C 267.47 145.00 269.16 145.00 270.01 145.00 C 270.04 141.02 269.72 137.01 270.26 133.06 C 270.96 129.62 276.60 128.67 278.31 131.74 C 279.03 136.12 278.50 140.59 278.62 145.00 C 279.46 145.00 281.14 145.00 281.98 145.00 C 281.91 140.35 282.35 135.67 281.73 131.04 C 281.39 128.32 278.39 126.98 275.94 126.94 C 273.51 126.86 271.60 128.59 269.66 129.80 C 267.88 128.67 266.24 126.86 263.97 126.94 C 261.45 126.88 259.46 128.70 257.38 129.84 C 257.41 129.14 257.48 127.73 257.51 127.03 C 256.79 127.02 255.36 126.99 254.65 126.98 M 288.76 129.81 C 286.24 132.44 286.08 136.56 287.16 139.87 C 289.00 144.51 295.07 145.95 299.46 144.47 C 302.14 143.77 303.64 141.31 305.22 139.25 C 304.44 139.20 302.89 139.09 302.12 139.04 C 299.98 141.08 297.17 142.86 294.08 141.84 C 291.57 141.49 290.42 139.14 289.50 137.08 C 294.76 136.94 300.02 137.03 305.29 136.97 C 304.69 134.44 304.61 131.45 302.53 129.58 C 298.85 125.99 292.34 126.17 288.76 129.81 M 348.65 127.00 C 348.68 131.34 348.39 135.70 348.74 140.04 C 348.72 143.27 352.22 144.93 355.02 145.04 C 357.69 145.25 359.81 143.40 361.93 142.08 C 361.90 142.81 361.84 144.27 361.80 145.00 C 362.60 145.00 364.19 145.00 364.99 145.00 C 365.01 138.99 365.01 132.98 364.99 126.97 C 363.81 127.00 362.64 127.03 361.47 127.06 C 361.48 130.68 361.74 134.32 361.33 137.92 C 361.17 142.00 354.97 143.53 352.57 140.56 C 351.39 136.17 352.19 131.50 352.01 127.00 C 351.17 127.00 349.49 127.00 348.65 127.00 M 369.52 127.00 C 369.49 133.00 369.49 139.00 369.52 145.01 C 370.39 145.00 372.13 145.00 373.00 145.00 C 373.08 140.80 372.60 136.52 373.48 132.38 C 374.24 129.70 377.58 130.33 379.63 129.40 C 381.23 128.12 379.17 127.01 377.90 126.96 C 375.65 126.65 374.05 128.49 372.37 129.63 C 372.40 128.97 372.46 127.66 372.49 127.00 C 371.75 127.00 370.26 127.00 369.52 127.00 M 383.62 128.56 C 381.15 130.03 381.01 134.02 383.59 135.45 C 387.27 137.31 391.51 137.65 395.33 139.21 C 392.81 143.41 386.44 142.79 383.87 138.94 C 382.85 139.10 381.83 139.26 380.82 139.43 C 382.28 141.55 383.73 144.11 386.51 144.62 C 390.84 145.91 397.70 144.48 398.06 139.04 C 396.50 133.53 389.42 134.88 385.30 132.64 C 385.24 132.27 385.10 131.54 385.03 131.17 C 387.87 129.06 391.80 129.79 394.48 131.82 C 395.26 131.85 396.83 131.91 397.62 131.94 C 395.49 126.49 388.11 125.67 383.62 128.56 M 402.70 127.00 C 402.67 133.00 402.68 139.00 402.70 145.00 C 403.52 145.00 405.17 145.00 405.99 145.00 C 406.01 139.00 406.01 133.00 405.99 127.00 C 405.17 127.00 403.52 127.00 402.70 127.00 M 410.71 126.50 C 410.55 132.67 410.64 138.83 410.64 145.00 C 411.48 145.00 413.16 145.00 414.00 145.00 C 414.03 141.04 413.70 137.04 414.35 133.12 C 415.19 128.99 423.00 128.60 423.47 133.14 C 423.86 137.08 423.58 141.05 423.62 145.00 C 424.46 145.00 426.14 145.00 426.98 145.00 C 426.73 140.00 427.78 134.77 426.24 129.93 C 423.66 125.78 417.87 126.73 414.17 128.74 C 413.24 127.68 411.99 127.01 410.71 126.50 M 437.27 127.36 C 429.77 129.36 429.41 141.69 436.56 144.40 C 439.76 145.85 443.16 144.31 446.26 143.40 C 445.41 145.28 445.28 148.24 442.80 148.73 C 439.72 149.74 436.45 148.78 434.61 146.11 C 433.79 146.10 432.16 146.07 431.35 146.06 C 432.98 154.67 448.55 153.91 448.97 145.07 C 449.48 138.95 449.11 132.79 449.17 126.65 C 447.43 126.87 445.81 127.36 445.34 129.26 C 442.97 127.67 440.16 126.16 437.27 127.36 M 528.57 126.54 C 528.44 132.70 528.51 138.85 528.52 145.00 C 529.39 145.00 531.13 145.00 532.00 145.00 C 532.08 140.79 531.60 136.51 532.48 132.37 C 533.31 128.99 538.32 131.19 539.41 128.10 C 537.16 125.93 534.19 127.38 532.06 128.85 C 531.31 127.53 529.96 126.94 528.57 126.54 M 547.26 127.27 C 542.26 128.00 539.42 133.24 540.54 137.98 C 541.22 144.13 548.99 146.52 554.05 144.15 C 559.68 142.18 560.83 134.11 557.08 129.91 C 554.61 127.33 550.68 126.44 547.26 127.27 M 573.85 130.97 C 571.17 135.39 572.42 142.63 577.86 144.26 C 582.87 146.43 588.89 144.12 591.14 139.16 C 590.38 139.13 588.88 139.07 588.12 139.04 C 585.97 141.08 583.14 142.87 580.05 141.83 C 577.54 141.48 576.43 139.12 575.51 137.08 C 580.76 136.94 586.02 137.03 591.29 136.97 C 590.70 134.42 590.60 131.42 588.50 129.56 C 584.49 125.64 576.96 126.25 573.85 130.97 M 596.62 128.56 C 594.17 130.02 594.00 133.99 596.56 135.43 C 600.23 137.31 604.46 137.65 608.29 139.15 C 605.93 143.43 599.53 142.78 596.95 139.04 C 596.20 139.07 594.70 139.14 593.95 139.17 C 595.95 145.44 604.28 146.72 609.13 143.03 C 610.88 141.58 611.76 138.73 610.06 136.89 C 606.68 133.30 600.29 135.29 597.33 131.07 C 600.67 129.80 604.54 129.33 607.45 131.81 C 608.25 131.84 609.83 131.91 610.62 131.94 C 608.49 126.49 601.11 125.66 596.62 128.56 M 616.59 128.59 C 614.16 130.05 614.02 134.01 616.56 135.43 C 619.68 137.16 623.33 137.53 626.75 138.40 C 627.10 138.84 627.79 139.73 628.14 140.17 C 624.79 142.91 619.53 142.75 616.95 139.05 C 616.20 139.08 614.70 139.13 613.96 139.15 C 615.97 145.65 624.92 146.84 629.60 142.59 C 631.75 140.60 631.26 136.76 628.48 135.64 C 624.79 134.23 620.80 133.75 617.20 132.09 C 621.01 127.83 626.22 131.38 630.62 132.31 C 628.89 126.47 621.12 125.62 616.59 128.59 M 634.70 127.00 C 634.67 133.00 634.67 139.00 634.70 145.00 C 635.52 145.00 637.17 145.00 637.99 145.00 C 638.01 139.00 638.00 133.00 637.99 127.00 C 637.17 127.00 635.52 127.00 634.70 127.00 M 649.22 127.29 C 644.23 128.03 641.42 133.27 642.54 137.99 C 643.23 144.14 651.01 146.52 656.06 144.15 C 661.68 142.17 662.83 134.10 659.08 129.91 C 656.60 127.31 652.64 126.43 649.22 127.29 M 665.71 126.50 C 665.55 132.67 665.64 138.84 665.64 145.01 C 666.48 145.00 668.16 145.00 669.00 145.00 C 669.00 141.28 668.78 137.55 669.22 133.85 C 669.32 129.42 676.98 128.32 678.34 132.45 C 678.97 136.60 678.54 140.82 678.62 145.00 C 679.46 145.00 681.14 145.00 681.98 145.00 C 681.73 139.98 682.81 134.70 681.20 129.85 C 678.56 125.79 672.84 126.74 669.16 128.75 C 668.24 127.68 666.99 127.01 665.71 126.50 M 691.49 127.41 C 688.47 127.82 686.86 130.47 685.63 132.94 C 686.39 132.93 687.92 132.92 688.69 132.91 C 691.44 128.88 698.90 128.49 700.25 133.89 C 696.29 134.82 692.12 134.79 688.29 136.21 C 685.24 137.32 684.52 141.94 687.40 143.67 C 691.08 146.18 695.69 144.71 699.50 143.29 C 699.95 143.86 700.42 144.44 700.89 145.01 C 701.55 145.01 702.87 145.02 703.53 145.02 C 702.65 140.25 703.16 135.37 702.40 130.61 C 700.69 126.57 695.14 126.53 691.49 127.41 M 760.79 127.62 C 758.06 128.15 756.84 130.76 755.63 132.95 C 756.40 132.93 757.94 132.91 758.71 132.90 C 761.46 128.88 768.90 128.51 770.26 133.89 C 766.29 134.83 762.10 134.79 758.27 136.22 C 755.25 137.34 754.52 141.89 757.35 143.64 C 761.03 146.19 765.68 144.72 769.49 143.29 C 769.95 143.86 770.42 144.44 770.89 145.01 C 771.55 145.01 772.87 145.02 773.53 145.02 C 772.65 140.25 773.16 135.36 772.40 130.60 C 770.51 126.37 764.60 126.46 760.79 127.62 M 777.57 126.55 C 777.44 132.70 777.51 138.85 777.52 145.00 C 778.39 145.00 780.13 145.00 781.00 145.00 C 781.08 140.80 780.60 136.53 781.47 132.39 C 782.23 129.68 785.61 130.34 787.68 129.38 C 789.13 127.97 787.17 127.08 785.88 126.96 C 784.02 126.76 782.56 128.10 781.03 128.89 C 780.33 127.52 778.97 126.92 777.57 126.55 M 791.78 129.78 C 789.25 132.41 789.07 136.54 790.15 139.85 C 791.98 144.50 798.04 145.94 802.43 144.48 C 805.11 143.78 806.63 141.32 808.22 139.26 C 807.44 139.20 805.89 139.09 805.12 139.04 C 802.98 141.09 800.15 142.86 797.07 141.84 C 794.56 141.49 793.43 139.13 792.51 137.08 C 797.76 136.94 803.03 137.03 808.29 136.97 C 807.69 134.43 807.60 131.43 805.51 129.57 C 801.84 125.99 795.36 126.18 791.78 129.78 M 817.29 127.36 C 809.74 129.35 809.40 141.79 816.64 144.43 C 819.82 145.82 823.17 144.31 826.25 143.40 C 825.41 145.28 825.28 148.24 822.80 148.73 C 819.71 149.75 816.46 148.78 814.61 146.11 C 813.79 146.10 812.17 146.08 811.35 146.07 C 812.98 154.68 828.57 153.91 828.98 145.05 C 829.48 138.93 829.11 132.78 829.17 126.65 C 827.43 126.87 825.80 127.35 825.33 129.24 C 822.96 127.68 820.16 126.16 817.29 127.36 M 834.70 127.00 C 834.67 133.00 834.67 139.00 834.70 145.00 C 835.52 145.00 837.17 145.00 837.99 145.00 C 838.00 139.00 838.00 133.00 837.99 127.00 C 837.17 127.00 835.52 127.00 834.70 127.00 M 841.51 127.00 C 844.02 133.01 846.49 139.04 849.09 145.02 C 850.29 145.00 851.51 144.98 852.73 144.97 C 855.11 138.96 857.57 132.97 860.00 126.97 C 858.75 127.01 857.52 127.04 856.29 127.08 C 854.49 131.86 852.68 136.64 850.75 141.37 C 848.90 136.57 847.01 131.77 845.08 127.00 C 844.19 127.00 842.40 127.00 841.51 127.00 M 862.70 127.00 C 862.67 133.00 862.67 139.00 862.70 145.00 C 863.52 145.00 865.17 145.00 865.99 145.00 C 866.00 139.00 866.00 133.00 865.99 127.00 C 865.17 127.00 863.52 127.00 862.70 127.00 M 871.70 126.50 C 871.55 132.67 871.64 138.83 871.64 145.00 C 872.48 145.00 874.16 145.00 875.00 145.00 C 875.00 141.31 874.79 137.59 875.21 133.92 C 875.25 129.45 882.95 128.30 884.34 132.44 C 884.96 136.59 884.54 140.82 884.63 145.01 C 885.47 145.00 887.14 145.00 887.98 145.00 C 887.73 140.00 888.78 134.77 887.24 129.93 C 884.66 125.78 878.87 126.72 875.18 128.74 C 874.24 127.67 872.98 127.01 871.70 126.50 M 898.28 127.36 C 890.77 129.35 890.40 141.69 897.56 144.40 C 900.76 145.84 904.15 144.31 907.26 143.40 C 906.40 145.28 906.28 148.23 903.81 148.73 C 900.72 149.74 897.45 148.79 895.61 146.11 C 894.79 146.10 893.16 146.08 892.35 146.07 C 894.00 154.70 909.62 153.90 909.98 145.00 C 910.47 138.90 910.11 132.77 910.17 126.66 C 908.43 126.87 906.80 127.35 906.34 129.26 C 903.97 127.68 901.17 126.16 898.28 127.36 Z" />
<path fill="#266a2e" opacity="1.00" d=" M 84.42 6.66 C 102.49 4.40 121.29 7.90 137.19 16.82 C 155.37 26.77 169.69 43.48 176.89 62.90 C 183.17 80.09 183.79 99.33 178.93 116.95 C 170.90 146.13 146.49 169.98 117.18 177.44 C 100.06 181.66 81.59 181.01 65.00 174.92 C 45.55 167.75 28.82 153.43 18.85 135.25 C 10.49 120.36 6.84 102.90 8.32 85.91 C 9.86 64.10 20.39 43.22 36.55 28.58 C 49.76 16.62 66.68 8.65 84.42 6.66 M 99.50 15.18 C 99.14 21.52 98.68 27.84 98.30 34.18 C 99.12 34.24 100.74 34.37 101.55 34.44 C 101.70 28.06 102.43 21.72 102.66 15.34 C 101.60 15.29 100.55 15.23 99.50 15.18 M 80.93 18.89 C 78.05 23.02 78.92 29.19 82.06 32.94 C 85.36 36.47 90.47 35.21 94.37 33.52 C 94.33 32.91 94.23 31.69 94.18 31.08 C 91.77 31.60 89.37 32.61 86.86 32.33 C 82.46 30.59 81.48 24.32 83.56 20.53 C 85.25 17.64 88.93 18.27 91.71 18.53 C 91.91 17.84 92.30 16.46 92.50 15.77 C 88.48 15.24 83.61 15.33 80.93 18.89 M 106.14 34.78 C 106.89 35.02 108.38 35.50 109.12 35.74 C 109.90 33.24 110.72 30.74 111.63 28.28 C 112.32 28.61 113.70 29.27 114.40 29.60 C 115.06 32.47 115.72 35.34 116.51 38.18 C 117.62 38.42 118.73 38.65 119.84 38.88 C 118.99 35.86 118.16 32.82 117.20 29.83 C 120.67 28.94 123.60 25.74 122.36 21.97 C 120.19 18.33 115.51 17.96 111.90 16.57 C 109.99 22.64 107.98 28.69 106.14 34.78 M 52.49 28.20 C 55.68 33.70 58.87 39.20 61.97 44.74 C 65.24 42.88 68.51 41.01 71.72 39.02 C 71.24 38.59 70.29 37.72 69.81 37.28 C 67.62 38.28 65.59 39.60 63.53 40.82 C 62.46 39.16 61.41 37.48 60.35 35.82 C 62.49 34.52 64.66 33.26 66.84 32.02 C 66.42 31.49 65.58 30.42 65.17 29.89 C 63.14 31.09 61.12 32.28 59.09 33.46 C 58.24 31.94 57.39 30.44 56.53 28.93 C 58.69 27.72 60.85 26.53 63.02 25.34 C 62.70 24.50 62.38 23.65 62.05 22.81 C 58.84 24.57 55.70 26.44 52.49 28.20 M 125.73 43.21 C 127.73 45.29 131.25 48.43 133.98 45.79 C 131.72 43.90 128.05 43.08 127.30 39.87 C 126.75 35.98 129.65 32.21 133.02 30.59 C 136.52 29.35 138.96 32.54 140.89 34.88 C 141.67 34.30 142.43 33.72 143.21 33.15 C 140.38 29.60 135.87 25.88 131.07 28.00 C 125.82 30.45 121.22 38.14 125.73 43.21 M 38.32 40.93 C 42.96 45.24 47.50 49.65 52.02 54.10 C 52.77 53.38 53.53 52.67 54.29 51.96 C 52.38 50.15 50.48 48.32 48.59 46.49 C 50.29 44.76 51.99 43.02 53.67 41.26 C 53.15 40.82 52.12 39.93 51.61 39.49 C 49.98 41.19 48.37 42.91 46.77 44.65 C 45.32 43.28 43.89 41.91 42.45 40.53 C 44.25 38.70 46.06 36.86 47.88 35.04 C 47.39 34.56 46.41 33.61 45.92 33.13 C 43.38 35.72 40.86 38.34 38.32 40.93 M 134.34 50.48 C 136.63 53.40 138.92 56.31 141.14 59.28 C 141.71 58.91 142.85 58.16 143.43 57.78 C 141.75 55.59 140.07 53.40 138.39 51.22 C 142.74 48.01 146.94 44.61 151.24 41.35 C 150.59 40.50 149.94 39.65 149.29 38.80 C 144.35 42.74 139.34 46.60 134.34 50.48 M 87.12 45.08 C 75.25 46.91 64.25 53.49 56.85 62.92 C 48.18 73.72 44.60 88.42 47.24 102.01 C 49.40 114.64 57.01 126.17 67.60 133.33 C 78.88 141.17 93.61 143.74 106.91 140.35 C 118.71 137.56 129.21 129.98 135.85 119.86 C 143.17 108.86 145.58 94.78 142.51 81.94 C 139.96 70.54 132.98 60.21 123.46 53.48 C 113.12 45.98 99.69 42.89 87.12 45.08 M 33.10 48.14 C 32.58 49.04 32.07 49.94 31.55 50.83 C 37.03 54.11 42.37 57.61 47.91 60.79 C 48.40 59.89 48.89 58.99 49.38 58.09 C 43.88 54.89 38.61 51.32 33.10 48.14 M 142.49 62.01 C 144.02 65.27 145.43 68.57 146.90 71.85 C 147.49 71.62 148.67 71.16 149.26 70.93 C 148.32 68.51 147.32 66.10 146.26 63.73 C 148.08 62.95 149.89 62.17 151.72 61.42 C 152.65 63.59 153.59 65.74 154.54 67.90 C 155.36 67.56 156.19 67.23 157.03 66.89 C 156.05 64.71 155.06 62.53 154.08 60.36 C 155.66 59.63 157.25 58.92 158.86 58.24 C 159.82 60.51 160.78 62.78 161.74 65.05 C 162.63 64.79 163.53 64.52 164.43 64.26 C 162.89 60.97 161.38 57.67 160.00 54.31 C 154.15 56.84 148.30 59.38 142.49 62.01 M 40.59 69.79 C 35.31 68.43 30.41 65.89 25.19 64.30 C 24.93 65.01 24.40 66.44 24.13 67.15 C 30.10 69.36 36.00 71.73 41.98 73.91 C 43.18 70.43 44.81 67.09 45.83 63.54 C 45.30 63.24 44.24 62.64 43.71 62.34 C 42.40 64.70 41.70 67.34 40.59 69.79 M 21.10 90.90 C 18.93 95.78 24.61 101.43 29.53 99.44 C 32.48 98.61 33.54 95.56 34.47 92.99 C 33.49 90.95 32.84 88.39 30.63 87.31 C 27.27 85.06 22.27 87.14 21.10 90.90 M 162.47 86.57 C 157.34 87.69 155.45 95.05 159.80 98.22 C 163.43 101.72 170.16 98.97 170.59 94.04 C 171.47 89.62 166.75 85.38 162.47 86.57 M 152.13 121.08 C 151.89 123.46 154.86 125.30 156.96 124.37 C 159.14 123.20 161.06 121.41 163.62 121.10 C 164.06 123.34 163.06 125.26 161.73 126.97 C 160.19 127.84 162.55 129.56 163.14 128.29 C 165.32 126.17 167.29 121.87 164.19 119.66 C 160.93 117.89 158.22 121.28 155.72 122.85 C 152.80 121.08 155.12 118.48 156.62 116.64 C 156.24 116.28 155.47 115.58 155.09 115.23 C 153.94 117.05 152.05 118.74 152.13 121.08 M 32.27 118.17 C 28.52 120.15 32.83 125.80 28.96 127.38 C 26.72 126.28 26.31 123.61 25.41 121.55 C 24.98 121.94 24.11 122.71 23.68 123.10 C 24.93 125.76 26.41 129.84 30.09 129.32 C 34.76 127.78 31.33 122.06 33.91 118.97 C 36.09 120.49 36.62 123.55 39.18 124.57 C 39.14 121.18 36.28 115.65 32.27 118.17 M 145.62 130.77 C 149.47 133.27 153.15 136.07 157.21 138.23 C 158.70 135.94 160.25 133.68 161.65 131.33 C 158.82 130.56 158.05 133.72 156.67 135.45 C 155.52 134.67 154.36 133.88 153.21 133.10 C 154.25 131.44 155.31 129.78 156.22 128.04 C 153.74 127.91 152.73 130.38 151.30 131.93 C 150.60 131.44 149.19 130.46 148.49 129.97 C 149.39 128.05 152.46 126.06 150.28 123.93 C 148.68 126.18 147.16 128.48 145.62 130.77 M 30.05 133.93 C 32.06 135.88 33.05 140.50 36.55 139.51 C 35.40 137.88 34.19 136.29 32.95 134.74 C 34.04 133.86 35.14 132.97 36.23 132.09 C 37.68 133.62 38.67 136.22 41.23 135.89 C 40.33 134.40 39.28 132.99 38.44 131.46 C 38.04 130.03 40.12 129.56 40.80 128.60 C 41.89 130.11 42.96 131.63 44.03 133.16 C 44.48 132.89 45.36 132.35 45.80 132.08 C 44.20 130.00 42.63 127.91 41.07 125.81 C 37.41 128.54 33.73 131.23 30.05 133.93 M 144.26 133.13 C 141.85 134.59 139.55 137.12 139.74 140.11 C 140.72 143.72 143.97 147.35 148.02 146.88 C 151.35 146.92 153.15 143.57 154.21 140.87 C 151.92 141.37 150.72 143.51 148.87 144.72 C 145.14 145.40 140.93 141.12 142.45 137.38 C 143.56 136.13 144.94 135.16 146.20 134.08 C 145.55 133.76 144.91 133.44 144.26 133.13 M 37.61 145.22 C 41.73 144.19 43.74 139.97 46.70 137.32 C 45.74 141.50 44.83 145.69 43.97 149.89 C 44.47 150.39 45.47 151.39 45.97 151.89 C 48.88 148.55 52.27 145.63 54.97 142.12 C 54.80 141.62 54.48 140.61 54.32 140.11 C 51.66 142.78 49.14 145.58 46.54 148.31 C 47.26 144.25 48.62 140.27 48.82 136.13 C 48.36 135.32 47.87 134.54 47.35 133.78 C 44.13 137.60 39.75 140.59 37.61 145.22 M 133.64 142.91 C 136.45 146.51 139.27 150.09 142.02 153.73 C 142.48 153.36 143.39 152.62 143.84 152.25 C 140.96 148.69 138.23 145.02 135.36 141.45 C 134.93 141.82 134.07 142.54 133.64 142.91 M 50.49 154.96 C 51.04 155.40 51.60 155.83 52.18 156.25 C 54.78 152.48 57.36 148.69 59.96 144.92 C 59.50 144.58 58.56 143.90 58.09 143.56 C 55.66 147.43 52.69 150.95 50.49 154.96 M 132.70 156.55 C 129.89 153.93 127.37 150.95 124.24 148.69 C 123.71 148.86 122.63 149.20 122.09 149.37 C 125.66 152.82 129.37 156.13 133.02 159.50 C 133.54 159.15 134.58 158.47 135.09 158.13 C 134.14 153.22 133.74 148.18 132.23 143.39 C 129.45 147.30 132.55 152.20 132.70 156.55 M 62.50 148.67 C 59.03 150.67 57.15 155.37 58.72 159.14 C 60.57 161.86 64.60 163.66 67.61 161.77 C 70.43 159.90 72.00 156.25 71.42 152.92 C 70.41 149.30 65.93 147.38 62.50 148.67 M 112.89 152.33 C 114.10 156.92 115.48 161.46 116.93 165.98 C 120.22 164.60 117.63 161.53 117.29 159.15 C 121.23 158.51 122.72 164.26 126.76 162.77 C 125.09 161.13 123.30 159.62 121.49 158.13 C 122.44 156.30 123.51 153.90 121.99 152.06 C 119.51 149.30 115.79 151.71 112.89 152.33 M 75.69 152.11 C 74.74 156.64 73.83 161.18 73.00 165.74 C 73.54 165.75 74.62 165.77 75.16 165.78 C 75.59 163.98 76.02 162.17 76.67 160.43 C 80.27 161.68 78.73 167.86 83.16 167.77 C 82.34 165.63 81.45 163.50 80.58 161.38 C 82.72 160.16 84.75 158.04 83.62 155.38 C 81.84 152.85 78.40 152.88 75.69 152.11 M 102.58 153.86 C 103.35 158.43 103.82 163.03 104.53 167.61 C 107.26 166.71 111.49 167.79 112.79 164.61 C 110.67 164.73 108.56 165.00 106.45 165.29 C 106.34 163.91 106.22 162.52 106.10 161.15 C 108.02 160.56 110.82 161.03 111.43 158.53 C 109.49 158.67 107.56 158.90 105.64 159.18 C 105.48 158.00 105.32 156.83 105.17 155.66 C 107.27 155.26 109.36 154.80 111.42 154.20 C 108.90 152.04 105.50 153.80 102.58 153.86 M 92.99 155.00 C 91.09 156.37 91.27 159.51 93.25 160.72 C 95.05 161.90 97.01 162.83 98.84 163.97 C 97.39 167.24 93.96 166.08 91.21 165.68 C 92.65 170.69 102.08 168.12 100.41 162.96 C 98.74 160.42 95.41 159.74 93.08 157.92 C 94.18 156.93 95.34 155.86 96.95 156.25 C 98.35 156.13 101.12 156.91 99.64 154.62 C 97.49 154.03 94.95 153.68 92.99 155.00 Z" />
<path fill="#266a2e" opacity="1.00" d=" M 616.24 46.27 C 620.64 45.08 625.45 47.51 627.69 51.35 C 631.07 56.92 631.61 63.63 631.49 69.99 C 631.41 75.59 630.47 81.47 627.24 86.17 C 624.51 90.25 618.64 92.42 614.13 90.05 C 609.24 87.64 606.99 82.12 605.95 77.07 C 604.71 69.68 604.75 61.81 607.60 54.78 C 609.18 50.96 612.04 47.27 616.24 46.27 Z" />
<path fill="#266a2e" opacity="1.00" d=" M 363.50 46.99 C 367.26 47.23 371.98 45.99 374.80 49.22 C 378.07 53.57 377.73 60.21 374.54 64.49 C 371.85 67.85 367.24 66.92 363.50 67.01 C 363.50 60.34 363.50 53.66 363.50 46.99 Z" />
<path fill="#266a2e" opacity="1.00" d=" M 647.50 46.99 C 651.25 47.23 655.98 45.99 658.80 49.22 C 662.07 53.58 661.72 60.22 658.53 64.50 C 655.84 67.86 651.24 66.91 647.50 67.02 C 647.50 60.34 647.50 53.66 647.50 46.99 Z" />
<path fill="#266a2e" opacity="1.00" d=" M 751.50 46.99 C 755.25 47.23 759.97 45.99 762.80 49.21 C 766.08 53.57 765.72 60.23 762.52 64.51 C 759.83 67.85 755.23 66.92 751.50 67.01 C 751.50 60.34 751.50 53.66 751.50 46.99 Z" />
<path fill="#266a2e" opacity="1.00" d=" M 472.58 123.55 C 474.33 122.67 477.82 122.46 478.07 125.04 C 478.86 127.48 475.58 128.20 474.20 129.47 C 473.11 127.72 470.40 125.59 472.58 123.55 Z" />
<path fill="#266a2e" opacity="1.00" d=" M 506.50 123.01 C 510.27 123.05 514.11 122.64 517.84 123.37 C 521.36 124.37 521.58 129.82 518.29 131.31 C 514.52 132.58 510.41 131.86 506.50 131.99 C 506.49 129.00 506.49 126.01 506.50 123.01 Z" />
<path fill="#266a2e" opacity="1.00" d=" M 238.27 130.35 C 242.54 128.44 247.82 132.12 246.75 136.88 C 246.66 142.21 239.06 143.77 235.95 140.08 C 233.83 137.09 234.29 131.54 238.27 130.35 Z" />
<path fill="#266a2e" opacity="1.00" d=" M 289.44 133.79 C 290.95 131.59 293.11 129.59 296.01 129.94 C 298.81 129.59 300.75 131.76 302.17 133.84 C 297.93 134.08 293.68 134.07 289.44 133.79 Z" />
<path fill="#266a2e" opacity="1.00" d=" M 438.16 130.28 C 442.37 128.50 446.94 132.68 445.81 137.04 C 445.90 142.25 438.01 143.90 435.56 139.60 C 434.14 136.50 434.43 131.57 438.16 130.28 Z" />
<path fill="#266a2e" opacity="1.00" d=" M 547.24 130.36 C 551.53 128.42 556.83 132.12 555.75 136.90 C 555.64 142.22 548.03 143.77 544.94 140.07 C 542.83 137.08 543.29 131.56 547.24 130.36 Z" />
<path fill="#266a2e" opacity="1.00" d=" M 575.44 133.78 C 576.95 131.57 579.14 129.57 582.05 129.94 C 584.81 129.62 586.70 131.80 588.31 133.69 C 584.03 134.10 579.72 134.12 575.44 133.78 Z" />
<path fill="#266a2e" opacity="1.00" d=" M 649.26 130.36 C 653.13 128.66 658.28 131.49 657.79 135.99 C 658.23 140.12 653.83 143.13 650.02 141.85 C 644.61 141.07 644.13 131.90 649.26 130.36 Z" />
<path fill="#266a2e" opacity="1.00" d=" M 792.44 133.79 C 793.95 131.57 796.15 129.57 799.07 129.94 C 801.85 129.62 803.75 131.77 805.18 133.83 C 800.93 134.08 796.68 134.08 792.44 133.79 Z" />
<path fill="#266a2e" opacity="1.00" d=" M 818.13 130.30 C 822.33 128.48 826.94 132.65 825.81 137.02 C 825.91 142.24 818.04 143.91 815.57 139.62 C 814.14 136.53 814.41 131.62 818.13 130.30 Z" />
<path fill="#266a2e" opacity="1.00" d=" M 899.16 130.28 C 903.37 128.50 907.94 132.68 906.81 137.03 C 906.90 142.23 899.08 143.90 896.58 139.65 C 895.12 136.55 895.41 131.58 899.16 130.28 Z" />
<path fill="#266a2e" opacity="1.00" d=" M 468.69 135.73 C 469.88 134.38 471.43 133.42 472.87 132.36 C 475.18 134.85 477.45 137.39 479.59 140.03 C 477.21 141.07 474.70 142.52 472.01 141.91 C 469.35 141.52 467.18 138.19 468.69 135.73 Z" />
<path fill="#266a2e" opacity="1.00" d=" M 689.00 138.94 C 692.58 137.54 696.48 137.40 700.27 137.15 C 698.99 141.92 692.98 143.40 689.05 140.94 C 689.04 140.44 689.02 139.44 689.00 138.94 Z" />
<path fill="#266a2e" opacity="1.00" d=" M 758.39 141.09 C 760.07 136.32 766.37 137.97 770.29 137.17 C 768.82 142.46 762.73 142.76 758.39 141.09 Z" />
<path fill="#266a2e" opacity="1.00" d=" M 64.37 150.35 C 66.98 149.72 70.00 152.29 69.19 155.02 C 68.61 157.73 66.36 161.55 63.07 160.18 C 58.33 158.62 60.70 151.65 64.37 150.35 Z" />
</g>
<g id="#fbfffeff">
<path fill="#fbfffe" opacity="1.00" d=" M 83.62 2.85 C 95.09 0.90 106.70 2.62 117.98 4.80 C 140.39 10.36 160.31 24.89 172.68 44.35 C 182.64 59.92 187.70 78.57 186.92 97.05 C 186.13 119.82 176.42 142.20 160.14 158.18 C 147.02 171.52 129.57 180.49 111.15 183.64 C 103.46 184.43 95.71 183.79 87.99 184.01 C 78.83 184.44 69.92 181.64 61.45 178.43 C 31.81 166.78 9.24 138.58 5.09 106.92 C 4.97 97.75 4.86 88.56 5.15 79.40 C 8.09 59.44 18.08 40.61 32.86 26.88 C 46.62 13.72 64.72 5.18 83.62 2.85 M 84.42 6.66 C 66.68 8.65 49.76 16.62 36.55 28.58 C 20.39 43.22 9.86 64.10 8.32 85.91 C 6.84 102.90 10.49 120.36 18.85 135.25 C 28.82 153.43 45.55 167.75 65.00 174.92 C 81.59 181.01 100.06 181.66 117.18 177.44 C 146.49 169.98 170.90 146.13 178.93 116.95 C 183.79 99.33 183.17 80.09 176.89 62.90 C 169.69 43.48 155.37 26.77 137.19 16.82 C 121.29 7.90 102.49 4.40 84.42 6.66 Z" />
</g>
<g id="#ffffffff">
<path fill="#ffffff" opacity="1.00" d=" M 99.50 15.18 C 100.55 15.23 101.60 15.29 102.66 15.34 C 102.43 21.72 101.70 28.06 101.55 34.44 C 100.74 34.37 99.12 34.24 98.30 34.18 C 98.68 27.84 99.14 21.52 99.50 15.18 Z" />
<path fill="#ffffff" opacity="1.00" d=" M 80.93 18.89 C 83.61 15.33 88.48 15.24 92.50 15.77 C 92.30 16.46 91.91 17.84 91.71 18.53 C 88.93 18.27 85.25 17.64 83.56 20.53 C 81.48 24.32 82.46 30.59 86.86 32.33 C 89.37 32.61 91.77 31.60 94.18 31.08 C 94.23 31.69 94.33 32.91 94.37 33.52 C 90.47 35.21 85.36 36.47 82.06 32.94 C 78.92 29.19 78.05 23.02 80.93 18.89 Z" />
<path fill="#ffffff" opacity="1.00" d=" M 106.14 34.78 C 107.98 28.69 109.99 22.64 111.90 16.57 C 115.51 17.96 120.19 18.33 122.36 21.97 C 123.60 25.74 120.67 28.94 117.20 29.83 C 118.16 32.82 118.99 35.86 119.84 38.88 C 118.73 38.65 117.62 38.42 116.51 38.18 C 115.72 35.34 115.06 32.47 114.40 29.60 C 113.70 29.27 112.32 28.61 111.63 28.28 C 110.72 30.74 109.90 33.24 109.12 35.74 C 108.38 35.50 106.89 35.02 106.14 34.78 M 113.95 20.04 C 113.39 22.13 112.79 24.20 112.23 26.29 C 114.22 26.47 116.32 27.22 118.27 26.45 C 118.93 25.27 120.12 23.55 118.80 22.34 C 117.63 20.89 115.60 20.66 113.95 20.04 Z" />
<path fill="#ffffff" opacity="1.00" d=" M 52.49 28.20 C 55.70 26.44 58.84 24.57 62.05 22.81 C 62.38 23.65 62.70 24.50 63.02 25.34 C 60.85 26.53 58.69 27.72 56.53 28.93 C 57.39 30.44 58.24 31.94 59.09 33.46 C 61.12 32.28 63.14 31.09 65.17 29.89 C 65.58 30.42 66.42 31.49 66.84 32.02 C 64.66 33.26 62.49 34.52 60.35 35.82 C 61.41 37.48 62.46 39.16 63.53 40.82 C 65.59 39.60 67.62 38.28 69.81 37.28 C 70.29 37.72 71.24 38.59 71.72 39.02 C 68.51 41.01 65.24 42.88 61.97 44.74 C 58.87 39.20 55.68 33.70 52.49 28.20 Z" />
<path fill="#ffffff" opacity="1.00" d=" M 125.73 43.21 C 121.22 38.14 125.82 30.45 131.07 28.00 C 135.87 25.88 140.38 29.60 143.21 33.15 C 142.43 33.72 141.67 34.30 140.89 34.88 C 138.96 32.54 136.52 29.35 133.02 30.59 C 129.65 32.21 126.75 35.98 127.30 39.87 C 128.05 43.08 131.72 43.90 133.98 45.79 C 131.25 48.43 127.73 45.29 125.73 43.21 Z" />
<path fill="#ffffff" opacity="1.00" d=" M 38.32 40.93 C 40.86 38.34 43.38 35.72 45.92 33.13 C 46.41 33.61 47.39 34.56 47.88 35.04 C 46.06 36.86 44.25 38.70 42.45 40.53 C 43.89 41.91 45.32 43.28 46.77 44.65 C 48.37 42.91 49.98 41.19 51.61 39.49 C 52.12 39.93 53.15 40.82 53.67 41.26 C 51.99 43.02 50.29 44.76 48.59 46.49 C 50.48 48.32 52.38 50.15 54.29 51.96 C 53.53 52.67 52.77 53.38 52.02 54.10 C 47.50 49.65 42.96 45.24 38.32 40.93 Z" />
<path fill="#ffffff" opacity="1.00" d=" M 134.34 50.48 C 139.34 46.60 144.35 42.74 149.29 38.80 C 149.94 39.65 150.59 40.50 151.24 41.35 C 146.94 44.61 142.74 48.01 138.39 51.22 C 140.07 53.40 141.75 55.59 143.43 57.78 C 142.85 58.16 141.71 58.91 141.14 59.28 C 138.92 56.31 136.63 53.40 134.34 50.48 Z" />
<path fill="#ffffff" opacity="1.00" d=" M 318.22 43.26 C 323.40 39.01 331.02 39.11 336.82 42.02 C 336.80 44.32 336.80 46.61 336.82 48.91 C 332.95 46.71 328.23 44.89 323.83 46.70 C 317.81 48.99 314.85 55.52 313.81 61.48 C 312.72 69.14 312.75 77.49 316.58 84.43 C 318.60 88.23 322.56 91.11 326.97 91.04 C 330.69 91.10 333.99 89.14 336.92 87.04 C 336.81 89.19 336.91 91.36 336.58 93.50 C 332.57 96.87 326.83 97.84 321.85 96.44 C 316.28 94.76 312.66 89.58 310.75 84.35 C 308.03 76.62 307.84 68.17 309.21 60.15 C 310.36 53.80 313.18 47.46 318.22 43.26 Z" />
<path fill="#ffffff" opacity="1.00" d=" M 398.24 43.25 C 403.42 39.01 411.02 39.11 416.82 42.02 C 416.80 44.31 416.80 46.61 416.82 48.91 C 412.95 46.72 408.23 44.89 403.83 46.70 C 397.58 49.09 394.63 55.98 393.70 62.18 C 392.72 70.04 392.82 78.76 397.33 85.61 C 399.81 89.61 404.84 91.89 409.46 90.77 C 412.25 90.25 414.62 88.62 416.92 87.04 C 416.81 89.19 416.91 91.36 416.58 93.50 C 412.35 97.04 406.19 97.98 401.03 96.17 C 395.87 94.21 392.56 89.28 390.73 84.30 C 388.03 76.57 387.84 68.13 389.21 60.12 C 390.38 53.78 393.20 47.44 398.24 43.25 Z" />
<path fill="#ffffff" opacity="1.00" d=" M 496.09 42.07 C 500.69 39.06 506.61 39.63 511.56 41.38 C 511.55 43.86 511.57 46.34 511.64 48.82 C 507.60 46.23 501.92 44.54 497.70 47.68 C 493.50 51.22 494.19 58.35 498.21 61.76 C 503.14 66.10 509.68 69.32 512.08 75.87 C 514.02 81.79 513.62 89.32 508.94 93.89 C 503.69 98.48 495.53 97.68 490.10 93.82 C 490.10 91.24 490.09 88.66 490.03 86.08 C 493.56 89.37 498.59 92.21 503.52 90.53 C 508.94 88.85 509.64 81.36 506.89 77.14 C 502.81 71.24 494.88 69.00 491.78 62.27 C 488.69 55.68 489.76 46.39 496.09 42.07 Z" />
<path fill="#ffffff" opacity="1.00" d=" M 614.46 40.54 C 619.43 39.05 625.27 40.29 628.83 44.19 C 635.07 50.75 636.33 60.31 636.33 68.98 C 636.00 77.51 634.61 87.00 628.13 93.19 C 622.43 98.81 612.02 98.25 607.11 91.86 C 599.99 82.99 599.57 70.70 601.12 59.91 C 602.36 52.04 606.17 43.04 614.46 40.54 M 616.24 46.27 C 612.04 47.27 609.18 50.96 607.60 54.78 C 604.75 61.81 604.71 69.68 605.95 77.07 C 606.99 82.12 609.24 87.64 614.13 90.05 C 618.64 92.42 624.51 90.25 627.24 86.17 C 630.47 81.47 631.41 75.59 631.49 69.99 C 631.61 63.63 631.07 56.92 627.69 51.35 C 625.45 47.51 620.64 45.08 616.24 46.27 Z" />
<path fill="#ffffff" opacity="1.00" d=" M 695.07 42.08 C 699.66 39.06 705.60 39.63 710.56 41.38 C 710.55 43.86 710.57 46.34 710.65 48.82 C 706.60 46.23 700.91 44.54 696.69 47.69 C 692.51 51.22 693.20 58.33 697.20 61.75 C 702.11 66.08 708.62 69.29 711.05 75.79 C 713.03 81.73 712.64 89.32 707.92 93.91 C 702.67 98.48 694.53 97.67 689.10 93.82 C 689.10 91.24 689.09 88.66 689.03 86.08 C 692.54 89.35 697.54 92.18 702.45 90.55 C 707.91 88.92 708.65 81.42 705.91 77.17 C 701.85 71.26 693.91 69.02 690.79 62.30 C 687.69 55.72 688.75 46.42 695.07 42.08 Z" />
<path fill="#ffffff" opacity="1.00" d=" M 834.28 43.22 C 839.45 39.01 847.04 39.12 852.82 42.02 C 852.79 44.32 852.79 46.61 852.82 48.91 C 849.14 46.88 844.80 45.04 840.57 46.45 C 834.31 48.33 831.06 54.90 829.92 60.88 C 828.79 67.79 828.76 75.13 831.28 81.75 C 832.83 85.72 835.78 89.57 840.11 90.65 C 844.70 92.01 849.31 89.75 852.92 87.04 C 852.80 89.20 852.91 91.38 852.57 93.51 C 848.35 97.03 842.22 97.97 837.08 96.18 C 831.88 94.24 828.55 89.27 826.71 84.26 C 824.04 76.57 823.84 68.17 825.20 60.20 C 826.36 53.81 829.19 47.43 834.28 43.22 Z" />
<path fill="#ffffff" opacity="1.00" d=" M 892.09 42.07 C 896.68 39.06 902.60 39.63 907.56 41.38 C 907.55 43.86 907.57 46.34 907.64 48.82 C 903.61 46.25 897.97 44.54 893.74 47.66 C 889.51 51.16 890.18 58.30 894.18 61.73 C 899.08 66.07 905.61 69.27 908.05 75.78 C 910.04 81.74 909.64 89.37 904.88 93.95 C 899.61 98.48 891.51 97.66 886.10 93.82 C 886.10 91.24 886.09 88.66 886.03 86.08 C 889.55 89.36 894.55 92.19 899.47 90.55 C 904.91 88.91 905.64 81.42 902.92 77.18 C 898.86 71.27 890.95 69.04 887.81 62.34 C 884.68 55.75 885.74 46.41 892.09 42.07 Z" />
<path fill="#ffffff" opacity="1.00" d=" M 203.00 41.00 C 204.50 41.00 206.00 41.00 207.51 41.01 C 207.49 57.34 207.51 73.67 207.50 90.00 C 212.56 90.00 217.63 90.00 222.69 90.00 C 222.68 92.00 222.68 94.00 222.69 96.00 C 216.12 96.00 209.56 96.00 203.00 96.00 C 203.00 77.67 203.00 59.33 203.00 41.00 Z" />
<path fill="#ffffff" opacity="1.00" d=" M 228.00 41.00 C 229.50 41.00 231.00 41.00 232.51 41.01 C 232.50 59.34 232.50 77.66 232.51 95.99 C 231.00 95.99 229.50 96.00 228.00 96.00 C 228.00 77.67 228.00 59.33 228.00 41.00 Z" />
<path fill="#ffffff" opacity="1.00" d=" M 243.00 41.00 C 249.40 41.00 255.80 41.00 262.20 41.00 C 262.20 43.00 262.20 45.00 262.20 47.00 C 257.30 47.00 252.40 47.00 247.50 47.00 C 247.50 53.33 247.50 59.67 247.50 66.00 C 252.00 66.00 256.50 66.00 261.00 66.00 C 261.00 68.00 261.00 70.00 261.00 72.00 C 256.50 72.00 252.00 72.00 247.50 72.00 C 247.50 80.00 247.50 87.99 247.51 95.99 C 246.00 95.99 244.50 96.00 243.00 96.00 C 243.00 77.67 243.00 59.33 243.00 41.00 Z" />
<path fill="#ffffff" opacity="1.00" d=" M 269.00 41.00 C 275.40 41.00 281.80 41.00 288.20 41.00 C 288.20 43.00 288.20 45.00 288.20 47.00 C 283.30 47.00 278.40 47.00 273.50 47.00 C 273.50 53.00 273.50 59.00 273.50 65.00 C 278.00 65.00 282.50 65.00 287.00 65.00 C 287.00 67.00 287.00 69.00 287.00 71.00 C 282.50 71.00 278.00 71.00 273.50 71.00 C 273.50 77.33 273.50 83.67 273.50 90.00 C 278.67 90.00 283.83 90.00 289.00 90.00 C 289.00 92.00 289.00 94.00 289.00 96.00 C 282.33 96.00 275.67 96.00 269.00 96.00 C 269.00 77.67 269.00 59.33 269.00 41.00 Z" />
<path fill="#ffffff" opacity="1.00" d=" M 345.00 40.99 C 346.50 41.00 348.00 41.00 349.51 41.01 C 349.50 59.34 349.50 77.67 349.51 95.99 C 348.00 96.00 346.50 96.00 345.00 96.00 C 345.00 77.67 345.00 59.33 345.00 40.99 Z" />
<path fill="#ffffff" opacity="1.00" d=" M 358.80 41.00 C 363.67 41.19 368.61 40.55 373.43 41.37 C 379.35 42.81 381.81 49.44 381.80 54.96 C 382.23 61.20 379.70 68.03 373.79 70.90 C 375.61 72.91 377.10 75.20 378.18 77.70 C 380.84 83.79 383.45 89.91 386.14 96.00 C 384.31 96.00 382.48 96.00 380.66 96.00 C 378.62 90.92 376.46 85.89 374.38 80.82 C 373.35 78.55 372.39 76.14 370.55 74.39 C 368.71 72.52 365.85 73.15 363.51 72.89 C 363.50 80.58 363.49 88.28 363.52 95.97 C 361.94 95.98 360.36 96.00 358.80 96.02 C 358.80 77.68 358.80 59.34 358.80 41.00 M 363.50 46.99 C 363.50 53.66 363.50 60.34 363.50 67.01 C 367.24 66.92 371.85 67.85 374.54 64.49 C 377.73 60.21 378.07 53.57 374.80 49.22 C 371.98 45.99 367.26 47.23 363.50 46.99 Z" />
<path fill="#ffffff" opacity="1.00" d=" M 424.00 41.00 C 425.49 41.00 427.00 41.00 428.51 41.01 C 428.50 57.34 428.50 73.67 428.50 90.00 C 433.56 90.00 438.62 90.00 443.69 90.00 C 443.68 92.00 443.68 94.00 443.69 96.00 C 437.12 96.00 430.56 96.00 424.00 96.00 C 424.00 77.67 424.00 59.33 424.00 41.00 Z" />
<path fill="#ffffff" opacity="1.00" d=" M 450.00 41.00 C 456.40 41.00 462.80 41.00 469.20 41.00 C 469.20 43.00 469.20 45.00 469.20 47.00 C 464.30 47.00 459.40 47.00 454.50 47.00 C 454.50 53.00 454.50 59.00 454.50 65.00 C 459.00 65.00 463.50 65.00 468.00 65.00 C 467.99 67.00 467.99 69.00 468.00 71.00 C 463.50 71.00 459.00 71.00 454.50 71.00 C 454.50 77.33 454.50 83.67 454.50 90.00 C 459.67 90.00 464.83 90.00 470.00 90.00 C 469.99 92.00 469.99 94.00 470.00 96.00 C 463.33 96.00 456.67 96.00 450.00 96.00 C 450.00 77.67 450.00 59.33 450.00 41.00 Z" />
<path fill="#ffffff" opacity="1.00" d=" M 520.00 41.00 C 526.40 41.00 532.80 41.00 539.20 41.00 C 539.20 43.00 539.20 45.00 539.20 47.00 C 534.30 47.00 529.40 47.00 524.50 47.00 C 524.50 53.00 524.50 59.00 524.50 65.00 C 529.00 65.00 533.50 65.00 538.00 65.00 C 537.99 67.00 537.99 69.00 538.00 71.00 C 533.50 71.00 529.00 71.00 524.50 71.00 C 524.50 77.33 524.50 83.67 524.50 90.00 C 529.67 90.00 534.83 90.00 540.00 90.00 C 539.99 92.00 539.99 94.00 540.00 96.00 C 533.33 96.00 526.67 96.00 520.00 96.00 C 520.00 77.67 520.00 59.33 520.00 41.00 Z" />
<path fill="#ffffff" opacity="1.00" d=" M 548.00 41.00 C 549.92 41.00 551.85 41.00 553.78 41.00 C 560.41 56.42 567.50 71.66 573.84 87.20 C 574.19 71.80 573.91 56.40 574.00 41.00 C 575.49 41.00 577.00 41.00 578.51 41.01 C 578.50 59.34 578.50 77.67 578.51 95.99 C 576.63 96.00 574.75 96.00 572.88 96.00 C 567.69 84.18 562.42 72.40 557.21 60.60 C 555.47 56.58 553.43 52.66 552.29 48.41 C 552.77 64.26 552.37 80.14 552.50 96.00 C 550.99 96.00 549.49 96.00 548.00 96.00 C 548.00 77.67 548.00 59.33 548.00 41.00 Z" />
<path fill="#ffffff" opacity="1.00" d=" M 588.00 41.00 C 589.49 41.00 591.00 41.00 592.51 41.01 C 592.50 59.34 592.50 77.66 592.51 95.99 C 591.00 95.99 589.49 96.00 588.00 96.00 C 588.00 77.67 588.00 59.33 588.00 41.00 Z" />
<path fill="#ffffff" opacity="1.00" d=" M 642.80 41.00 C 647.67 41.19 652.63 40.54 657.46 41.37 C 663.36 42.83 665.81 49.45 665.80 54.95 C 666.24 61.21 663.69 68.02 657.79 70.90 C 659.61 72.93 661.12 75.23 662.20 77.75 C 664.86 83.83 667.46 89.94 670.15 96.01 C 668.29 96.00 666.45 95.99 664.62 95.97 C 662.52 90.65 660.26 85.39 658.07 80.11 C 656.85 77.54 655.64 74.47 652.82 73.30 C 651.07 72.91 649.27 72.99 647.51 72.89 C 647.50 80.59 647.50 88.29 647.51 96.00 C 645.93 96.00 644.35 96.00 642.80 96.00 C 642.80 77.67 642.80 59.34 642.80 41.00 M 647.50 46.99 C 647.50 53.66 647.50 60.34 647.50 67.02 C 651.24 66.91 655.84 67.86 658.53 64.50 C 661.72 60.22 662.07 53.58 658.80 49.22 C 655.98 45.99 651.25 47.23 647.50 46.99 Z" />
<path fill="#ffffff" opacity="1.00" d=" M 719.00 41.00 C 725.40 41.00 731.80 41.00 738.20 41.00 C 738.19 43.00 738.19 45.00 738.20 47.00 C 733.30 47.00 728.40 47.00 723.50 47.00 C 723.50 53.00 723.50 59.00 723.50 65.00 C 728.00 65.00 732.50 65.00 737.00 65.00 C 736.99 67.00 736.99 69.00 737.00 71.00 C 732.50 71.00 728.00 71.00 723.50 71.00 C 723.50 77.33 723.50 83.67 723.50 90.00 C 728.67 90.00 733.83 90.00 739.00 90.00 C 738.99 92.00 738.99 94.00 739.00 96.00 C 732.33 96.00 725.66 96.00 719.00 96.00 C 719.00 77.67 719.00 59.33 719.00 41.00 Z" />
<path fill="#ffffff" opacity="1.00" d=" M 746.80 41.00 C 751.47 41.12 756.19 40.70 760.85 41.23 C 767.10 42.35 769.85 49.25 769.80 54.97 C 770.24 61.21 767.68 68.02 761.80 70.90 C 763.61 72.92 765.10 75.21 766.18 77.71 C 768.85 83.80 771.44 89.91 774.14 95.98 C 772.31 96.00 770.49 96.01 768.68 96.02 C 766.60 90.92 764.45 85.86 762.36 80.77 C 761.34 78.52 760.38 76.14 758.57 74.40 C 756.72 72.51 753.85 73.15 751.51 72.89 C 751.50 80.59 751.49 88.29 751.51 95.99 C 749.93 95.99 748.35 96.00 746.80 96.01 C 746.80 77.67 746.80 59.34 746.80 41.00 M 751.50 46.99 C 751.50 53.66 751.50 60.34 751.50 67.01 C 755.23 66.92 759.83 67.85 762.52 64.51 C 765.72 60.23 766.08 53.57 762.80 49.21 C 759.97 45.99 755.25 47.23 751.50 46.99 Z" />
<path fill="#ffffff" opacity="1.00" d=" M 774.33 40.99 C 776.04 41.00 777.78 41.01 779.52 41.02 C 783.12 57.19 787.60 73.17 790.78 89.43 C 791.23 84.69 792.59 80.11 793.73 75.51 C 796.66 64.03 799.27 52.47 802.26 41.01 C 803.87 41.01 805.48 41.00 807.10 41.01 C 802.54 59.36 797.71 77.64 793.16 96.00 C 791.47 96.00 789.79 96.00 788.12 96.00 C 783.48 77.68 778.98 59.31 774.33 40.99 Z" />
<path fill="#ffffff" opacity="1.00" d=" M 813.00 41.00 C 814.49 41.00 816.00 41.00 817.51 41.01 C 817.50 59.34 817.50 77.66 817.51 95.99 C 816.00 96.00 814.49 96.00 813.00 96.00 C 813.00 77.67 813.00 59.33 813.00 41.00 Z" />
<path fill="#ffffff" opacity="1.00" d=" M 860.00 41.00 C 866.40 41.00 872.80 41.00 879.20 41.00 C 879.19 43.00 879.19 45.00 879.20 47.00 C 874.30 47.00 869.40 47.00 864.50 47.00 C 864.50 53.00 864.50 59.00 864.50 65.00 C 869.00 65.00 873.50 65.00 878.00 65.00 C 877.99 67.00 877.99 69.00 878.00 71.00 C 873.50 71.00 869.00 71.00 864.50 71.00 C 864.50 77.33 864.50 83.67 864.50 90.00 C 869.66 90.00 874.83 90.00 880.00 90.00 C 879.99 92.00 879.99 94.00 880.00 96.00 C 873.33 96.00 866.66 96.00 860.00 96.00 C 860.00 77.67 860.00 59.33 860.00 41.00 Z" />
<path fill="#ffffff" opacity="1.00" d=" M 87.12 45.08 C 99.69 42.89 113.12 45.98 123.46 53.48 C 132.98 60.21 139.96 70.54 142.51 81.94 C 145.58 94.78 143.17 108.86 135.85 119.86 C 129.21 129.98 118.71 137.56 106.91 140.35 C 93.61 143.74 78.88 141.17 67.60 133.33 C 57.01 126.17 49.40 114.64 47.24 102.01 C 44.60 88.42 48.18 73.72 56.85 62.92 C 64.25 53.49 75.25 46.91 87.12 45.08 M 65.02 62.90 C 66.77 68.59 69.98 73.62 72.94 78.73 C 72.28 80.09 71.18 81.33 71.03 82.89 C 71.14 94.25 71.74 106.02 67.94 116.90 C 67.13 119.65 64.93 121.56 62.46 122.81 C 65.15 125.59 68.04 128.68 72.11 129.17 C 76.80 129.33 80.47 125.93 83.59 122.85 C 80.94 120.29 78.21 117.64 76.72 114.20 C 74.09 109.01 74.13 103.04 74.75 97.40 C 85.18 99.12 95.31 94.32 103.87 88.82 C 106.68 93.79 111.46 97.08 115.93 100.42 C 116.21 108.60 113.73 117.27 107.36 122.77 C 109.56 124.76 111.81 127.14 114.94 127.46 C 120.26 128.10 125.20 125.04 128.81 121.42 C 127.76 121.72 126.72 122.03 125.68 122.35 C 124.17 121.63 122.37 121.08 121.57 119.48 C 119.19 115.07 119.65 109.83 120.22 105.03 C 120.79 98.41 121.23 91.71 120.41 85.09 C 120.18 83.07 118.73 81.52 117.67 79.89 C 120.66 74.47 123.77 69.06 125.84 63.20 C 120.01 58.29 113.73 53.54 106.21 51.62 C 91.73 47.25 75.86 52.99 65.02 62.90 Z" />
<path fill="#ffffff" opacity="1.00" d=" M 33.10 48.14 C 38.61 51.32 43.88 54.89 49.38 58.09 C 48.89 58.99 48.40 59.89 47.91 60.79 C 42.37 57.61 37.03 54.11 31.55 50.83 C 32.07 49.94 32.58 49.04 33.10 48.14 Z" />
<path fill="#ffffff" opacity="1.00" d=" M 69.36 64.03 C 77.24 58.00 86.92 53.74 96.98 53.90 C 105.85 54.41 114.48 58.25 120.96 64.31 C 119.17 70.17 115.86 75.54 112.35 80.55 C 101.45 77.75 89.88 77.71 78.95 80.37 C 75.26 75.23 71.87 69.85 69.36 64.03 M 92.54 58.08 C 92.55 59.89 92.57 61.71 92.60 63.52 C 90.83 63.52 89.07 63.52 87.30 63.52 C 87.29 65.48 87.30 67.45 87.31 69.41 C 89.06 69.39 90.82 69.37 92.58 69.34 C 92.56 71.12 92.55 72.90 92.54 74.68 C 94.49 74.69 96.44 74.69 98.40 74.68 C 98.37 72.90 98.35 71.13 98.32 69.35 C 100.09 69.37 101.85 69.39 103.62 69.41 C 103.62 67.45 103.62 65.48 103.62 63.52 C 101.84 63.51 100.07 63.52 98.30 63.52 C 98.34 61.70 98.37 59.89 98.38 58.07 C 96.43 58.06 94.49 58.06 92.54 58.08 Z" />
<path fill="#ffffff" opacity="1.00" d=" M 142.49 62.01 C 148.30 59.38 154.15 56.84 160.00 54.31 C 161.38 57.67 162.89 60.97 164.43 64.26 C 163.53 64.52 162.63 64.79 161.74 65.05 C 160.78 62.78 159.82 60.51 158.86 58.24 C 157.25 58.92 155.66 59.63 154.08 60.36 C 155.06 62.53 156.05 64.71 157.03 66.89 C 156.19 67.23 155.36 67.56 154.54 67.90 C 153.59 65.74 152.65 63.59 151.72 61.42 C 149.89 62.17 148.08 62.95 146.26 63.73 C 147.32 66.10 148.32 68.51 149.26 70.93 C 148.67 71.16 147.49 71.62 146.90 71.85 C 145.43 68.57 144.02 65.27 142.49 62.01 Z" />
<path fill="#ffffff" opacity="1.00" d=" M 40.59 69.79 C 41.70 67.34 42.40 64.70 43.71 62.34 C 44.24 62.64 45.30 63.24 45.83 63.54 C 44.81 67.09 43.18 70.43 41.98 73.91 C 36.00 71.73 30.10 69.36 24.13 67.15 C 24.40 66.44 24.93 65.01 25.19 64.30 C 30.41 65.89 35.31 68.43 40.59 69.79 Z" />
<path fill="#ffffff" opacity="1.00" d=" M 21.10 90.90 C 22.27 87.14 27.27 85.06 30.63 87.31 C 32.84 88.39 33.49 90.95 34.47 92.99 C 33.54 95.56 32.48 98.61 29.53 99.44 C 24.61 101.43 18.93 95.78 21.10 90.90 Z" />
<path fill="#ffffff" opacity="1.00" d=" M 162.47 86.57 C 166.75 85.38 171.47 89.62 170.59 94.04 C 170.16 98.97 163.43 101.72 159.80 98.22 C 155.45 95.05 157.34 87.69 162.47 86.57 Z" />
<path fill="#ffffff" opacity="1.00" d=" M 152.13 121.08 C 152.05 118.74 153.94 117.05 155.09 115.23 C 155.47 115.58 156.24 116.28 156.62 116.64 C 155.12 118.48 152.80 121.08 155.72 122.85 C 158.22 121.28 160.93 117.89 164.19 119.66 C 167.29 121.87 165.32 126.17 163.14 128.29 C 162.55 129.56 160.19 127.84 161.73 126.97 C 163.06 125.26 164.06 123.34 163.62 121.10 C 161.06 121.41 159.14 123.20 156.96 124.37 C 154.86 125.30 151.89 123.46 152.13 121.08 Z" />
<path fill="#ffffff" opacity="1.00" d=" M 32.27 118.17 C 36.28 115.65 39.14 121.18 39.18 124.57 C 36.62 123.55 36.09 120.49 33.91 118.97 C 31.33 122.06 34.76 127.78 30.09 129.32 C 26.41 129.84 24.93 125.76 23.68 123.10 C 24.11 122.71 24.98 121.94 25.41 121.55 C 26.31 123.61 26.72 126.28 28.96 127.38 C 32.83 125.80 28.52 120.15 32.27 118.17 Z" />
<path fill="#ffffff" opacity="1.00" d=" M 30.05 133.93 C 33.73 131.23 37.41 128.54 41.07 125.81 C 42.63 127.91 44.20 130.00 45.80 132.08 C 45.36 132.35 44.48 132.89 44.03 133.16 C 42.96 131.63 41.89 130.11 40.80 128.60 C 40.12 129.56 38.04 130.03 38.44 131.46 C 39.28 132.99 40.33 134.40 41.23 135.89 C 38.67 136.22 37.68 133.62 36.23 132.09 C 35.14 132.97 34.04 133.86 32.95 134.74 C 34.19 136.29 35.40 137.88 36.55 139.51 C 33.05 140.50 32.06 135.88 30.05 133.93 Z" />
<path fill="#ffffff" opacity="1.00" d=" M 144.26 133.13 C 144.91 133.44 145.55 133.76 146.20 134.08 C 144.94 135.16 143.56 136.13 142.45 137.38 C 140.93 141.12 145.14 145.40 148.87 144.72 C 150.72 143.51 151.92 141.37 154.21 140.87 C 153.15 143.57 151.35 146.92 148.02 146.88 C 143.97 147.35 140.72 143.72 139.74 140.11 C 139.55 137.12 141.85 134.59 144.26 133.13 Z" />
<path fill="#ffffff" opacity="1.00" d=" M 37.61 145.22 C 39.75 140.59 44.13 137.60 47.35 133.78 C 47.87 134.54 48.36 135.32 48.82 136.13 C 48.62 140.27 47.26 144.25 46.54 148.31 C 49.14 145.58 51.66 142.78 54.32 140.11 C 54.48 140.61 54.80 141.62 54.97 142.12 C 52.27 145.63 48.88 148.55 45.97 151.89 C 45.47 151.39 44.47 150.39 43.97 149.89 C 44.83 145.69 45.74 141.50 46.70 137.32 C 43.74 139.97 41.73 144.19 37.61 145.22 Z" />
<path fill="#ffffff" opacity="1.00" d=" M 133.64 142.91 C 134.07 142.54 134.93 141.82 135.36 141.45 C 138.23 145.02 140.96 148.69 143.84 152.25 C 143.39 152.62 142.48 153.36 142.02 153.73 C 139.27 150.09 136.45 146.51 133.64 142.91 Z" />
<path fill="#ffffff" opacity="1.00" d=" M 50.49 154.96 C 52.69 150.95 55.66 147.43 58.09 143.56 C 58.56 143.90 59.50 144.58 59.96 144.92 C 57.36 148.69 54.78 152.48 52.18 156.25 C 51.60 155.83 51.04 155.40 50.49 154.96 Z" />
<path fill="#ffffff" opacity="1.00" d=" M 132.70 156.55 C 132.55 152.20 129.45 147.30 132.23 143.39 C 133.74 148.18 134.14 153.22 135.09 158.13 C 134.58 158.47 133.54 159.15 133.02 159.50 C 129.37 156.13 125.66 152.82 122.09 149.37 C 122.63 149.20 123.71 148.86 124.24 148.69 C 127.37 150.95 129.89 153.93 132.70 156.55 Z" />
<path fill="#ffffff" opacity="1.00" d=" M 62.50 148.67 C 65.93 147.38 70.41 149.30 71.42 152.92 C 72.00 156.25 70.43 159.90 67.61 161.77 C 64.60 163.66 60.57 161.86 58.72 159.14 C 57.15 155.37 59.03 150.67 62.50 148.67 M 64.37 150.35 C 60.70 151.65 58.33 158.62 63.07 160.18 C 66.36 161.55 68.61 157.73 69.19 155.02 C 70.00 152.29 66.98 149.72 64.37 150.35 Z" />
<path fill="#ffffff" opacity="1.00" d=" M 112.89 152.33 C 115.79 151.71 119.51 149.30 121.99 152.06 C 123.51 153.90 122.44 156.30 121.49 158.13 C 123.30 159.62 125.09 161.13 126.76 162.77 C 122.72 164.26 121.23 158.51 117.29 159.15 C 117.63 161.53 120.22 164.60 116.93 165.98 C 115.48 161.46 114.10 156.92 112.89 152.33 M 115.41 153.49 C 115.89 154.96 116.39 156.42 116.88 157.89 C 118.19 157.30 119.49 156.70 120.80 156.10 C 120.44 154.91 120.31 153.47 119.05 152.83 C 117.83 153.01 116.62 153.27 115.41 153.49 Z" />
<path fill="#ffffff" opacity="1.00" d=" M 75.69 152.11 C 78.40 152.88 81.84 152.85 83.62 155.38 C 84.75 158.04 82.72 160.16 80.58 161.38 C 81.45 163.50 82.34 165.63 83.16 167.77 C 78.73 167.86 80.27 161.68 76.67 160.43 C 76.02 162.17 75.59 163.98 75.16 165.78 C 74.62 165.77 73.54 165.75 73.00 165.74 C 73.83 161.18 74.74 156.64 75.69 152.11 M 77.69 154.45 C 77.31 155.73 76.93 157.00 76.54 158.28 C 76.82 158.51 77.39 158.98 77.67 159.21 C 78.63 159.26 79.58 159.31 80.54 159.36 C 80.95 158.22 81.36 157.08 81.74 155.93 C 80.39 155.43 79.04 154.94 77.69 154.45 Z" />
<path fill="#ffffff" opacity="1.00" d=" M 102.58 153.86 C 105.50 153.80 108.90 152.04 111.42 154.20 C 109.36 154.80 107.27 155.26 105.17 155.66 C 105.32 156.83 105.48 158.00 105.64 159.18 C 107.56 158.90 109.49 158.67 111.43 158.53 C 110.82 161.03 108.02 160.56 106.10 161.15 C 106.22 162.52 106.34 163.91 106.45 165.29 C 108.56 165.00 110.67 164.73 112.79 164.61 C 111.49 167.79 107.26 166.71 104.53 167.61 C 103.82 163.03 103.35 158.43 102.58 153.86 Z" />
<path fill="#ffffff" opacity="1.00" d=" M 92.99 155.00 C 94.95 153.68 97.49 154.03 99.64 154.62 C 101.12 156.91 98.35 156.13 96.95 156.25 C 95.34 155.86 94.18 156.93 93.08 157.92 C 95.41 159.74 98.74 160.42 100.41 162.96 C 102.08 168.12 92.65 170.69 91.21 165.68 C 93.96 166.08 97.39 167.24 98.84 163.97 C 97.01 162.83 95.05 161.90 93.25 160.72 C 91.27 159.51 91.09 156.37 92.99 155.00 Z" />
</g>
<g id="#1f6528ff">
<path fill="#1f6528" opacity="1.00" d=" M 113.95 20.04 C 115.60 20.66 117.63 20.89 118.80 22.34 C 120.12 23.55 118.93 25.27 118.27 26.45 C 116.32 27.22 114.22 26.47 112.23 26.29 C 112.79 24.20 113.39 22.13 113.95 20.04 Z" />
</g>
<g id="#e00f1eff">
<path fill="#e00f1e" opacity="1.00" d=" M 65.02 62.90 C 75.86 52.99 91.73 47.25 106.21 51.62 C 113.73 53.54 120.01 58.29 125.84 63.20 C 123.77 69.06 120.66 74.47 117.67 79.89 C 116.69 81.56 115.68 83.22 114.67 84.87 C 102.42 82.32 89.57 81.28 77.42 84.94 C 75.81 82.96 74.27 80.91 72.94 78.73 C 69.98 73.62 66.77 68.59 65.02 62.90 M 69.36 64.03 C 71.87 69.85 75.26 75.23 78.95 80.37 C 89.88 77.71 101.45 77.75 112.35 80.55 C 115.86 75.54 119.17 70.17 120.96 64.31 C 114.48 58.25 105.85 54.41 96.98 53.90 C 86.92 53.74 77.24 58.00 69.36 64.03 Z" />
<path fill="#e00f1e" opacity="1.00" d=" M 92.54 58.08 C 94.49 58.06 96.43 58.06 98.38 58.07 C 98.37 59.89 98.34 61.70 98.30 63.52 C 100.07 63.52 101.84 63.51 103.62 63.52 C 103.62 65.48 103.62 67.45 103.62 69.41 C 101.85 69.39 100.09 69.37 98.32 69.35 C 98.35 71.13 98.37 72.90 98.40 74.68 C 96.44 74.69 94.49 74.69 92.54 74.68 C 92.55 72.90 92.56 71.12 92.58 69.34 C 90.82 69.37 89.06 69.39 87.31 69.41 C 87.30 67.45 87.29 65.48 87.30 63.52 C 89.07 63.52 90.83 63.52 92.60 63.52 C 92.57 61.71 92.55 59.89 92.54 58.08 Z" />
</g>
<g id="#231f20ff">
<path fill="#231f20" opacity="1.00" d=" M 71.03 82.89 C 71.18 81.33 72.28 80.09 72.94 78.73 C 74.27 80.91 75.81 82.96 77.42 84.94 C 89.57 81.28 102.42 82.32 114.67 84.87 C 115.68 83.22 116.69 81.56 117.67 79.89 C 118.73 81.52 120.18 83.07 120.41 85.09 C 121.23 91.71 120.79 98.41 120.22 105.03 C 119.65 109.83 119.19 115.07 121.57 119.48 C 122.37 121.08 124.17 121.63 125.68 122.35 C 126.72 122.03 127.76 121.72 128.81 121.42 C 125.20 125.04 120.26 128.10 114.94 127.46 C 111.81 127.14 109.56 124.76 107.36 122.77 C 113.73 117.27 116.21 108.60 115.93 100.42 C 111.46 97.08 106.68 93.79 103.87 88.82 C 95.31 94.32 85.18 99.12 74.75 97.40 C 74.13 103.04 74.09 109.01 76.72 114.20 C 78.21 117.64 80.94 120.29 83.59 122.85 C 80.47 125.93 76.80 129.33 72.11 129.17 C 68.04 128.68 65.15 125.59 62.46 122.81 C 64.93 121.56 67.13 119.65 67.94 116.90 C 71.74 106.02 71.14 94.25 71.03 82.89 Z" />
</g>
<g id="#010101ff">
<path fill="#010101" opacity="1.00" d=" M 205.35 120.02 C 206.45 120.01 207.55 120.02 208.65 120.02 C 208.64 123.34 208.64 126.67 208.65 129.99 C 213.61 130.01 218.56 130.01 223.52 129.96 C 223.50 126.64 223.50 123.31 223.52 119.99 C 224.34 120.00 225.99 120.00 226.81 120.01 C 226.82 128.34 226.81 136.66 226.81 144.99 C 225.99 144.99 224.34 145.00 223.52 145.01 C 223.53 140.99 223.51 136.96 223.42 132.95 C 218.50 133.00 213.57 133.01 208.65 133.01 C 208.64 137.00 208.64 140.99 208.65 144.99 C 207.55 144.98 206.45 144.98 205.35 144.98 C 205.36 136.66 205.36 128.34 205.35 120.02 Z" />
<path fill="#010101" opacity="1.00" d=" M 320.01 119.97 C 321.24 120.00 322.47 120.03 323.71 120.07 C 328.57 126.57 333.30 133.19 338.41 139.51 C 338.59 133.00 338.46 126.50 338.52 119.99 C 339.39 120.00 341.13 120.00 342.00 120.00 C 342.00 128.34 342.01 136.67 341.99 145.01 C 340.74 145.00 339.50 145.00 338.26 145.00 C 333.31 138.51 328.61 131.83 323.45 125.50 C 323.30 132.00 323.41 138.50 323.36 145.00 C 322.52 145.00 320.85 145.00 320.01 145.00 C 319.99 136.66 319.99 128.31 320.01 119.97 Z" />
<path fill="#010101" opacity="1.00" d=" M 402.69 120.00 C 403.52 120.00 405.17 120.00 406.00 120.01 C 406.00 120.75 406.00 122.25 406.00 122.99 C 405.18 123.00 403.52 123.00 402.69 123.00 C 402.69 122.25 402.69 120.75 402.69 120.00 Z" />
<path fill="#010101" opacity="1.00" d=" M 468.48 123.99 C 470.58 118.78 479.56 118.52 481.45 123.96 C 482.45 127.64 478.65 129.51 476.25 131.34 C 477.84 133.10 479.43 134.86 481.00 136.65 C 482.37 134.79 483.90 132.88 486.52 133.77 C 485.60 135.71 484.64 137.62 483.66 139.52 C 485.03 140.65 486.41 141.77 487.79 142.89 C 487.24 143.42 486.15 144.49 485.60 145.02 C 484.28 144.06 482.97 143.11 481.66 142.16 C 478.33 144.09 474.41 145.99 470.51 144.59 C 466.94 143.71 463.79 139.92 465.06 136.15 C 465.89 133.37 468.78 132.13 470.96 130.58 C 469.79 128.56 467.80 126.52 468.48 123.99 M 472.58 123.55 C 470.40 125.59 473.11 127.72 474.20 129.47 C 475.58 128.20 478.86 127.48 478.07 125.04 C 477.82 122.46 474.33 122.67 472.58 123.55 M 468.69 135.73 C 467.18 138.19 469.35 141.52 472.01 141.91 C 474.70 142.52 477.21 141.07 479.59 140.03 C 477.45 137.39 475.18 134.85 472.87 132.36 C 471.43 133.42 469.88 134.38 468.69 135.73 Z" />
<path fill="#010101" opacity="1.00" d=" M 503.18 120.03 C 508.74 120.24 514.51 119.24 519.93 120.83 C 525.33 122.68 525.69 131.14 520.66 133.65 C 516.23 135.68 511.20 134.87 506.48 135.03 C 506.49 138.36 506.49 141.68 506.48 145.01 C 505.66 145.00 504.01 144.99 503.18 144.98 C 503.19 136.66 503.19 128.35 503.18 120.03 M 506.50 123.01 C 506.49 126.01 506.49 129.00 506.50 131.99 C 510.41 131.86 514.52 132.58 518.29 131.31 C 521.58 129.82 521.36 124.37 517.84 123.37 C 514.11 122.64 510.27 123.05 506.50 123.01 Z" />
<path fill="#010101" opacity="1.00" d=" M 566.14 121.00 C 568.12 119.71 570.65 120.15 572.89 119.90 C 572.90 120.61 572.90 122.04 572.90 122.75 C 571.33 122.93 569.76 123.11 568.21 123.30 C 568.02 124.50 567.85 125.71 567.68 126.91 C 568.63 126.95 570.55 127.04 571.51 127.08 C 571.51 127.79 571.51 129.22 571.51 129.93 C 570.58 129.96 568.74 130.03 567.82 130.07 C 567.81 135.04 567.81 140.01 567.82 144.99 C 566.99 144.99 565.35 145.00 564.52 145.01 C 564.49 140.07 564.49 135.13 564.55 130.19 C 563.78 130.10 562.26 129.93 561.50 129.85 C 561.49 129.18 561.47 127.85 561.46 127.18 C 562.16 127.09 563.58 126.92 564.29 126.83 C 564.74 124.88 564.20 122.26 566.14 121.00 Z" />
<path fill="#010101" opacity="1.00" d=" M 634.69 120.00 C 635.52 120.00 637.17 120.00 638.00 120.00 C 638.00 120.75 638.00 122.24 638.01 122.99 C 637.18 122.99 635.52 123.00 634.70 123.01 C 634.70 122.25 634.69 120.75 634.69 120.00 Z" />
<path fill="#010101" opacity="1.00" d=" M 708.64 119.99 C 709.44 120.00 711.02 120.01 711.82 120.01 C 711.81 128.34 711.81 136.66 711.81 144.99 C 711.02 144.99 709.43 145.00 708.64 145.01 C 708.61 136.67 708.61 128.33 708.64 119.99 Z" />
<path fill="#010101" opacity="1.00" d=" M 731.44 123.52 C 737.46 117.80 749.42 118.91 752.17 127.55 C 748.61 128.45 747.12 125.06 744.61 123.53 C 740.55 122.16 735.18 122.99 732.93 127.00 C 730.21 132.08 731.66 140.43 738.09 141.74 C 742.81 143.19 747.75 140.68 749.47 136.10 C 750.56 136.41 751.65 136.72 752.76 137.03 C 751.19 139.92 749.33 143.05 746.00 144.11 C 740.42 146.17 732.71 144.90 729.72 139.26 C 726.99 134.37 727.26 127.52 731.44 123.52 Z" />
<path fill="#010101" opacity="1.00" d=" M 834.69 120.01 C 835.51 120.01 837.17 120.00 838.00 120.00 C 838.00 120.75 838.00 122.24 838.00 122.99 C 837.18 122.99 835.52 123.00 834.70 123.00 C 834.69 122.25 834.69 120.76 834.69 120.01 Z" />
<path fill="#010101" opacity="1.00" d=" M 862.69 120.00 C 863.52 120.00 865.17 120.00 866.00 120.00 C 866.00 120.75 866.00 122.25 866.00 122.99 C 865.17 123.00 863.52 123.00 862.70 123.00 C 862.69 122.25 862.69 120.75 862.69 120.00 Z" />
<path fill="#010101" opacity="1.00" d=" M 238.27 127.27 C 241.68 126.44 245.59 127.32 248.06 129.88 C 250.75 132.85 250.83 137.57 248.97 140.98 C 245.52 146.07 237.11 146.40 233.12 141.79 C 229.41 136.86 231.60 128.14 238.27 127.27 M 238.27 130.35 C 234.29 131.54 233.83 137.09 235.95 140.08 C 239.06 143.77 246.66 142.21 246.75 136.88 C 247.82 132.12 242.54 128.44 238.27 130.35 Z" />
<path fill="#010101" opacity="1.00" d=" M 254.65 126.98 C 255.36 126.99 256.79 127.02 257.51 127.03 C 257.48 127.73 257.41 129.14 257.38 129.84 C 259.46 128.70 261.45 126.88 263.97 126.94 C 266.24 126.86 267.88 128.67 269.66 129.80 C 271.60 128.59 273.51 126.86 275.94 126.94 C 278.39 126.98 281.39 128.32 281.73 131.04 C 282.35 135.67 281.91 140.35 281.98 145.00 C 281.14 145.00 279.46 145.00 278.62 145.00 C 278.50 140.59 279.03 136.12 278.31 131.74 C 276.60 128.67 270.96 129.62 270.26 133.06 C 269.72 137.01 270.04 141.02 270.01 145.00 C 269.16 145.00 267.47 145.00 266.62 145.00 C 266.54 140.81 266.94 136.59 266.42 132.42 C 265.69 128.42 258.85 129.49 258.33 133.18 C 257.71 137.08 258.03 141.06 258.00 145.00 C 257.16 145.00 255.48 145.00 254.64 145.00 C 254.62 138.99 254.61 132.99 254.65 126.98 Z" />
<path fill="#010101" opacity="1.00" d=" M 288.76 129.81 C 292.34 126.17 298.85 125.99 302.53 129.58 C 304.61 131.45 304.69 134.44 305.29 136.97 C 300.02 137.03 294.76 136.94 289.50 137.08 C 290.42 139.14 291.57 141.49 294.08 141.84 C 297.17 142.86 299.98 141.08 302.12 139.04 C 302.89 139.09 304.44 139.20 305.22 139.25 C 303.64 141.31 302.14 143.77 299.46 144.47 C 295.07 145.95 289.00 144.51 287.16 139.87 C 286.08 136.56 286.24 132.44 288.76 129.81 M 289.44 133.79 C 293.68 134.07 297.93 134.08 302.17 133.84 C 300.75 131.76 298.81 129.59 296.01 129.94 C 293.11 129.59 290.95 131.59 289.44 133.79 Z" />
<path fill="#010101" opacity="1.00" d=" M 348.65 127.00 C 349.49 127.00 351.17 127.00 352.01 127.00 C 352.19 131.50 351.39 136.17 352.57 140.56 C 354.97 143.53 361.17 142.00 361.33 137.92 C 361.74 134.32 361.48 130.68 361.47 127.06 C 362.64 127.03 363.81 127.00 364.99 126.97 C 365.01 132.98 365.01 138.99 364.99 145.00 C 364.19 145.00 362.60 145.00 361.80 145.00 C 361.84 144.27 361.90 142.81 361.93 142.08 C 359.81 143.40 357.69 145.25 355.02 145.04 C 352.22 144.93 348.72 143.27 348.74 140.04 C 348.39 135.70 348.68 131.34 348.65 127.00 Z" />
<path fill="#010101" opacity="1.00" d=" M 369.52 127.00 C 370.26 127.00 371.75 127.00 372.49 127.00 C 372.46 127.66 372.40 128.97 372.37 129.63 C 374.05 128.49 375.65 126.65 377.90 126.96 C 379.17 127.01 381.23 128.12 379.63 129.40 C 377.58 130.33 374.24 129.70 373.48 132.38 C 372.60 136.52 373.08 140.80 373.00 145.00 C 372.13 145.00 370.39 145.00 369.52 145.01 C 369.49 139.00 369.49 133.00 369.52 127.00 Z" />
<path fill="#010101" opacity="1.00" d=" M 383.62 128.56 C 388.11 125.67 395.49 126.49 397.62 131.94 C 396.83 131.91 395.26 131.85 394.48 131.82 C 391.80 129.79 387.87 129.06 385.03 131.17 C 385.10 131.54 385.24 132.27 385.30 132.64 C 389.42 134.88 396.50 133.53 398.06 139.04 C 397.70 144.48 390.84 145.91 386.51 144.62 C 383.73 144.11 382.28 141.55 380.82 139.43 C 381.83 139.26 382.85 139.10 383.87 138.94 C 386.44 142.79 392.81 143.41 395.33 139.21 C 391.51 137.65 387.27 137.31 383.59 135.45 C 381.01 134.02 381.15 130.03 383.62 128.56 Z" />
<path fill="#010101" opacity="1.00" d=" M 402.70 127.00 C 403.52 127.00 405.17 127.00 405.99 127.00 C 406.01 133.00 406.01 139.00 405.99 145.00 C 405.17 145.00 403.52 145.00 402.70 145.00 C 402.68 139.00 402.67 133.00 402.70 127.00 Z" />
<path fill="#010101" opacity="1.00" d=" M 410.71 126.50 C 411.99 127.01 413.24 127.68 414.17 128.74 C 417.87 126.73 423.66 125.78 426.24 129.93 C 427.78 134.77 426.73 140.00 426.98 145.00 C 426.14 145.00 424.46 145.00 423.62 145.00 C 423.58 141.05 423.86 137.08 423.47 133.14 C 423.00 128.60 415.19 128.99 414.35 133.12 C 413.70 137.04 414.03 141.04 414.00 145.00 C 413.16 145.00 411.48 145.00 410.64 145.00 C 410.64 138.83 410.55 132.67 410.71 126.50 Z" />
<path fill="#010101" opacity="1.00" d=" M 437.27 127.36 C 440.16 126.16 442.97 127.67 445.34 129.26 C 445.81 127.36 447.43 126.87 449.17 126.65 C 449.11 132.79 449.48 138.95 448.97 145.07 C 448.55 153.91 432.98 154.67 431.35 146.06 C 432.16 146.07 433.79 146.10 434.61 146.11 C 436.45 148.78 439.72 149.74 442.80 148.73 C 445.28 148.24 445.41 145.28 446.26 143.40 C 443.16 144.31 439.76 145.85 436.56 144.40 C 429.41 141.69 429.77 129.36 437.27 127.36 M 438.16 130.28 C 434.43 131.57 434.14 136.50 435.56 139.60 C 438.01 143.90 445.90 142.25 445.81 137.04 C 446.94 132.68 442.37 128.50 438.16 130.28 Z" />
<path fill="#010101" opacity="1.00" d=" M 528.57 126.54 C 529.96 126.94 531.31 127.53 532.06 128.85 C 534.19 127.38 537.16 125.93 539.41 128.10 C 538.32 131.19 533.31 128.99 532.48 132.37 C 531.60 136.51 532.08 140.79 532.00 145.00 C 531.13 145.00 529.39 145.00 528.52 145.00 C 528.51 138.85 528.44 132.70 528.57 126.54 Z" />
<path fill="#010101" opacity="1.00" d=" M 547.26 127.27 C 550.68 126.44 554.61 127.33 557.08 129.91 C 560.83 134.11 559.68 142.18 554.05 144.15 C 548.99 146.52 541.22 144.13 540.54 137.98 C 539.42 133.24 542.26 128.00 547.26 127.27 M 547.24 130.36 C 543.29 131.56 542.83 137.08 544.94 140.07 C 548.03 143.77 555.64 142.22 555.75 136.90 C 556.83 132.12 551.53 128.42 547.24 130.36 Z" />
<path fill="#010101" opacity="1.00" d=" M 573.85 130.97 C 576.96 126.25 584.49 125.64 588.50 129.56 C 590.60 131.42 590.70 134.42 591.29 136.97 C 586.02 137.03 580.76 136.94 575.51 137.08 C 576.43 139.12 577.54 141.48 580.05 141.83 C 583.14 142.87 585.97 141.08 588.12 139.04 C 588.88 139.07 590.38 139.13 591.14 139.16 C 588.89 144.12 582.87 146.43 577.86 144.26 C 572.42 142.63 571.17 135.39 573.85 130.97 M 575.44 133.78 C 579.72 134.12 584.03 134.10 588.31 133.69 C 586.70 131.80 584.81 129.62 582.05 129.94 C 579.14 129.57 576.95 131.57 575.44 133.78 Z" />
<path fill="#010101" opacity="1.00" d=" M 596.62 128.56 C 601.11 125.66 608.49 126.49 610.62 131.94 C 609.83 131.91 608.25 131.84 607.45 131.81 C 604.54 129.33 600.67 129.80 597.33 131.07 C 600.29 135.29 606.68 133.30 610.06 136.89 C 611.76 138.73 610.88 141.58 609.13 143.03 C 604.28 146.72 595.95 145.44 593.95 139.17 C 594.70 139.14 596.20 139.07 596.95 139.04 C 599.53 142.78 605.93 143.43 608.29 139.15 C 604.46 137.65 600.23 137.31 596.56 135.43 C 594.00 133.99 594.17 130.02 596.62 128.56 Z" />
<path fill="#010101" opacity="1.00" d=" M 616.59 128.59 C 621.12 125.62 628.89 126.47 630.62 132.31 C 626.22 131.38 621.01 127.83 617.20 132.09 C 620.80 133.75 624.79 134.23 628.48 135.64 C 631.26 136.76 631.75 140.60 629.60 142.59 C 624.92 146.84 615.97 145.65 613.96 139.15 C 614.70 139.13 616.20 139.08 616.95 139.05 C 619.53 142.75 624.79 142.91 628.14 140.17 C 627.79 139.73 627.10 138.84 626.75 138.40 C 623.33 137.53 619.68 137.16 616.56 135.43 C 614.02 134.01 614.16 130.05 616.59 128.59 Z" />
<path fill="#010101" opacity="1.00" d=" M 634.70 127.00 C 635.52 127.00 637.17 127.00 637.99 127.00 C 638.00 133.00 638.01 139.00 637.99 145.00 C 637.17 145.00 635.52 145.00 634.70 145.00 C 634.67 139.00 634.67 133.00 634.70 127.00 Z" />
<path fill="#010101" opacity="1.00" d=" M 649.22 127.29 C 652.64 126.43 656.60 127.31 659.08 129.91 C 662.83 134.10 661.68 142.17 656.06 144.15 C 651.01 146.52 643.23 144.14 642.54 137.99 C 641.42 133.27 644.23 128.03 649.22 127.29 M 649.26 130.36 C 644.13 131.90 644.61 141.07 650.02 141.85 C 653.83 143.13 658.23 140.12 657.79 135.99 C 658.28 131.49 653.13 128.66 649.26 130.36 Z" />
<path fill="#010101" opacity="1.00" d=" M 665.71 126.50 C 666.99 127.01 668.24 127.68 669.16 128.75 C 672.84 126.74 678.56 125.79 681.20 129.85 C 682.81 134.70 681.73 139.98 681.98 145.00 C 681.14 145.00 679.46 145.00 678.62 145.00 C 678.54 140.82 678.97 136.60 678.34 132.45 C 676.98 128.32 669.32 129.42 669.22 133.85 C 668.78 137.55 669.00 141.28 669.00 145.00 C 668.16 145.00 666.48 145.00 665.64 145.01 C 665.64 138.84 665.55 132.67 665.71 126.50 Z" />
<path fill="#010101" opacity="1.00" d=" M 691.49 127.41 C 695.14 126.53 700.69 126.57 702.40 130.61 C 703.16 135.37 702.65 140.25 703.53 145.02 C 702.87 145.02 701.55 145.01 700.89 145.01 C 700.42 144.44 699.95 143.86 699.50 143.29 C 695.69 144.71 691.08 146.18 687.40 143.67 C 684.52 141.94 685.24 137.32 688.29 136.21 C 692.12 134.79 696.29 134.82 700.25 133.89 C 698.90 128.49 691.44 128.88 688.69 132.91 C 687.92 132.92 686.39 132.93 685.63 132.94 C 686.86 130.47 688.47 127.82 691.49 127.41 M 689.00 138.94 C 689.02 139.44 689.04 140.44 689.05 140.94 C 692.98 143.40 698.99 141.92 700.27 137.15 C 696.48 137.40 692.58 137.54 689.00 138.94 Z" />
<path fill="#010101" opacity="1.00" d=" M 760.79 127.62 C 764.60 126.46 770.51 126.37 772.40 130.60 C 773.16 135.36 772.65 140.25 773.53 145.02 C 772.87 145.02 771.55 145.01 770.89 145.01 C 770.42 144.44 769.95 143.86 769.49 143.29 C 765.68 144.72 761.03 146.19 757.35 143.64 C 754.52 141.89 755.25 137.34 758.27 136.22 C 762.10 134.79 766.29 134.83 770.26 133.89 C 768.90 128.51 761.46 128.88 758.71 132.90 C 757.94 132.91 756.40 132.93 755.63 132.95 C 756.84 130.76 758.06 128.15 760.79 127.62 M 758.39 141.09 C 762.73 142.76 768.82 142.46 770.29 137.17 C 766.37 137.97 760.07 136.32 758.39 141.09 Z" />
<path fill="#010101" opacity="1.00" d=" M 777.57 126.55 C 778.97 126.92 780.33 127.52 781.03 128.89 C 782.56 128.10 784.02 126.76 785.88 126.96 C 787.17 127.08 789.13 127.97 787.68 129.38 C 785.61 130.34 782.23 129.68 781.47 132.39 C 780.60 136.53 781.08 140.80 781.00 145.00 C 780.13 145.00 778.39 145.00 777.52 145.00 C 777.51 138.85 777.44 132.70 777.57 126.55 Z" />
<path fill="#010101" opacity="1.00" d=" M 791.78 129.78 C 795.36 126.18 801.84 125.99 805.51 129.57 C 807.60 131.43 807.69 134.43 808.29 136.97 C 803.03 137.03 797.76 136.94 792.51 137.08 C 793.43 139.13 794.56 141.49 797.07 141.84 C 800.15 142.86 802.98 141.09 805.12 139.04 C 805.89 139.09 807.44 139.20 808.22 139.26 C 806.63 141.32 805.11 143.78 802.43 144.48 C 798.04 145.94 791.98 144.50 790.15 139.85 C 789.07 136.54 789.25 132.41 791.78 129.78 M 792.44 133.79 C 796.68 134.08 800.93 134.08 805.18 133.83 C 803.75 131.77 801.85 129.62 799.07 129.94 C 796.15 129.57 793.95 131.57 792.44 133.79 Z" />
<path fill="#010101" opacity="1.00" d=" M 817.29 127.36 C 820.16 126.16 822.96 127.68 825.33 129.24 C 825.80 127.35 827.43 126.87 829.17 126.65 C 829.11 132.78 829.48 138.93 828.98 145.05 C 828.57 153.91 812.98 154.68 811.35 146.07 C 812.17 146.08 813.79 146.10 814.61 146.11 C 816.46 148.78 819.71 149.75 822.80 148.73 C 825.28 148.24 825.41 145.28 826.25 143.40 C 823.17 144.31 819.82 145.82 816.64 144.43 C 809.40 141.79 809.74 129.35 817.29 127.36 M 818.13 130.30 C 814.41 131.62 814.14 136.53 815.57 139.62 C 818.04 143.91 825.91 142.24 825.81 137.02 C 826.94 132.65 822.33 128.48 818.13 130.30 Z" />
<path fill="#010101" opacity="1.00" d=" M 834.70 127.00 C 835.52 127.00 837.17 127.00 837.99 127.00 C 838.00 133.00 838.00 139.00 837.99 145.00 C 837.17 145.00 835.52 145.00 834.70 145.00 C 834.67 139.00 834.67 133.00 834.70 127.00 Z" />
<path fill="#010101" opacity="1.00" d=" M 841.51 127.00 C 842.40 127.00 844.19 127.00 845.08 127.00 C 847.01 131.77 848.90 136.57 850.75 141.37 C 852.68 136.64 854.49 131.86 856.29 127.08 C 857.52 127.04 858.75 127.01 860.00 126.97 C 857.57 132.97 855.11 138.96 852.73 144.97 C 851.51 144.98 850.29 145.00 849.09 145.02 C 846.49 139.04 844.02 133.01 841.51 127.00 Z" />
<path fill="#010101" opacity="1.00" d=" M 862.70 127.00 C 863.52 127.00 865.17 127.00 865.99 127.00 C 866.00 133.00 866.00 139.00 865.99 145.00 C 865.17 145.00 863.52 145.00 862.70 145.00 C 862.67 139.00 862.67 133.00 862.70 127.00 Z" />
<path fill="#010101" opacity="1.00" d=" M 871.70 126.50 C 872.98 127.01 874.24 127.67 875.18 128.74 C 878.87 126.72 884.66 125.78 887.24 129.93 C 888.78 134.77 887.73 140.00 887.98 145.00 C 887.14 145.00 885.47 145.00 884.63 145.01 C 884.54 140.82 884.96 136.59 884.34 132.44 C 882.95 128.30 875.25 129.45 875.21 133.92 C 874.79 137.59 875.00 141.31 875.00 145.00 C 874.16 145.00 872.48 145.00 871.64 145.00 C 871.64 138.83 871.55 132.67 871.70 126.50 Z" />
<path fill="#010101" opacity="1.00" d=" M 898.28 127.36 C 901.17 126.16 903.97 127.68 906.34 129.26 C 906.80 127.35 908.43 126.87 910.17 126.66 C 910.11 132.77 910.47 138.90 909.98 145.00 C 909.62 153.90 894.00 154.70 892.35 146.07 C 893.16 146.08 894.79 146.10 895.61 146.11 C 897.45 148.79 900.72 149.74 903.81 148.73 C 906.28 148.23 906.40 145.28 907.26 143.40 C 904.15 144.31 900.76 145.84 897.56 144.40 C 890.40 141.69 890.77 129.35 898.28 127.36 M 899.16 130.28 C 895.41 131.58 895.12 136.55 896.58 139.65 C 899.08 143.90 906.90 142.23 906.81 137.03 C 907.94 132.68 903.37 128.50 899.16 130.28 Z" />
</g>
<g id="#feffffff">
<path fill="#feffff" opacity="1.00" d=" M 145.62 130.77 C 147.16 128.48 148.68 126.18 150.28 123.93 C 152.46 126.06 149.39 128.05 148.49 129.97 C 149.19 130.46 150.60 131.44 151.30 131.93 C 152.73 130.38 153.74 127.91 156.22 128.04 C 155.31 129.78 154.25 131.44 153.21 133.10 C 154.36 133.88 155.52 134.67 156.67 135.45 C 158.05 133.72 158.82 130.56 161.65 131.33 C 160.25 133.68 158.70 135.94 157.21 138.23 C 153.15 136.07 149.47 133.27 145.62 130.77 Z" />
</g>
<g id="#1d6325ff">
<path fill="#1d6325" opacity="1.00" d=" M 115.41 153.49 C 116.62 153.27 117.83 153.01 119.05 152.83 C 120.31 153.47 120.44 154.91 120.80 156.10 C 119.49 156.70 118.19 157.30 116.88 157.89 C 116.39 156.42 115.89 154.96 115.41 153.49 Z" />
</g>
<g id="#196122ff">
<path fill="#196122" opacity="1.00" d=" M 77.69 154.45 C 79.04 154.94 80.39 155.43 81.74 155.93 C 81.36 157.08 80.95 158.22 80.54 159.36 C 79.58 159.31 78.63 159.26 77.67 159.21 C 77.39 158.98 76.82 158.51 76.54 158.28 C 76.93 157.00 77.31 155.73 77.69 154.45 Z" />
</g>
</svg>
